sim/report/logs/axi4_outstanding_test_run_9_seed_34334184.log
# vsim -c -coverage -sv_seed 34334184 "+UVM_TESTNAME=axi4_outstanding_test" "+UVM_VERBOSITY=UVM_HIGH" "+DUMP_VCD" -l ./report/logs/axi4_outstanding_test_run_9_seed_34334184.log -do "coverage save -onexit ./report/coverage/axi4_outstanding_test_run_9_seed_34334184.ucdb; run -all; quit -f" opt_tb_top 
# Start time: 11:24:37 on Jun 05,2026
# //  Questa Sim-64
# //  Version 10.6b linux_x86_64 May 25 2017
# //
# //  Copyright 1991-2017 Mentor Graphics Corporation
# //  All Rights Reserved.
# //
# //  QuestaSim and its associated documentation contain trade
# //  secrets and commercial or financial information that are the property of
# //  Mentor Graphics Corporation and are privileged, confidential,
# //  and exempt from disclosure under the Freedom of Information Act,
# //  5 U.S.C. Section 552. Furthermore, this information
# //  is prohibited from disclosure under the Trade Secrets Act,
# //  18 U.S.C. Section 1905.
# //
# Loading sv_std.std
# Loading work.axi4_if(fast)
# Loading mtiUvm.uvm_pkg
# Loading work.axi4_pkg(fast)
# Loading work.axi4_test_pkg(fast)
# Loading work.tb_top(fast)
# Loading work.axi4_if(fast)
# Loading work.axi4_sva(fast)
# Loading mtiUvm.questa_uvm_pkg(fast)
# Loading /cadtools/mentor/Questa_10.6b/questasim/uvm-1.1d/linux_x86_64/uvm_dpi.so
# coverage save -onexit ./report/coverage/axi4_outstanding_test_run_9_seed_34334184.ucdb
#  run -all
# ----------------------------------------------------------------
# UVM-1.1d
# (C) 2007-2013 Mentor Graphics Corporation
# (C) 2007-2013 Cadence Design Systems, Inc.
# (C) 2006-2013 Synopsys, Inc.
# (C) 2011-2013 Cypress Semiconductor Corp.
# ----------------------------------------------------------------
# 
#   ***********       IMPORTANT RELEASE NOTES         ************
# 
#   You are using a version of the UVM library that has been compiled
#   with `UVM_NO_DEPRECATED undefined.
#   See http://www.eda.org/svdb/view.php?id=3313 for more details.
# 
#   You are using a version of the UVM library that has been compiled
#   with `UVM_OBJECT_MUST_HAVE_CONSTRUCTOR undefined.
#   See http://www.eda.org/svdb/view.php?id=3770 for more details.
# 
#       (Specify +UVM_NO_RELNOTES to turn off this notice)
# 
# UVM_INFO verilog_src/questa_uvm_pkg-1.2/src/questa_uvm_pkg.sv(215) @ 0: reporter [Questa UVM] QUESTA_UVM-1.2.3
# UVM_INFO verilog_src/questa_uvm_pkg-1.2/src/questa_uvm_pkg.sv(217) @ 0: reporter [Questa UVM]  questa_uvm::init(+struct)
# UVM_INFO ../src/tb_top.sv(128) @ 0: reporter [TB_TOP] Virtual interface set in config_db
# UVM_INFO @ 0: reporter [RNTST] Running test axi4_outstanding_test...
# UVM_INFO ../src/tb_top.sv(142) @ 0: reporter [TB_TOP] Waveform VCD dumping enabled (axi4_vip.vcd)
# UVM_INFO ../src/env/axi4_vip_env.sv(83) @ 0: uvm_test_top.env [axi4_vip_env] slave_vif not set - reusing master_vif (passthrough mode)
# UVM_INFO ../src/env/axi4_vip_env.sv(93) @ 0: uvm_test_top.env [axi4_vip_env] Scoreboard created
# UVM_INFO ../src/env/axi4_vip_env.sv(100) @ 0: uvm_test_top.env [axi4_vip_env] Coverage collectors created
# UVM_INFO ../src/mst/axi4_master_agent.sv(69) @ 0: uvm_test_top.env.master_agent [axi4_master_agent] ACTIVE mode - driver + sequencer created
# UVM_INFO ../src/slv/axi4_slave_agent.sv(82) @ 0: uvm_test_top.env.slave_agent [axi4_slave_agent] ACTIVE mode — ready_delay=[0:0] resp_delay=[0:0]
# UVM_INFO ../src/env/axi4_vip_env.sv(116) @ 0: uvm_test_top.env [axi4_vip_env] Scoreboard connected: master_mon.ap -> scb, slave_mon.ap -> scb
# UVM_INFO ../src/env/axi4_vip_env.sv(124) @ 0: uvm_test_top.env [axi4_vip_env] Coverage connected: master_mon.ap -> master_cov, slave_mon.ap -> slave_cov
# UVM_INFO @ 0: reporter [UVMTOP] UVM testbench topology:
# ---------------------------------------------------------------
# Name                       Type                     Size  Value
# ---------------------------------------------------------------
# uvm_test_top               axi4_outstanding_test    -     @473 
#   env                      axi4_vip_env             -     @488 
#     master_agent           axi4_master_agent        -     @503 
#       drv                  axi4_master_driver       -     @567 
#         rsp_port           uvm_analysis_port        -     @582 
#         seq_item_port      uvm_seq_item_pull_port   -     @574 
#       mon                  axi4_master_monitor      -     @559 
#         ap                 uvm_analysis_port        -     @700 
#       sqr                  axi4_master_sequencer    -     @590 
#         rsp_export         uvm_analysis_export      -     @597 
#         seq_item_export    uvm_seq_item_pull_imp    -     @691 
#         arbitration_queue  array                    0     -    
#         lock_queue         array                    0     -    
#         num_last_reqs      integral                 32    'd1  
#         num_last_rsps      integral                 32    'd1  
#     master_cov             axi4_coverage            -     @524 
#       analysis_imp         uvm_analysis_imp         -     @531 
#     scb                    axi4_scoreboard          -     @517 
#       master_export        uvm_analysis_imp_master  -     @714 
#       slave_export         uvm_analysis_imp_slave   -     @722 
#     slave_agent            axi4_slave_agent         -     @510 
#       drv                  axi4_slave_driver        -     @753 
#         rsp_port           uvm_analysis_port        -     @768 
#         seq_item_port      uvm_seq_item_pull_port   -     @760 
#       mon                  axi4_slave_monitor       -     @735 
#         ap                 uvm_analysis_port        -     @890 
#       sqr                  axi4_slave_sequencer     -     @776 
#         rsp_export         uvm_analysis_export      -     @783 
#         seq_item_export    uvm_seq_item_pull_imp    -     @877 
#         arbitration_queue  array                    0     -    
#         lock_queue         array                    0     -    
#         num_last_reqs      integral                 32    'd1  
#         num_last_rsps      integral                 32    'd1  
#     slave_cov              axi4_coverage            -     @539 
#       analysis_imp         uvm_analysis_imp         -     @546 
# ---------------------------------------------------------------
# 
# UVM_INFO verilog_src/questa_uvm_pkg-1.2/src/questa_uvm_pkg.sv(277) @ 0: reporter [Questa UVM] End Of Elaboration
# UVM_INFO ../src/test/axi4_outstanding_test.sv(45) @ 0: uvm_test_top [axi4_outstanding_test] Starting outstanding test with 15 writes, 15 reads, depth=4
# UVM_INFO ../src/seq/axi4_outstanding_seq.sv(40) @ 0: uvm_test_top.env.master_agent.sqr@@outstanding_seq [axi4_outstanding_seq] Starting outstanding sequence: writes=15, reads=15, depth=4
# UVM_INFO ../src/tb_top.sv(49) @ 95000: reporter [TOP_TB] Reset de-asserted
# UVM_INFO ../src/slv/axi4_slave_driver.sv(70) @ 95000: uvm_test_top.env.slave_agent.drv [axi4_slave_driver] Reset deasserted - slave driver active
# UVM_INFO ../src/mst/axi4_master_driver.sv(46) @ 95000: uvm_test_top.env.master_agent.drv [axi4_master_driver] Reset deasserted - master driver active
# UVM_INFO ../src/mst/axi4_master_monitor.sv(77) @ 95000: uvm_test_top.env.master_agent.mon [axi4_master_monitor] Reset deasserted — monitor active
# UVM_INFO ../src/slv/axi4_slave_monitor.sv(71) @ 95000: uvm_test_top.env.slave_agent.mon [axi4_slave_monitor] Reset deasserted — monitor active
# UVM_INFO ../src/seq/axi4_outstanding_seq.sv(65) @ 95000: uvm_test_top.env.master_agent.sqr@@outstanding_seq [axi4_outstanding_seq] Outstanding Write [#3] started: ID=0x0 ADDR=0x41f314c8 LEN=246
# UVM_INFO ../src/mst/axi4_master_driver.sv(55) @ 95000: uvm_test_top.env.master_agent.drv [axi4_master_driver] Driving AXI4_WRITE  ID=0x0  ADDR=0x41f314c8  LEN=246
# UVM_INFO ../src/mst/axi4_master_driver.sv(101) @ 95000: uvm_test_top.env.master_agent.drv [axi4_master_driver] Write order: AW -> W (sequential)
# UVM_INFO ../src/slv/axi4_slave_driver.sv(165) @ 115000: uvm_test_top.env.slave_agent.drv [axi4_slave_driver] AW received: ID=0x0 ADDR=0x41f314c8 LEN=246 LOCK=AXI4_LOCK_NORMAL
# UVM_INFO ../src/slv/axi4_slave_monitor.sv(116) @ 115000: uvm_test_top.env.slave_agent.mon [axi4_slave_monitor] AW received: ID=0x0 ADDR=0x41f314c8 LEN=246
# UVM_INFO ../src/mst/axi4_master_monitor.sv(124) @ 115000: uvm_test_top.env.master_agent.mon [axi4_master_monitor] AW observed: ID=0x0 ADDR=0x41f314c8 LEN=246
# UVM_INFO ../src/slv/axi4_slave_monitor.sv(167) @ 5055000: uvm_test_top.env.slave_agent.mon [axi4_slave_monitor] W data assembled: ID=0x0 ADDR=0x41f314c8 247 beats
# UVM_INFO ../src/mst/axi4_master_monitor.sv(184) @ 5055000: uvm_test_top.env.master_agent.mon [axi4_master_monitor] W data assembled: ID=0x0 ADDR=0x41f314c8 247 beats
# UVM_INFO ../src/mst/axi4_master_driver.sv(197) @ 5085000: uvm_test_top.env.master_agent.drv [axi4_master_driver] Write response: AXI4_RESP_OKAY
# UVM_INFO ../src/slv/axi4_slave_driver.sv(261) @ 5085000: uvm_test_top.env.slave_agent.drv [axi4_slave_driver] Write complete: ID=0x0 ADDR=0x41f314c8 RESP=AXI4_RESP_OKAY  247 beats processed
# UVM_INFO ../src/mst/axi4_master_monitor.sv(210) @ 5085000: uvm_test_top.env.master_agent.mon [axi4_master_monitor] Write complete: ID=0x0 ADDR=0x41f314c8 RESP=AXI4_RESP_OKAY
# UVM_INFO ../src/env/axi4_scoreboard.sv(82) @ 5085000: uvm_test_top.env.scb [axi4_scoreboard] Master AXI4_WRITE received: ID=0x0 ADDR=0x41f314c8 LEN=246
# UVM_INFO ../src/slv/axi4_slave_monitor.sv(189) @ 5085000: uvm_test_top.env.slave_agent.mon [axi4_slave_monitor] Write response sent: ID=0x0 ADDR=0x41f314c8 RESP=AXI4_RESP_OKAY
# UVM_INFO ../src/env/axi4_scoreboard.sv(103) @ 5085000: uvm_test_top.env.scb [axi4_scoreboard] Slave AXI4_WRITE received: ID=0x0 ADDR=0x41f314c8 LEN=246
# UVM_INFO ../src/env/axi4_scoreboard.sv(154) @ 5085000: uvm_test_top.env.scb [axi4_scoreboard] [WRITE] MATCH #1: ID=0x0 ADDR=0x41f314c8 LEN=246
# UVM_INFO ../src/seq/axi4_outstanding_seq.sv(71) @ 5085000: uvm_test_top.env.master_agent.sqr@@outstanding_seq [axi4_outstanding_seq] Outstanding Write [#3] complete: ID=0x0
# UVM_INFO ../src/seq/axi4_outstanding_seq.sv(65) @ 5085000: uvm_test_top.env.master_agent.sqr@@outstanding_seq [axi4_outstanding_seq] Outstanding Write [#2] started: ID=0x6 ADDR=0x9499334a LEN=45
# UVM_INFO ../src/mst/axi4_master_driver.sv(55) @ 5085000: uvm_test_top.env.master_agent.drv [axi4_master_driver] Driving AXI4_WRITE  ID=0x6  ADDR=0x9499334a  LEN=45
# UVM_INFO ../src/mst/axi4_master_driver.sv(94) @ 5085000: uvm_test_top.env.master_agent.drv [axi4_master_driver] Write order: AW || W (parallel)
# UVM_INFO ../src/slv/axi4_slave_driver.sv(165) @ 5115000: uvm_test_top.env.slave_agent.drv [axi4_slave_driver] AW received: ID=0x6 ADDR=0x9499334a LEN=45 LOCK=AXI4_LOCK_NORMAL
# UVM_INFO ../src/slv/axi4_slave_monitor.sv(116) @ 5115000: uvm_test_top.env.slave_agent.mon [axi4_slave_monitor] AW received: ID=0x6 ADDR=0x9499334a LEN=45
# UVM_INFO ../src/mst/axi4_master_monitor.sv(124) @ 5115000: uvm_test_top.env.master_agent.mon [axi4_master_monitor] AW observed: ID=0x6 ADDR=0x9499334a LEN=45
# UVM_INFO ../src/mst/axi4_master_monitor.sv(184) @ 6005000: uvm_test_top.env.master_agent.mon [axi4_master_monitor] W data assembled: ID=0x6 ADDR=0x9499334a 46 beats
# UVM_INFO ../src/slv/axi4_slave_monitor.sv(167) @ 6005000: uvm_test_top.env.slave_agent.mon [axi4_slave_monitor] W data assembled: ID=0x6 ADDR=0x9499334a 46 beats
# UVM_INFO ../src/mst/axi4_master_driver.sv(197) @ 6035000: uvm_test_top.env.master_agent.drv [axi4_master_driver] Write response: AXI4_RESP_OKAY
# UVM_INFO ../src/slv/axi4_slave_driver.sv(261) @ 6035000: uvm_test_top.env.slave_agent.drv [axi4_slave_driver] Write complete: ID=0x6 ADDR=0x9499334a RESP=AXI4_RESP_OKAY  46 beats processed
# UVM_INFO ../src/slv/axi4_slave_monitor.sv(189) @ 6035000: uvm_test_top.env.slave_agent.mon [axi4_slave_monitor] Write response sent: ID=0x6 ADDR=0x9499334a RESP=AXI4_RESP_OKAY
# UVM_INFO ../src/env/axi4_scoreboard.sv(103) @ 6035000: uvm_test_top.env.scb [axi4_scoreboard] Slave AXI4_WRITE received: ID=0x6 ADDR=0x9499334a LEN=45
# UVM_INFO ../src/mst/axi4_master_monitor.sv(210) @ 6035000: uvm_test_top.env.master_agent.mon [axi4_master_monitor] Write complete: ID=0x6 ADDR=0x9499334a RESP=AXI4_RESP_OKAY
# UVM_INFO ../src/env/axi4_scoreboard.sv(82) @ 6035000: uvm_test_top.env.scb [axi4_scoreboard] Master AXI4_WRITE received: ID=0x6 ADDR=0x9499334a LEN=45
# UVM_INFO ../src/env/axi4_scoreboard.sv(154) @ 6035000: uvm_test_top.env.scb [axi4_scoreboard] [WRITE] MATCH #2: ID=0x6 ADDR=0x9499334a LEN=45
# UVM_INFO ../src/seq/axi4_outstanding_seq.sv(71) @ 6035000: uvm_test_top.env.master_agent.sqr@@outstanding_seq [axi4_outstanding_seq] Outstanding Write [#2] complete: ID=0x6
# UVM_INFO ../src/seq/axi4_outstanding_seq.sv(65) @ 6035000: uvm_test_top.env.master_agent.sqr@@outstanding_seq [axi4_outstanding_seq] Outstanding Write [#1] started: ID=0x5 ADDR=0x2a08ba39 LEN=15
# UVM_INFO ../src/mst/axi4_master_driver.sv(55) @ 6035000: uvm_test_top.env.master_agent.drv [axi4_master_driver] Driving AXI4_WRITE  ID=0x5  ADDR=0x2a08ba39  LEN=15
# UVM_INFO ../src/mst/axi4_master_driver.sv(101) @ 6035000: uvm_test_top.env.master_agent.drv [axi4_master_driver] Write order: AW -> W (sequential)
# UVM_INFO ../src/slv/axi4_slave_driver.sv(165) @ 6065000: uvm_test_top.env.slave_agent.drv [axi4_slave_driver] AW received: ID=0x5 ADDR=0x2a08ba39 LEN=15 LOCK=AXI4_LOCK_NORMAL
# UVM_INFO ../src/mst/axi4_master_monitor.sv(124) @ 6065000: uvm_test_top.env.master_agent.mon [axi4_master_monitor] AW observed: ID=0x5 ADDR=0x2a08ba39 LEN=15
# UVM_INFO ../src/slv/axi4_slave_monitor.sv(116) @ 6065000: uvm_test_top.env.slave_agent.mon [axi4_slave_monitor] AW received: ID=0x5 ADDR=0x2a08ba39 LEN=15
# UVM_INFO ../src/mst/axi4_master_monitor.sv(184) @ 6385000: uvm_test_top.env.master_agent.mon [axi4_master_monitor] W data assembled: ID=0x5 ADDR=0x2a08ba39 16 beats
# UVM_INFO ../src/slv/axi4_slave_monitor.sv(167) @ 6385000: uvm_test_top.env.slave_agent.mon [axi4_slave_monitor] W data assembled: ID=0x5 ADDR=0x2a08ba39 16 beats
# UVM_INFO ../src/mst/axi4_master_driver.sv(197) @ 6415000: uvm_test_top.env.master_agent.drv [axi4_master_driver] Write response: AXI4_RESP_OKAY
# UVM_INFO ../src/slv/axi4_slave_driver.sv(261) @ 6415000: uvm_test_top.env.slave_agent.drv [axi4_slave_driver] Write complete: ID=0x5 ADDR=0x2a08ba39 RESP=AXI4_RESP_OKAY  16 beats processed
# UVM_INFO ../src/slv/axi4_slave_monitor.sv(189) @ 6415000: uvm_test_top.env.slave_agent.mon [axi4_slave_monitor] Write response sent: ID=0x5 ADDR=0x2a08ba39 RESP=AXI4_RESP_OKAY
# UVM_INFO ../src/env/axi4_scoreboard.sv(103) @ 6415000: uvm_test_top.env.scb [axi4_scoreboard] Slave AXI4_WRITE received: ID=0x5 ADDR=0x2a08ba39 LEN=15
# UVM_INFO ../src/mst/axi4_master_monitor.sv(210) @ 6415000: uvm_test_top.env.master_agent.mon [axi4_master_monitor] Write complete: ID=0x5 ADDR=0x2a08ba39 RESP=AXI4_RESP_OKAY
# UVM_INFO ../src/env/axi4_scoreboard.sv(82) @ 6415000: uvm_test_top.env.scb [axi4_scoreboard] Master AXI4_WRITE received: ID=0x5 ADDR=0x2a08ba39 LEN=15
# UVM_INFO ../src/env/axi4_scoreboard.sv(154) @ 6415000: uvm_test_top.env.scb [axi4_scoreboard] [WRITE] MATCH #3: ID=0x5 ADDR=0x2a08ba39 LEN=15
# UVM_INFO ../src/seq/axi4_outstanding_seq.sv(71) @ 6415000: uvm_test_top.env.master_agent.sqr@@outstanding_seq [axi4_outstanding_seq] Outstanding Write [#1] complete: ID=0x5
# UVM_INFO ../src/seq/axi4_outstanding_seq.sv(65) @ 6415000: uvm_test_top.env.master_agent.sqr@@outstanding_seq [axi4_outstanding_seq] Outstanding Write [#0] started: ID=0x4 ADDR=0x5cfa9c4b LEN=74
# UVM_INFO ../src/mst/axi4_master_driver.sv(55) @ 6415000: uvm_test_top.env.master_agent.drv [axi4_master_driver] Driving AXI4_WRITE  ID=0x4  ADDR=0x5cfa9c4b  LEN=74
# UVM_INFO ../src/mst/axi4_master_driver.sv(106) @ 6415000: uvm_test_top.env.master_agent.drv [axi4_master_driver] Write order: W -> AW (W first)
# UVM_INFO ../src/slv/axi4_slave_driver.sv(165) @ 6475000: uvm_test_top.env.slave_agent.drv [axi4_slave_driver] AW received: ID=0x4 ADDR=0x5cfa9c4b LEN=74 LOCK=AXI4_LOCK_NORMAL
# UVM_INFO ../src/slv/axi4_slave_monitor.sv(116) @ 6475000: uvm_test_top.env.slave_agent.mon [axi4_slave_monitor] AW received: ID=0x4 ADDR=0x5cfa9c4b LEN=74
# UVM_INFO ../src/mst/axi4_master_monitor.sv(124) @ 6475000: uvm_test_top.env.master_agent.mon [axi4_master_monitor] AW observed: ID=0x4 ADDR=0x5cfa9c4b LEN=74
# UVM_INFO ../src/slv/axi4_slave_monitor.sv(167) @ 7915000: uvm_test_top.env.slave_agent.mon [axi4_slave_monitor] W data assembled: ID=0x4 ADDR=0x5cfa9c4b 75 beats
# UVM_INFO ../src/mst/axi4_master_monitor.sv(184) @ 7915000: uvm_test_top.env.master_agent.mon [axi4_master_monitor] W data assembled: ID=0x4 ADDR=0x5cfa9c4b 75 beats
# UVM_INFO ../src/mst/axi4_master_driver.sv(197) @ 7945000: uvm_test_top.env.master_agent.drv [axi4_master_driver] Write response: AXI4_RESP_OKAY
# UVM_INFO ../src/slv/axi4_slave_driver.sv(261) @ 7945000: uvm_test_top.env.slave_agent.drv [axi4_slave_driver] Write complete: ID=0x4 ADDR=0x5cfa9c4b RESP=AXI4_RESP_OKAY  75 beats processed
# UVM_INFO ../src/mst/axi4_master_monitor.sv(210) @ 7945000: uvm_test_top.env.master_agent.mon [axi4_master_monitor] Write complete: ID=0x4 ADDR=0x5cfa9c4b RESP=AXI4_RESP_OKAY
# UVM_INFO ../src/env/axi4_scoreboard.sv(82) @ 7945000: uvm_test_top.env.scb [axi4_scoreboard] Master AXI4_WRITE received: ID=0x4 ADDR=0x5cfa9c4b LEN=74
# UVM_INFO ../src/slv/axi4_slave_monitor.sv(189) @ 7945000: uvm_test_top.env.slave_agent.mon [axi4_slave_monitor] Write response sent: ID=0x4 ADDR=0x5cfa9c4b RESP=AXI4_RESP_OKAY
# UVM_INFO ../src/env/axi4_scoreboard.sv(103) @ 7945000: uvm_test_top.env.scb [axi4_scoreboard] Slave AXI4_WRITE received: ID=0x4 ADDR=0x5cfa9c4b LEN=74
# UVM_INFO ../src/env/axi4_scoreboard.sv(154) @ 7945000: uvm_test_top.env.scb [axi4_scoreboard] [WRITE] MATCH #4: ID=0x4 ADDR=0x5cfa9c4b LEN=74
# UVM_INFO ../src/seq/axi4_outstanding_seq.sv(71) @ 7945000: uvm_test_top.env.master_agent.sqr@@outstanding_seq [axi4_outstanding_seq] Outstanding Write [#0] complete: ID=0x4
# UVM_INFO ../src/seq/axi4_outstanding_seq.sv(100) @ 7945000: uvm_test_top.env.master_agent.sqr@@outstanding_seq [axi4_outstanding_seq] Outstanding Read [#3] started: ID=0x8 ADDR=0x296d6466 LEN=45
# UVM_INFO ../src/mst/axi4_master_driver.sv(55) @ 7945000: uvm_test_top.env.master_agent.drv [axi4_master_driver] Driving AXI4_READ  ID=0x8  ADDR=0x296d6466  LEN=45
# UVM_INFO ../src/slv/axi4_slave_driver.sv(300) @ 7975000: uvm_test_top.env.slave_agent.drv [axi4_slave_driver] AR received: ID=0x8 ADDR=0x296d6466 LEN=45 LOCK=AXI4_LOCK_NORMAL
# UVM_INFO ../src/slv/axi4_slave_monitor.sv(224) @ 7975000: uvm_test_top.env.slave_agent.mon [axi4_slave_monitor] AR received: ID=0x8 ADDR=0x296d6466 LEN=45
# UVM_INFO ../src/mst/axi4_master_monitor.sv(246) @ 7975000: uvm_test_top.env.master_agent.mon [axi4_master_monitor] AR observed: ID=0x8 ADDR=0x296d6466 LEN=45
# UVM_INFO ../src/mst/axi4_master_driver.sv(254) @ 8895000: uvm_test_top.env.master_agent.drv [axi4_master_driver] Read complete: 46 beats received
# UVM_INFO ../src/slv/axi4_slave_driver.sv(349) @ 8895000: uvm_test_top.env.slave_agent.drv [axi4_slave_driver] Read complete: ID=0x8 ADDR=0x296d6466 RESP=AXI4_RESP_OKAY  46 beats sent
# UVM_INFO ../src/slv/axi4_slave_monitor.sv(287) @ 8895000: uvm_test_top.env.slave_agent.mon [axi4_slave_monitor] Read data sent: ID=0x8 ADDR=0x296d6466 46 beats
# UVM_INFO ../src/env/axi4_scoreboard.sv(103) @ 8895000: uvm_test_top.env.scb [axi4_scoreboard] Slave AXI4_READ received: ID=0x8 ADDR=0x296d6466 LEN=45
# UVM_INFO ../src/mst/axi4_master_monitor.sv(314) @ 8895000: uvm_test_top.env.master_agent.mon [axi4_master_monitor] Read complete: ID=0x8 ADDR=0x296d6466 46 beats
# UVM_INFO ../src/env/axi4_scoreboard.sv(82) @ 8895000: uvm_test_top.env.scb [axi4_scoreboard] Master AXI4_READ received: ID=0x8 ADDR=0x296d6466 LEN=45
# UVM_INFO ../src/env/axi4_scoreboard.sv(154) @ 8895000: uvm_test_top.env.scb [axi4_scoreboard] [READ] MATCH #5: ID=0x8 ADDR=0x296d6466 LEN=45
# UVM_INFO ../src/seq/axi4_outstanding_seq.sv(106) @ 8895000: uvm_test_top.env.master_agent.sqr@@outstanding_seq [axi4_outstanding_seq] Outstanding Read [#3] complete: ID=0x8
# UVM_INFO ../src/seq/axi4_outstanding_seq.sv(100) @ 8895000: uvm_test_top.env.master_agent.sqr@@outstanding_seq [axi4_outstanding_seq] Outstanding Read [#2] started: ID=0xa ADDR=0xfd7e91be LEN=93
# UVM_INFO ../src/mst/axi4_master_driver.sv(55) @ 8895000: uvm_test_top.env.master_agent.drv [axi4_master_driver] Driving AXI4_READ  ID=0xa  ADDR=0xfd7e91be  LEN=93
# UVM_INFO ../src/slv/axi4_slave_driver.sv(300) @ 8925000: uvm_test_top.env.slave_agent.drv [axi4_slave_driver] AR received: ID=0xa ADDR=0xfd7e91be LEN=93 LOCK=AXI4_LOCK_NORMAL
# UVM_INFO ../src/mst/axi4_master_monitor.sv(246) @ 8925000: uvm_test_top.env.master_agent.mon [axi4_master_monitor] AR observed: ID=0xa ADDR=0xfd7e91be LEN=93
# UVM_INFO ../src/slv/axi4_slave_monitor.sv(224) @ 8925000: uvm_test_top.env.slave_agent.mon [axi4_slave_monitor] AR received: ID=0xa ADDR=0xfd7e91be LEN=93
# UVM_INFO ../src/mst/axi4_master_driver.sv(254) @ 10805000: uvm_test_top.env.master_agent.drv [axi4_master_driver] Read complete: 94 beats received
# UVM_INFO ../src/slv/axi4_slave_driver.sv(349) @ 10805000: uvm_test_top.env.slave_agent.drv [axi4_slave_driver] Read complete: ID=0xa ADDR=0xfd7e91be RESP=AXI4_RESP_DECERR  94 beats sent
# UVM_INFO ../src/mst/axi4_master_monitor.sv(314) @ 10805000: uvm_test_top.env.master_agent.mon [axi4_master_monitor] Read complete: ID=0xa ADDR=0xfd7e91be 94 beats
# UVM_INFO ../src/env/axi4_scoreboard.sv(82) @ 10805000: uvm_test_top.env.scb [axi4_scoreboard] Master AXI4_READ received: ID=0xa ADDR=0xfd7e91be LEN=93
# UVM_INFO ../src/slv/axi4_slave_monitor.sv(287) @ 10805000: uvm_test_top.env.slave_agent.mon [axi4_slave_monitor] Read data sent: ID=0xa ADDR=0xfd7e91be 94 beats
# UVM_INFO ../src/env/axi4_scoreboard.sv(103) @ 10805000: uvm_test_top.env.scb [axi4_scoreboard] Slave AXI4_READ received: ID=0xa ADDR=0xfd7e91be LEN=93
# UVM_INFO ../src/env/axi4_scoreboard.sv(154) @ 10805000: uvm_test_top.env.scb [axi4_scoreboard] [READ] MATCH #6: ID=0xa ADDR=0xfd7e91be LEN=93
# UVM_INFO ../src/seq/axi4_outstanding_seq.sv(106) @ 10805000: uvm_test_top.env.master_agent.sqr@@outstanding_seq [axi4_outstanding_seq] Outstanding Read [#2] complete: ID=0xa
# UVM_INFO ../src/seq/axi4_outstanding_seq.sv(100) @ 10805000: uvm_test_top.env.master_agent.sqr@@outstanding_seq [axi4_outstanding_seq] Outstanding Read [#1] started: ID=0x3 ADDR=0x1f777d9b LEN=80
# UVM_INFO ../src/mst/axi4_master_driver.sv(55) @ 10805000: uvm_test_top.env.master_agent.drv [axi4_master_driver] Driving AXI4_READ  ID=0x3  ADDR=0x1f777d9b  LEN=80
# UVM_INFO ../src/slv/axi4_slave_driver.sv(300) @ 10835000: uvm_test_top.env.slave_agent.drv [axi4_slave_driver] AR received: ID=0x3 ADDR=0x1f777d9b LEN=80 LOCK=AXI4_LOCK_NORMAL
# UVM_INFO ../src/slv/axi4_slave_monitor.sv(224) @ 10835000: uvm_test_top.env.slave_agent.mon [axi4_slave_monitor] AR received: ID=0x3 ADDR=0x1f777d9b LEN=80
# UVM_INFO ../src/mst/axi4_master_monitor.sv(246) @ 10835000: uvm_test_top.env.master_agent.mon [axi4_master_monitor] AR observed: ID=0x3 ADDR=0x1f777d9b LEN=80
# UVM_INFO ../src/mst/axi4_master_driver.sv(254) @ 12455000: uvm_test_top.env.master_agent.drv [axi4_master_driver] Read complete: 81 beats received
# UVM_INFO ../src/slv/axi4_slave_driver.sv(349) @ 12455000: uvm_test_top.env.slave_agent.drv [axi4_slave_driver] Read complete: ID=0x3 ADDR=0x1f777d9b RESP=AXI4_RESP_OKAY  81 beats sent
# UVM_INFO ../src/slv/axi4_slave_monitor.sv(287) @ 12455000: uvm_test_top.env.slave_agent.mon [axi4_slave_monitor] Read data sent: ID=0x3 ADDR=0x1f777d9b 81 beats
# UVM_INFO ../src/env/axi4_scoreboard.sv(103) @ 12455000: uvm_test_top.env.scb [axi4_scoreboard] Slave AXI4_READ received: ID=0x3 ADDR=0x1f777d9b LEN=80
# UVM_INFO ../src/mst/axi4_master_monitor.sv(314) @ 12455000: uvm_test_top.env.master_agent.mon [axi4_master_monitor] Read complete: ID=0x3 ADDR=0x1f777d9b 81 beats
# UVM_INFO ../src/env/axi4_scoreboard.sv(82) @ 12455000: uvm_test_top.env.scb [axi4_scoreboard] Master AXI4_READ received: ID=0x3 ADDR=0x1f777d9b LEN=80
# UVM_INFO ../src/env/axi4_scoreboard.sv(154) @ 12455000: uvm_test_top.env.scb [axi4_scoreboard] [READ] MATCH #7: ID=0x3 ADDR=0x1f777d9b LEN=80
# UVM_INFO ../src/seq/axi4_outstanding_seq.sv(106) @ 12455000: uvm_test_top.env.master_agent.sqr@@outstanding_seq [axi4_outstanding_seq] Outstanding Read [#1] complete: ID=0x3
# UVM_INFO ../src/seq/axi4_outstanding_seq.sv(100) @ 12455000: uvm_test_top.env.master_agent.sqr@@outstanding_seq [axi4_outstanding_seq] Outstanding Read [#0] started: ID=0xe ADDR=0x91e68f65 LEN=3
# UVM_INFO ../src/mst/axi4_master_driver.sv(55) @ 12455000: uvm_test_top.env.master_agent.drv [axi4_master_driver] Driving AXI4_READ  ID=0xe  ADDR=0x91e68f65  LEN=3
# UVM_INFO ../src/slv/axi4_slave_driver.sv(300) @ 12485000: uvm_test_top.env.slave_agent.drv [axi4_slave_driver] AR received: ID=0xe ADDR=0x91e68f65 LEN=3 LOCK=AXI4_LOCK_EXCLUSIVE
# UVM_INFO ../src/mst/axi4_master_monitor.sv(246) @ 12485000: uvm_test_top.env.master_agent.mon [axi4_master_monitor] AR observed: ID=0xe ADDR=0x91e68f65 LEN=3
# UVM_INFO ../src/slv/axi4_slave_monitor.sv(224) @ 12485000: uvm_test_top.env.slave_agent.mon [axi4_slave_monitor] AR received: ID=0xe ADDR=0x91e68f65 LEN=3
# UVM_INFO ../src/mst/axi4_master_driver.sv(254) @ 12565000: uvm_test_top.env.master_agent.drv [axi4_master_driver] Read complete: 4 beats received
# UVM_INFO ../src/slv/axi4_slave_driver.sv(349) @ 12565000: uvm_test_top.env.slave_agent.drv [axi4_slave_driver] Read complete: ID=0xe ADDR=0x91e68f65 RESP=AXI4_RESP_EXOKAY  4 beats sent
# UVM_INFO ../src/mst/axi4_master_monitor.sv(314) @ 12565000: uvm_test_top.env.master_agent.mon [axi4_master_monitor] Read complete: ID=0xe ADDR=0x91e68f65 4 beats
# UVM_INFO ../src/env/axi4_scoreboard.sv(82) @ 12565000: uvm_test_top.env.scb [axi4_scoreboard] Master AXI4_READ received: ID=0xe ADDR=0x91e68f65 LEN=3
# UVM_INFO ../src/slv/axi4_slave_monitor.sv(287) @ 12565000: uvm_test_top.env.slave_agent.mon [axi4_slave_monitor] Read data sent: ID=0xe ADDR=0x91e68f65 4 beats
# UVM_INFO ../src/env/axi4_scoreboard.sv(103) @ 12565000: uvm_test_top.env.scb [axi4_scoreboard] Slave AXI4_READ received: ID=0xe ADDR=0x91e68f65 LEN=3
