sim/report/logs/axi4_strobe_test_run_4_seed_55236230.log
# vsim -c -coverage -sv_seed 55236230 "+UVM_TESTNAME=axi4_strobe_test" "+UVM_VERBOSITY=UVM_HIGH" "+DUMP_VCD" -l ./report/logs/axi4_strobe_test_run_4_seed_55236230.log -do "coverage save -onexit ./report/coverage/axi4_strobe_test_run_4_seed_55236230.ucdb; run -all; quit -f" opt_tb_top 
# Start time: 11:28:10 on Jun 05,2026
# //  Questa Sim-64
# //  Version 10.6b linux_x86_64 May 25 2017
# //
# //  Copyright 1991-2017 Mentor Graphics Corporation
# //  All Rights Reserved.
# //
# //  QuestaSim and its associated documentation contain trade
# //  secrets and commercial or financial information that are the property of
# //  Mentor Graphics Corporation and are privileged, confidential,
# //  and exempt from disclosure under the Freedom of Information Act,
# //  5 U.S.C. Section 552. Furthermore, this information
# //  is prohibited from disclosure under the Trade Secrets Act,
# //  18 U.S.C. Section 1905.
# //
# Loading sv_std.std
# Loading work.axi4_if(fast)
# Loading mtiUvm.uvm_pkg
# Loading work.axi4_pkg(fast)
# Loading work.axi4_test_pkg(fast)
# Loading work.tb_top(fast)
# Loading work.axi4_if(fast)
# Loading work.axi4_sva(fast)
# Loading mtiUvm.questa_uvm_pkg(fast)
# Loading /cadtools/mentor/Questa_10.6b/questasim/uvm-1.1d/linux_x86_64/uvm_dpi.so
# coverage save -onexit ./report/coverage/axi4_strobe_test_run_4_seed_55236230.ucdb
#  run -all
# ----------------------------------------------------------------
# UVM-1.1d
# (C) 2007-2013 Mentor Graphics Corporation
# (C) 2007-2013 Cadence Design Systems, Inc.
# (C) 2006-2013 Synopsys, Inc.
# (C) 2011-2013 Cypress Semiconductor Corp.
# ----------------------------------------------------------------
# 
#   ***********       IMPORTANT RELEASE NOTES         ************
# 
#   You are using a version of the UVM library that has been compiled
#   with `UVM_NO_DEPRECATED undefined.
#   See http://www.eda.org/svdb/view.php?id=3313 for more details.
# 
#   You are using a version of the UVM library that has been compiled
#   with `UVM_OBJECT_MUST_HAVE_CONSTRUCTOR undefined.
#   See http://www.eda.org/svdb/view.php?id=3770 for more details.
# 
#       (Specify +UVM_NO_RELNOTES to turn off this notice)
# 
# UVM_INFO verilog_src/questa_uvm_pkg-1.2/src/questa_uvm_pkg.sv(215) @ 0: reporter [Questa UVM] QUESTA_UVM-1.2.3
# UVM_INFO verilog_src/questa_uvm_pkg-1.2/src/questa_uvm_pkg.sv(217) @ 0: reporter [Questa UVM]  questa_uvm::init(+struct)
# UVM_INFO ../src/tb_top.sv(128) @ 0: reporter [TB_TOP] Virtual interface set in config_db
# UVM_INFO @ 0: reporter [RNTST] Running test axi4_strobe_test...
# UVM_INFO ../src/tb_top.sv(142) @ 0: reporter [TB_TOP] Waveform VCD dumping enabled (axi4_vip.vcd)
# UVM_INFO ../src/env/axi4_vip_env.sv(83) @ 0: uvm_test_top.env [axi4_vip_env] slave_vif not set - reusing master_vif (passthrough mode)
# UVM_INFO ../src/env/axi4_vip_env.sv(93) @ 0: uvm_test_top.env [axi4_vip_env] Scoreboard created
# UVM_INFO ../src/env/axi4_vip_env.sv(100) @ 0: uvm_test_top.env [axi4_vip_env] Coverage collectors created
# UVM_INFO ../src/mst/axi4_master_agent.sv(69) @ 0: uvm_test_top.env.master_agent [axi4_master_agent] ACTIVE mode - driver + sequencer created
# UVM_INFO ../src/slv/axi4_slave_agent.sv(82) @ 0: uvm_test_top.env.slave_agent [axi4_slave_agent] ACTIVE mode — ready_delay=[0:0] resp_delay=[0:0]
# UVM_INFO ../src/env/axi4_vip_env.sv(116) @ 0: uvm_test_top.env [axi4_vip_env] Scoreboard connected: master_mon.ap -> scb, slave_mon.ap -> scb
# UVM_INFO ../src/env/axi4_vip_env.sv(124) @ 0: uvm_test_top.env [axi4_vip_env] Coverage connected: master_mon.ap -> master_cov, slave_mon.ap -> slave_cov
# UVM_INFO @ 0: reporter [UVMTOP] UVM testbench topology:
# ---------------------------------------------------------------
# Name                       Type                     Size  Value
# ---------------------------------------------------------------
# uvm_test_top               axi4_strobe_test         -     @473 
#   env                      axi4_vip_env             -     @488 
#     master_agent           axi4_master_agent        -     @503 
#       drv                  axi4_master_driver       -     @567 
#         rsp_port           uvm_analysis_port        -     @582 
#         seq_item_port      uvm_seq_item_pull_port   -     @574 
#       mon                  axi4_master_monitor      -     @559 
#         ap                 uvm_analysis_port        -     @700 
#       sqr                  axi4_master_sequencer    -     @590 
#         rsp_export         uvm_analysis_export      -     @597 
#         seq_item_export    uvm_seq_item_pull_imp    -     @691 
#         arbitration_queue  array                    0     -    
#         lock_queue         array                    0     -    
#         num_last_reqs      integral                 32    'd1  
#         num_last_rsps      integral                 32    'd1  
#     master_cov             axi4_coverage            -     @524 
#       analysis_imp         uvm_analysis_imp         -     @531 
#     scb                    axi4_scoreboard          -     @517 
#       master_export        uvm_analysis_imp_master  -     @714 
#       slave_export         uvm_analysis_imp_slave   -     @722 
#     slave_agent            axi4_slave_agent         -     @510 
#       drv                  axi4_slave_driver        -     @753 
#         rsp_port           uvm_analysis_port        -     @768 
#         seq_item_port      uvm_seq_item_pull_port   -     @760 
#       mon                  axi4_slave_monitor       -     @735 
#         ap                 uvm_analysis_port        -     @890 
#       sqr                  axi4_slave_sequencer     -     @776 
#         rsp_export         uvm_analysis_export      -     @783 
#         seq_item_export    uvm_seq_item_pull_imp    -     @877 
#         arbitration_queue  array                    0     -    
#         lock_queue         array                    0     -    
#         num_last_reqs      integral                 32    'd1  
#         num_last_rsps      integral                 32    'd1  
#     slave_cov              axi4_coverage            -     @539 
#       analysis_imp         uvm_analysis_imp         -     @546 
# ---------------------------------------------------------------
# 
# UVM_INFO verilog_src/questa_uvm_pkg-1.2/src/questa_uvm_pkg.sv(277) @ 0: reporter [Questa UVM] End Of Elaboration
# UVM_INFO ../src/test/axi4_strobe_test.sv(24) @ 0: uvm_test_top [axi4_strobe_test] Starting write strobe patterns test
# UVM_INFO ../src/seq/axi4_strobe_pattern_seq.sv(25) @ 0: uvm_test_top.env.master_agent.sqr@@strb_seq [axi4_strobe_pattern_seq] Starting write strobe pattern sequence
# UVM_INFO ../src/tb_top.sv(49) @ 95000: reporter [TOP_TB] Reset de-asserted
# UVM_INFO ../src/slv/axi4_slave_driver.sv(70) @ 95000: uvm_test_top.env.slave_agent.drv [axi4_slave_driver] Reset deasserted - slave driver active
# UVM_INFO ../src/mst/axi4_master_driver.sv(46) @ 95000: uvm_test_top.env.master_agent.drv [axi4_master_driver] Reset deasserted - master driver active
# UVM_INFO ../src/mst/axi4_master_monitor.sv(77) @ 95000: uvm_test_top.env.master_agent.mon [axi4_master_monitor] Reset deasserted — monitor active
# UVM_INFO ../src/slv/axi4_slave_monitor.sv(71) @ 95000: uvm_test_top.env.slave_agent.mon [axi4_slave_monitor] Reset deasserted — monitor active
# UVM_INFO ../src/mst/axi4_master_driver.sv(55) @ 95000: uvm_test_top.env.master_agent.drv [axi4_master_driver] Driving AXI4_WRITE  ID=0x7  ADDR=0x7af9c5d8  LEN=3
# UVM_INFO ../src/mst/axi4_master_driver.sv(94) @ 95000: uvm_test_top.env.master_agent.drv [axi4_master_driver] Write order: AW || W (parallel)
# UVM_INFO ../src/slv/axi4_slave_driver.sv(165) @ 115000: uvm_test_top.env.slave_agent.drv [axi4_slave_driver] AW received: ID=0x7 ADDR=0x7af9c5d8 LEN=3 LOCK=AXI4_LOCK_EXCLUSIVE
# UVM_INFO ../src/slv/axi4_slave_monitor.sv(116) @ 115000: uvm_test_top.env.slave_agent.mon [axi4_slave_monitor] AW received: ID=0x7 ADDR=0x7af9c5d8 LEN=3
# UVM_INFO ../src/mst/axi4_master_monitor.sv(124) @ 115000: uvm_test_top.env.master_agent.mon [axi4_master_monitor] AW observed: ID=0x7 ADDR=0x7af9c5d8 LEN=3
# UVM_INFO ../src/mst/axi4_master_monitor.sv(184) @ 165000: uvm_test_top.env.master_agent.mon [axi4_master_monitor] W data assembled: ID=0x7 ADDR=0x7af9c5d8 4 beats
# UVM_INFO ../src/slv/axi4_slave_monitor.sv(167) @ 165000: uvm_test_top.env.slave_agent.mon [axi4_slave_monitor] W data assembled: ID=0x7 ADDR=0x7af9c5d8 4 beats
# UVM_INFO ../src/mst/axi4_master_driver.sv(197) @ 195000: uvm_test_top.env.master_agent.drv [axi4_master_driver] Write response: AXI4_RESP_OKAY
# UVM_INFO ../src/slv/axi4_slave_driver.sv(261) @ 195000: uvm_test_top.env.slave_agent.drv [axi4_slave_driver] Write complete: ID=0x7 ADDR=0x7af9c5d8 RESP=AXI4_RESP_OKAY  4 beats processed
# UVM_INFO ../src/slv/axi4_slave_monitor.sv(189) @ 195000: uvm_test_top.env.slave_agent.mon [axi4_slave_monitor] Write response sent: ID=0x7 ADDR=0x7af9c5d8 RESP=AXI4_RESP_OKAY
# UVM_INFO ../src/env/axi4_scoreboard.sv(103) @ 195000: uvm_test_top.env.scb [axi4_scoreboard] Slave AXI4_WRITE received: ID=0x7 ADDR=0x7af9c5d8 LEN=3
# UVM_INFO ../src/mst/axi4_master_monitor.sv(210) @ 195000: uvm_test_top.env.master_agent.mon [axi4_master_monitor] Write complete: ID=0x7 ADDR=0x7af9c5d8 RESP=AXI4_RESP_OKAY
# UVM_INFO ../src/env/axi4_scoreboard.sv(82) @ 195000: uvm_test_top.env.scb [axi4_scoreboard] Master AXI4_WRITE received: ID=0x7 ADDR=0x7af9c5d8 LEN=3
# UVM_INFO ../src/env/axi4_scoreboard.sv(154) @ 195000: uvm_test_top.env.scb [axi4_scoreboard] [WRITE] MATCH #1: ID=0x7 ADDR=0x7af9c5d8 LEN=3
# UVM_INFO ../src/seq/axi4_strobe_pattern_seq.sv(40) @ 195000: uvm_test_top.env.master_agent.sqr@@strb_seq [axi4_strobe_pattern_seq] Sent Write with all-bytes strobe (4'b1111)
# UVM_INFO ../src/mst/axi4_master_driver.sv(55) @ 195000: uvm_test_top.env.master_agent.drv [axi4_master_driver] Driving AXI4_WRITE  ID=0x4  ADDR=0xa14bbaff  LEN=3
# UVM_INFO ../src/mst/axi4_master_driver.sv(106) @ 195000: uvm_test_top.env.master_agent.drv [axi4_master_driver] Write order: W -> AW (W first)
# UVM_INFO ../src/slv/axi4_slave_driver.sv(165) @ 275000: uvm_test_top.env.slave_agent.drv [axi4_slave_driver] AW received: ID=0x4 ADDR=0xa14bbaff LEN=3 LOCK=AXI4_LOCK_EXCLUSIVE
# UVM_INFO ../src/slv/axi4_slave_monitor.sv(116) @ 275000: uvm_test_top.env.slave_agent.mon [axi4_slave_monitor] AW received: ID=0x4 ADDR=0xa14bbaff LEN=3
# UVM_INFO ../src/mst/axi4_master_monitor.sv(124) @ 275000: uvm_test_top.env.master_agent.mon [axi4_master_monitor] AW observed: ID=0x4 ADDR=0xa14bbaff LEN=3
# UVM_INFO ../src/slv/axi4_slave_monitor.sv(167) @ 275000: uvm_test_top.env.slave_agent.mon [axi4_slave_monitor] W data assembled: ID=0x4 ADDR=0xa14bbaff 4 beats
# UVM_INFO ../src/mst/axi4_master_monitor.sv(184) @ 275000: uvm_test_top.env.master_agent.mon [axi4_master_monitor] W data assembled: ID=0x4 ADDR=0xa14bbaff 4 beats
# UVM_INFO ../src/mst/axi4_master_driver.sv(197) @ 305000: uvm_test_top.env.master_agent.drv [axi4_master_driver] Write response: AXI4_RESP_OKAY
# UVM_INFO ../src/slv/axi4_slave_driver.sv(261) @ 305000: uvm_test_top.env.slave_agent.drv [axi4_slave_driver] Write complete: ID=0x4 ADDR=0xa14bbaff RESP=AXI4_RESP_OKAY  4 beats processed
# UVM_INFO ../src/mst/axi4_master_monitor.sv(210) @ 305000: uvm_test_top.env.master_agent.mon [axi4_master_monitor] Write complete: ID=0x4 ADDR=0xa14bbaff RESP=AXI4_RESP_OKAY
# UVM_INFO ../src/env/axi4_scoreboard.sv(82) @ 305000: uvm_test_top.env.scb [axi4_scoreboard] Master AXI4_WRITE received: ID=0x4 ADDR=0xa14bbaff LEN=3
# UVM_INFO ../src/slv/axi4_slave_monitor.sv(189) @ 305000: uvm_test_top.env.slave_agent.mon [axi4_slave_monitor] Write response sent: ID=0x4 ADDR=0xa14bbaff RESP=AXI4_RESP_OKAY
# UVM_INFO ../src/env/axi4_scoreboard.sv(103) @ 305000: uvm_test_top.env.scb [axi4_scoreboard] Slave AXI4_WRITE received: ID=0x4 ADDR=0xa14bbaff LEN=3
# UVM_INFO ../src/env/axi4_scoreboard.sv(154) @ 305000: uvm_test_top.env.scb [axi4_scoreboard] [WRITE] MATCH #2: ID=0x4 ADDR=0xa14bbaff LEN=3
# UVM_INFO ../src/seq/axi4_strobe_pattern_seq.sv(55) @ 305000: uvm_test_top.env.master_agent.sqr@@strb_seq [axi4_strobe_pattern_seq] Sent Write with zero-bytes strobe (4'b0000)
# UVM_INFO ../src/mst/axi4_master_driver.sv(55) @ 305000: uvm_test_top.env.master_agent.drv [axi4_master_driver] Driving AXI4_WRITE  ID=0xd  ADDR=0x68071837  LEN=0
# UVM_INFO ../src/mst/axi4_master_driver.sv(101) @ 305000: uvm_test_top.env.master_agent.drv [axi4_master_driver] Write order: AW -> W (sequential)
# UVM_INFO ../src/slv/axi4_slave_driver.sv(165) @ 335000: uvm_test_top.env.slave_agent.drv [axi4_slave_driver] AW received: ID=0xd ADDR=0x68071837 LEN=0 LOCK=AXI4_LOCK_EXCLUSIVE
# UVM_INFO ../src/slv/axi4_slave_monitor.sv(116) @ 335000: uvm_test_top.env.slave_agent.mon [axi4_slave_monitor] AW received: ID=0xd ADDR=0x68071837 LEN=0
# UVM_INFO ../src/mst/axi4_master_monitor.sv(124) @ 335000: uvm_test_top.env.master_agent.mon [axi4_master_monitor] AW observed: ID=0xd ADDR=0x68071837 LEN=0
# UVM_INFO ../src/slv/axi4_slave_monitor.sv(167) @ 355000: uvm_test_top.env.slave_agent.mon [axi4_slave_monitor] W data assembled: ID=0xd ADDR=0x68071837 1 beats
# UVM_INFO ../src/mst/axi4_master_monitor.sv(184) @ 355000: uvm_test_top.env.master_agent.mon [axi4_master_monitor] W data assembled: ID=0xd ADDR=0x68071837 1 beats
# UVM_INFO ../src/mst/axi4_master_driver.sv(197) @ 385000: uvm_test_top.env.master_agent.drv [axi4_master_driver] Write response: AXI4_RESP_OKAY
# UVM_INFO ../src/slv/axi4_slave_driver.sv(261) @ 385000: uvm_test_top.env.slave_agent.drv [axi4_slave_driver] Write complete: ID=0xd ADDR=0x68071837 RESP=AXI4_RESP_OKAY  1 beats processed
# UVM_INFO ../src/mst/axi4_master_monitor.sv(210) @ 385000: uvm_test_top.env.master_agent.mon [axi4_master_monitor] Write complete: ID=0xd ADDR=0x68071837 RESP=AXI4_RESP_OKAY
# UVM_INFO ../src/env/axi4_scoreboard.sv(82) @ 385000: uvm_test_top.env.scb [axi4_scoreboard] Master AXI4_WRITE received: ID=0xd ADDR=0x68071837 LEN=0
# UVM_INFO ../src/slv/axi4_slave_monitor.sv(189) @ 385000: uvm_test_top.env.slave_agent.mon [axi4_slave_monitor] Write response sent: ID=0xd ADDR=0x68071837 RESP=AXI4_RESP_OKAY
# UVM_INFO ../src/env/axi4_scoreboard.sv(103) @ 385000: uvm_test_top.env.scb [axi4_scoreboard] Slave AXI4_WRITE received: ID=0xd ADDR=0x68071837 LEN=0
# UVM_INFO ../src/env/axi4_scoreboard.sv(154) @ 385000: uvm_test_top.env.scb [axi4_scoreboard] [WRITE] MATCH #3: ID=0xd ADDR=0x68071837 LEN=0
# UVM_INFO ../src/seq/axi4_strobe_pattern_seq.sv(81) @ 385000: uvm_test_top.env.master_agent.sqr@@strb_seq [axi4_strobe_pattern_seq] Sent Write with partial strobe (4'b0001)
# UVM_INFO ../src/mst/axi4_master_driver.sv(55) @ 385000: uvm_test_top.env.master_agent.drv [axi4_master_driver] Driving AXI4_WRITE  ID=0x9  ADDR=0x33eb210e  LEN=0
# UVM_INFO ../src/mst/axi4_master_driver.sv(106) @ 385000: uvm_test_top.env.master_agent.drv [axi4_master_driver] Write order: W -> AW (W first)
# UVM_INFO ../src/slv/axi4_slave_driver.sv(165) @ 445000: uvm_test_top.env.slave_agent.drv [axi4_slave_driver] AW received: ID=0x9 ADDR=0x33eb210e LEN=0 LOCK=AXI4_LOCK_NORMAL
# UVM_INFO ../src/mst/axi4_master_monitor.sv(124) @ 445000: uvm_test_top.env.master_agent.mon [axi4_master_monitor] AW observed: ID=0x9 ADDR=0x33eb210e LEN=0
# UVM_INFO ../src/slv/axi4_slave_monitor.sv(116) @ 445000: uvm_test_top.env.slave_agent.mon [axi4_slave_monitor] AW received: ID=0x9 ADDR=0x33eb210e LEN=0
# UVM_INFO ../src/mst/axi4_master_monitor.sv(184) @ 445000: uvm_test_top.env.master_agent.mon [axi4_master_monitor] W data assembled: ID=0x9 ADDR=0x33eb210e 1 beats
# UVM_INFO ../src/slv/axi4_slave_monitor.sv(167) @ 445000: uvm_test_top.env.slave_agent.mon [axi4_slave_monitor] W data assembled: ID=0x9 ADDR=0x33eb210e 1 beats
# UVM_INFO ../src/mst/axi4_master_driver.sv(197) @ 465000: uvm_test_top.env.master_agent.drv [axi4_master_driver] Write response: AXI4_RESP_OKAY
# UVM_INFO ../src/slv/axi4_slave_driver.sv(261) @ 465000: uvm_test_top.env.slave_agent.drv [axi4_slave_driver] Write complete: ID=0x9 ADDR=0x33eb210e RESP=AXI4_RESP_OKAY  1 beats processed
# UVM_INFO ../src/mst/axi4_master_monitor.sv(210) @ 465000: uvm_test_top.env.master_agent.mon [axi4_master_monitor] Write complete: ID=0x9 ADDR=0x33eb210e RESP=AXI4_RESP_OKAY
# UVM_INFO ../src/env/axi4_scoreboard.sv(82) @ 465000: uvm_test_top.env.scb [axi4_scoreboard] Master AXI4_WRITE received: ID=0x9 ADDR=0x33eb210e LEN=0
# UVM_INFO ../src/slv/axi4_slave_monitor.sv(189) @ 465000: uvm_test_top.env.slave_agent.mon [axi4_slave_monitor] Write response sent: ID=0x9 ADDR=0x33eb210e RESP=AXI4_RESP_OKAY
# UVM_INFO ../src/env/axi4_scoreboard.sv(103) @ 465000: uvm_test_top.env.scb [axi4_scoreboard] Slave AXI4_WRITE received: ID=0x9 ADDR=0x33eb210e LEN=0
# UVM_INFO ../src/env/axi4_scoreboard.sv(154) @ 465000: uvm_test_top.env.scb [axi4_scoreboard] [WRITE] MATCH #4: ID=0x9 ADDR=0x33eb210e LEN=0
# UVM_INFO ../src/seq/axi4_strobe_pattern_seq.sv(81) @ 465000: uvm_test_top.env.master_agent.sqr@@strb_seq [axi4_strobe_pattern_seq] Sent Write with partial strobe (4'b0010)
# UVM_INFO ../src/mst/axi4_master_driver.sv(55) @ 465000: uvm_test_top.env.master_agent.drv [axi4_master_driver] Driving AXI4_WRITE  ID=0x2  ADDR=0x4b14dfa2  LEN=0
# UVM_INFO ../src/mst/axi4_master_driver.sv(106) @ 465000: uvm_test_top.env.master_agent.drv [axi4_master_driver] Write order: W -> AW (W first)
# UVM_INFO ../src/slv/axi4_slave_driver.sv(165) @ 515000: uvm_test_top.env.slave_agent.drv [axi4_slave_driver] AW received: ID=0x2 ADDR=0x4b14dfa2 LEN=0 LOCK=AXI4_LOCK_NORMAL
# UVM_INFO ../src/slv/axi4_slave_monitor.sv(116) @ 515000: uvm_test_top.env.slave_agent.mon [axi4_slave_monitor] AW received: ID=0x2 ADDR=0x4b14dfa2 LEN=0
# UVM_INFO ../src/mst/axi4_master_monitor.sv(124) @ 515000: uvm_test_top.env.master_agent.mon [axi4_master_monitor] AW observed: ID=0x2 ADDR=0x4b14dfa2 LEN=0
# UVM_INFO ../src/slv/axi4_slave_monitor.sv(167) @ 515000: uvm_test_top.env.slave_agent.mon [axi4_slave_monitor] W data assembled: ID=0x2 ADDR=0x4b14dfa2 1 beats
# UVM_INFO ../src/mst/axi4_master_monitor.sv(184) @ 515000: uvm_test_top.env.master_agent.mon [axi4_master_monitor] W data assembled: ID=0x2 ADDR=0x4b14dfa2 1 beats
# UVM_INFO ../src/mst/axi4_master_driver.sv(197) @ 535000: uvm_test_top.env.master_agent.drv [axi4_master_driver] Write response: AXI4_RESP_OKAY
# UVM_INFO ../src/slv/axi4_slave_driver.sv(261) @ 535000: uvm_test_top.env.slave_agent.drv [axi4_slave_driver] Write complete: ID=0x2 ADDR=0x4b14dfa2 RESP=AXI4_RESP_OKAY  1 beats processed
# UVM_INFO ../src/slv/axi4_slave_monitor.sv(189) @ 535000: uvm_test_top.env.slave_agent.mon [axi4_slave_monitor] Write response sent: ID=0x2 ADDR=0x4b14dfa2 RESP=AXI4_RESP_OKAY
# UVM_INFO ../src/env/axi4_scoreboard.sv(103) @ 535000: uvm_test_top.env.scb [axi4_scoreboard] Slave AXI4_WRITE received: ID=0x2 ADDR=0x4b14dfa2 LEN=0
# UVM_INFO ../src/mst/axi4_master_monitor.sv(210) @ 535000: uvm_test_top.env.master_agent.mon [axi4_master_monitor] Write complete: ID=0x2 ADDR=0x4b14dfa2 RESP=AXI4_RESP_OKAY
# UVM_INFO ../src/env/axi4_scoreboard.sv(82) @ 535000: uvm_test_top.env.scb [axi4_scoreboard] Master AXI4_WRITE received: ID=0x2 ADDR=0x4b14dfa2 LEN=0
# UVM_INFO ../src/env/axi4_scoreboard.sv(154) @ 535000: uvm_test_top.env.scb [axi4_scoreboard] [WRITE] MATCH #5: ID=0x2 ADDR=0x4b14dfa2 LEN=0
# UVM_INFO ../src/seq/axi4_strobe_pattern_seq.sv(81) @ 535000: uvm_test_top.env.master_agent.sqr@@strb_seq [axi4_strobe_pattern_seq] Sent Write with partial strobe (4'b0100)
# UVM_INFO ../src/mst/axi4_master_driver.sv(55) @ 535000: uvm_test_top.env.master_agent.drv [axi4_master_driver] Driving AXI4_WRITE  ID=0xc  ADDR=0xaffefd30  LEN=0
# UVM_INFO ../src/mst/axi4_master_driver.sv(94) @ 535000: uvm_test_top.env.master_agent.drv [axi4_master_driver] Write order: AW || W (parallel)
# UVM_INFO ../src/slv/axi4_slave_driver.sv(165) @ 565000: uvm_test_top.env.slave_agent.drv [axi4_slave_driver] AW received: ID=0xc ADDR=0xaffefd30 LEN=0 LOCK=AXI4_LOCK_NORMAL
# UVM_INFO ../src/mst/axi4_master_monitor.sv(124) @ 565000: uvm_test_top.env.master_agent.mon [axi4_master_monitor] AW observed: ID=0xc ADDR=0xaffefd30 LEN=0
# UVM_INFO ../src/slv/axi4_slave_monitor.sv(116) @ 565000: uvm_test_top.env.slave_agent.mon [axi4_slave_monitor] AW received: ID=0xc ADDR=0xaffefd30 LEN=0
# UVM_INFO ../src/mst/axi4_master_monitor.sv(184) @ 565000: uvm_test_top.env.master_agent.mon [axi4_master_monitor] W data assembled: ID=0xc ADDR=0xaffefd30 1 beats
# UVM_INFO ../src/slv/axi4_slave_monitor.sv(167) @ 565000: uvm_test_top.env.slave_agent.mon [axi4_slave_monitor] W data assembled: ID=0xc ADDR=0xaffefd30 1 beats
# UVM_INFO ../src/mst/axi4_master_driver.sv(197) @ 585000: uvm_test_top.env.master_agent.drv [axi4_master_driver] Write response: AXI4_RESP_OKAY
# UVM_INFO ../src/slv/axi4_slave_driver.sv(261) @ 585000: uvm_test_top.env.slave_agent.drv [axi4_slave_driver] Write complete: ID=0xc ADDR=0xaffefd30 RESP=AXI4_RESP_OKAY  1 beats processed
# UVM_INFO ../src/mst/axi4_master_monitor.sv(210) @ 585000: uvm_test_top.env.master_agent.mon [axi4_master_monitor] Write complete: ID=0xc ADDR=0xaffefd30 RESP=AXI4_RESP_OKAY
# UVM_INFO ../src/env/axi4_scoreboard.sv(82) @ 585000: uvm_test_top.env.scb [axi4_scoreboard] Master AXI4_WRITE received: ID=0xc ADDR=0xaffefd30 LEN=0
# UVM_INFO ../src/slv/axi4_slave_monitor.sv(189) @ 585000: uvm_test_top.env.slave_agent.mon [axi4_slave_monitor] Write response sent: ID=0xc ADDR=0xaffefd30 RESP=AXI4_RESP_OKAY
# UVM_INFO ../src/env/axi4_scoreboard.sv(103) @ 585000: uvm_test_top.env.scb [axi4_scoreboard] Slave AXI4_WRITE received: ID=0xc ADDR=0xaffefd30 LEN=0
# UVM_INFO ../src/env/axi4_scoreboard.sv(154) @ 585000: uvm_test_top.env.scb [axi4_scoreboard] [WRITE] MATCH #6: ID=0xc ADDR=0xaffefd30 LEN=0
# UVM_INFO ../src/seq/axi4_strobe_pattern_seq.sv(81) @ 585000: uvm_test_top.env.master_agent.sqr@@strb_seq [axi4_strobe_pattern_seq] Sent Write with partial strobe (4'b1000)
# UVM_INFO ../src/mst/axi4_master_driver.sv(55) @ 585000: uvm_test_top.env.master_agent.drv [axi4_master_driver] Driving AXI4_WRITE  ID=0x8  ADDR=0xd5174528  LEN=0
# UVM_INFO ../src/mst/axi4_master_driver.sv(106) @ 585000: uvm_test_top.env.master_agent.drv [axi4_master_driver] Write order: W -> AW (W first)
# UVM_INFO ../src/slv/axi4_slave_driver.sv(165) @ 665000: uvm_test_top.env.slave_agent.drv [axi4_slave_driver] AW received: ID=0x8 ADDR=0xd5174528 LEN=0 LOCK=AXI4_LOCK_EXCLUSIVE
# UVM_INFO ../src/mst/axi4_master_monitor.sv(124) @ 665000: uvm_test_top.env.master_agent.mon [axi4_master_monitor] AW observed: ID=0x8 ADDR=0xd5174528 LEN=0
# UVM_INFO ../src/slv/axi4_slave_monitor.sv(116) @ 665000: uvm_test_top.env.slave_agent.mon [axi4_slave_monitor] AW received: ID=0x8 ADDR=0xd5174528 LEN=0
# UVM_INFO ../src/mst/axi4_master_monitor.sv(184) @ 665000: uvm_test_top.env.master_agent.mon [axi4_master_monitor] W data assembled: ID=0x8 ADDR=0xd5174528 1 beats
# UVM_INFO ../src/slv/axi4_slave_monitor.sv(167) @ 665000: uvm_test_top.env.slave_agent.mon [axi4_slave_monitor] W data assembled: ID=0x8 ADDR=0xd5174528 1 beats
# UVM_INFO ../src/mst/axi4_master_driver.sv(197) @ 685000: uvm_test_top.env.master_agent.drv [axi4_master_driver] Write response: AXI4_RESP_OKAY
# UVM_INFO ../src/slv/axi4_slave_driver.sv(261) @ 685000: uvm_test_top.env.slave_agent.drv [axi4_slave_driver] Write complete: ID=0x8 ADDR=0xd5174528 RESP=AXI4_RESP_OKAY  1 beats processed
# UVM_INFO ../src/mst/axi4_master_monitor.sv(210) @ 685000: uvm_test_top.env.master_agent.mon [axi4_master_monitor] Write complete: ID=0x8 ADDR=0xd5174528 RESP=AXI4_RESP_OKAY
# UVM_INFO ../src/env/axi4_scoreboard.sv(82) @ 685000: uvm_test_top.env.scb [axi4_scoreboard] Master AXI4_WRITE received: ID=0x8 ADDR=0xd5174528 LEN=0
# UVM_INFO ../src/slv/axi4_slave_monitor.sv(189) @ 685000: uvm_test_top.env.slave_agent.mon [axi4_slave_monitor] Write response sent: ID=0x8 ADDR=0xd5174528 RESP=AXI4_RESP_OKAY
# UVM_INFO ../src/env/axi4_scoreboard.sv(103) @ 685000: uvm_test_top.env.scb [axi4_scoreboard] Slave AXI4_WRITE received: ID=0x8 ADDR=0xd5174528 LEN=0
# UVM_INFO ../src/env/axi4_scoreboard.sv(154) @ 685000: uvm_test_top.env.scb [axi4_scoreboard] [WRITE] MATCH #7: ID=0x8 ADDR=0xd5174528 LEN=0
# UVM_INFO ../src/seq/axi4_strobe_pattern_seq.sv(81) @ 685000: uvm_test_top.env.master_agent.sqr@@strb_seq [axi4_strobe_pattern_seq] Sent Write with partial strobe (4'b0011)
# UVM_INFO ../src/mst/axi4_master_driver.sv(55) @ 685000: uvm_test_top.env.master_agent.drv [axi4_master_driver] Driving AXI4_WRITE  ID=0x3  ADDR=0x0024903a  LEN=0
# UVM_INFO ../src/mst/axi4_master_driver.sv(94) @ 685000: uvm_test_top.env.master_agent.drv [axi4_master_driver] Write order: AW || W (parallel)
# UVM_INFO ../src/slv/axi4_slave_driver.sv(165) @ 715000: uvm_test_top.env.slave_agent.drv [axi4_slave_driver] AW received: ID=0x3 ADDR=0x0024903a LEN=0 LOCK=AXI4_LOCK_EXCLUSIVE
# UVM_INFO ../src/slv/axi4_slave_monitor.sv(116) @ 715000: uvm_test_top.env.slave_agent.mon [axi4_slave_monitor] AW received: ID=0x3 ADDR=0x0024903a LEN=0
# UVM_INFO ../src/mst/axi4_master_monitor.sv(124) @ 715000: uvm_test_top.env.master_agent.mon [axi4_master_monitor] AW observed: ID=0x3 ADDR=0x0024903a LEN=0
# UVM_INFO ../src/slv/axi4_slave_monitor.sv(167) @ 715000: uvm_test_top.env.slave_agent.mon [axi4_slave_monitor] W data assembled: ID=0x3 ADDR=0x0024903a 1 beats
# UVM_INFO ../src/mst/axi4_master_monitor.sv(184) @ 715000: uvm_test_top.env.master_agent.mon [axi4_master_monitor] W data assembled: ID=0x3 ADDR=0x0024903a 1 beats
# UVM_INFO ../src/mst/axi4_master_driver.sv(197) @ 735000: uvm_test_top.env.master_agent.drv [axi4_master_driver] Write response: AXI4_RESP_OKAY
# UVM_INFO ../src/slv/axi4_slave_driver.sv(261) @ 735000: uvm_test_top.env.slave_agent.drv [axi4_slave_driver] Write complete: ID=0x3 ADDR=0x0024903a RESP=AXI4_RESP_OKAY  1 beats processed
# UVM_INFO ../src/slv/axi4_slave_monitor.sv(189) @ 735000: uvm_test_top.env.slave_agent.mon [axi4_slave_monitor] Write response sent: ID=0x3 ADDR=0x0024903a RESP=AXI4_RESP_OKAY
# UVM_INFO ../src/env/axi4_scoreboard.sv(103) @ 735000: uvm_test_top.env.scb [axi4_scoreboard] Slave AXI4_WRITE received: ID=0x3 ADDR=0x0024903a LEN=0
