sim/report/logs/axi4_exclusive_test_run_7_seed_20767450.log
# vsim -c -coverage -sv_seed 20767450 "+UVM_TESTNAME=axi4_exclusive_test" "+UVM_VERBOSITY=UVM_HIGH" "+DUMP_VCD" -l ./report/logs/axi4_exclusive_test_run_7_seed_20767450.log -do "coverage save -onexit ./report/coverage/axi4_exclusive_test_run_7_seed_20767450.ucdb; run -all; quit -f" opt_tb_top 
# Start time: 11:25:30 on Jun 05,2026
# //  Questa Sim-64
# //  Version 10.6b linux_x86_64 May 25 2017
# //
# //  Copyright 1991-2017 Mentor Graphics Corporation
# //  All Rights Reserved.
# //
# //  QuestaSim and its associated documentation contain trade
# //  secrets and commercial or financial information that are the property of
# //  Mentor Graphics Corporation and are privileged, confidential,
# //  and exempt from disclosure under the Freedom of Information Act,
# //  5 U.S.C. Section 552. Furthermore, this information
# //  is prohibited from disclosure under the Trade Secrets Act,
# //  18 U.S.C. Section 1905.
# //
# Loading sv_std.std
# Loading work.axi4_if(fast)
# Loading mtiUvm.uvm_pkg
# Loading work.axi4_pkg(fast)
# Loading work.axi4_test_pkg(fast)
# Loading work.tb_top(fast)
# Loading work.axi4_if(fast)
# Loading work.axi4_sva(fast)
# Loading mtiUvm.questa_uvm_pkg(fast)
# Loading /cadtools/mentor/Questa_10.6b/questasim/uvm-1.1d/linux_x86_64/uvm_dpi.so
# coverage save -onexit ./report/coverage/axi4_exclusive_test_run_7_seed_20767450.ucdb
#  run -all
# ----------------------------------------------------------------
# UVM-1.1d
# (C) 2007-2013 Mentor Graphics Corporation
# (C) 2007-2013 Cadence Design Systems, Inc.
# (C) 2006-2013 Synopsys, Inc.
# (C) 2011-2013 Cypress Semiconductor Corp.
# ----------------------------------------------------------------
# 
#   ***********       IMPORTANT RELEASE NOTES         ************
# 
#   You are using a version of the UVM library that has been compiled
#   with `UVM_NO_DEPRECATED undefined.
#   See http://www.eda.org/svdb/view.php?id=3313 for more details.
# 
#   You are using a version of the UVM library that has been compiled
#   with `UVM_OBJECT_MUST_HAVE_CONSTRUCTOR undefined.
#   See http://www.eda.org/svdb/view.php?id=3770 for more details.
# 
#       (Specify +UVM_NO_RELNOTES to turn off this notice)
# 
# UVM_INFO verilog_src/questa_uvm_pkg-1.2/src/questa_uvm_pkg.sv(215) @ 0: reporter [Questa UVM] QUESTA_UVM-1.2.3
# UVM_INFO verilog_src/questa_uvm_pkg-1.2/src/questa_uvm_pkg.sv(217) @ 0: reporter [Questa UVM]  questa_uvm::init(+struct)
# UVM_INFO ../src/tb_top.sv(128) @ 0: reporter [TB_TOP] Virtual interface set in config_db
# UVM_INFO @ 0: reporter [RNTST] Running test axi4_exclusive_test...
# UVM_INFO ../src/tb_top.sv(142) @ 0: reporter [TB_TOP] Waveform VCD dumping enabled (axi4_vip.vcd)
# UVM_INFO ../src/env/axi4_vip_env.sv(83) @ 0: uvm_test_top.env [axi4_vip_env] slave_vif not set - reusing master_vif (passthrough mode)
# UVM_INFO ../src/env/axi4_vip_env.sv(93) @ 0: uvm_test_top.env [axi4_vip_env] Scoreboard created
# UVM_INFO ../src/env/axi4_vip_env.sv(100) @ 0: uvm_test_top.env [axi4_vip_env] Coverage collectors created
# UVM_INFO ../src/mst/axi4_master_agent.sv(69) @ 0: uvm_test_top.env.master_agent [axi4_master_agent] ACTIVE mode - driver + sequencer created
# UVM_INFO ../src/slv/axi4_slave_agent.sv(82) @ 0: uvm_test_top.env.slave_agent [axi4_slave_agent] ACTIVE mode — ready_delay=[0:0] resp_delay=[0:0]
# UVM_INFO ../src/env/axi4_vip_env.sv(116) @ 0: uvm_test_top.env [axi4_vip_env] Scoreboard connected: master_mon.ap -> scb, slave_mon.ap -> scb
# UVM_INFO ../src/env/axi4_vip_env.sv(124) @ 0: uvm_test_top.env [axi4_vip_env] Coverage connected: master_mon.ap -> master_cov, slave_mon.ap -> slave_cov
# UVM_INFO @ 0: reporter [UVMTOP] UVM testbench topology:
# ---------------------------------------------------------------
# Name                       Type                     Size  Value
# ---------------------------------------------------------------
# uvm_test_top               axi4_exclusive_test      -     @473 
#   env                      axi4_vip_env             -     @488 
#     master_agent           axi4_master_agent        -     @503 
#       drv                  axi4_master_driver       -     @567 
#         rsp_port           uvm_analysis_port        -     @582 
#         seq_item_port      uvm_seq_item_pull_port   -     @574 
#       mon                  axi4_master_monitor      -     @559 
#         ap                 uvm_analysis_port        -     @700 
#       sqr                  axi4_master_sequencer    -     @590 
#         rsp_export         uvm_analysis_export      -     @597 
#         seq_item_export    uvm_seq_item_pull_imp    -     @691 
#         arbitration_queue  array                    0     -    
#         lock_queue         array                    0     -    
#         num_last_reqs      integral                 32    'd1  
#         num_last_rsps      integral                 32    'd1  
#     master_cov             axi4_coverage            -     @524 
#       analysis_imp         uvm_analysis_imp         -     @531 
#     scb                    axi4_scoreboard          -     @517 
#       master_export        uvm_analysis_imp_master  -     @714 
#       slave_export         uvm_analysis_imp_slave   -     @722 
#     slave_agent            axi4_slave_agent         -     @510 
#       drv                  axi4_slave_driver        -     @753 
#         rsp_port           uvm_analysis_port        -     @768 
#         seq_item_port      uvm_seq_item_pull_port   -     @760 
#       mon                  axi4_slave_monitor       -     @735 
#         ap                 uvm_analysis_port        -     @890 
#       sqr                  axi4_slave_sequencer     -     @776 
#         rsp_export         uvm_analysis_export      -     @783 
#         seq_item_export    uvm_seq_item_pull_imp    -     @877 
#         arbitration_queue  array                    0     -    
#         lock_queue         array                    0     -    
#         num_last_reqs      integral                 32    'd1  
#         num_last_rsps      integral                 32    'd1  
#     slave_cov              axi4_coverage            -     @539 
#       analysis_imp         uvm_analysis_imp         -     @546 
# ---------------------------------------------------------------
# 
# UVM_INFO verilog_src/questa_uvm_pkg-1.2/src/questa_uvm_pkg.sv(277) @ 0: reporter [Questa UVM] End Of Elaboration
# UVM_INFO ../src/test/axi4_exclusive_test.sv(24) @ 0: uvm_test_top [axi4_exclusive_test] Starting exclusive access test
# UVM_INFO ../src/seq/axi4_exclusive_seq.sv(26) @ 0: uvm_test_top.env.master_agent.sqr@@excl_seq [axi4_exclusive_seq] Starting exclusive access sequence: 10 iterations
# UVM_INFO ../src/seq/axi4_exclusive_seq.sv(44) @ 0: uvm_test_top.env.master_agent.sqr@@excl_seq [axi4_exclusive_seq] [1/10] Running Exclusive Read-Write pair to ADDR=0x86db29a4 ID=0x9
# UVM_INFO ../src/tb_top.sv(49) @ 95000: reporter [TOP_TB] Reset de-asserted
# UVM_INFO ../src/slv/axi4_slave_driver.sv(70) @ 95000: uvm_test_top.env.slave_agent.drv [axi4_slave_driver] Reset deasserted - slave driver active
# UVM_INFO ../src/mst/axi4_master_driver.sv(46) @ 95000: uvm_test_top.env.master_agent.drv [axi4_master_driver] Reset deasserted - master driver active
# UVM_INFO ../src/mst/axi4_master_monitor.sv(77) @ 95000: uvm_test_top.env.master_agent.mon [axi4_master_monitor] Reset deasserted — monitor active
# UVM_INFO ../src/slv/axi4_slave_monitor.sv(71) @ 95000: uvm_test_top.env.slave_agent.mon [axi4_slave_monitor] Reset deasserted — monitor active
# UVM_INFO ../src/mst/axi4_master_driver.sv(55) @ 95000: uvm_test_top.env.master_agent.drv [axi4_master_driver] Driving AXI4_READ  ID=0x9  ADDR=0x86db29a4  LEN=0
# UVM_INFO ../src/slv/axi4_slave_driver.sv(300) @ 115000: uvm_test_top.env.slave_agent.drv [axi4_slave_driver] AR received: ID=0x9 ADDR=0x86db29a4 LEN=0 LOCK=AXI4_LOCK_EXCLUSIVE
# UVM_INFO ../src/slv/axi4_slave_monitor.sv(224) @ 115000: uvm_test_top.env.slave_agent.mon [axi4_slave_monitor] AR received: ID=0x9 ADDR=0x86db29a4 LEN=0
# UVM_INFO ../src/mst/axi4_master_monitor.sv(246) @ 115000: uvm_test_top.env.master_agent.mon [axi4_master_monitor] AR observed: ID=0x9 ADDR=0x86db29a4 LEN=0
# UVM_INFO ../src/mst/axi4_master_driver.sv(254) @ 135000: uvm_test_top.env.master_agent.drv [axi4_master_driver] Read complete: 1 beats received
# UVM_INFO ../src/slv/axi4_slave_driver.sv(349) @ 135000: uvm_test_top.env.slave_agent.drv [axi4_slave_driver] Read complete: ID=0x9 ADDR=0x86db29a4 RESP=AXI4_RESP_EXOKAY  1 beats sent
# UVM_INFO ../src/slv/axi4_slave_monitor.sv(287) @ 135000: uvm_test_top.env.slave_agent.mon [axi4_slave_monitor] Read data sent: ID=0x9 ADDR=0x86db29a4 1 beats
# UVM_INFO ../src/env/axi4_scoreboard.sv(103) @ 135000: uvm_test_top.env.scb [axi4_scoreboard] Slave AXI4_READ received: ID=0x9 ADDR=0x86db29a4 LEN=0
# UVM_INFO ../src/mst/axi4_master_monitor.sv(314) @ 135000: uvm_test_top.env.master_agent.mon [axi4_master_monitor] Read complete: ID=0x9 ADDR=0x86db29a4 1 beats
# UVM_INFO ../src/env/axi4_scoreboard.sv(82) @ 135000: uvm_test_top.env.scb [axi4_scoreboard] Master AXI4_READ received: ID=0x9 ADDR=0x86db29a4 LEN=0
# UVM_INFO ../src/env/axi4_scoreboard.sv(154) @ 135000: uvm_test_top.env.scb [axi4_scoreboard] [READ] MATCH #1: ID=0x9 ADDR=0x86db29a4 LEN=0
# UVM_INFO ../src/seq/axi4_exclusive_seq.sv(60) @ 135000: uvm_test_top.env.master_agent.sqr@@excl_seq [axi4_exclusive_seq] Exclusive Read complete: RESP=AXI4_RESP_EXOKAY
# UVM_INFO ../src/mst/axi4_master_driver.sv(55) @ 135000: uvm_test_top.env.master_agent.drv [axi4_master_driver] Driving AXI4_WRITE  ID=0x9  ADDR=0x86db29a4  LEN=0
# UVM_INFO ../src/mst/axi4_master_driver.sv(106) @ 135000: uvm_test_top.env.master_agent.drv [axi4_master_driver] Write order: W -> AW (W first)
# UVM_INFO ../src/slv/axi4_slave_driver.sv(165) @ 195000: uvm_test_top.env.slave_agent.drv [axi4_slave_driver] AW received: ID=0x9 ADDR=0x86db29a4 LEN=0 LOCK=AXI4_LOCK_EXCLUSIVE
# UVM_INFO ../src/slv/axi4_slave_monitor.sv(116) @ 195000: uvm_test_top.env.slave_agent.mon [axi4_slave_monitor] AW received: ID=0x9 ADDR=0x86db29a4 LEN=0
# UVM_INFO ../src/mst/axi4_master_monitor.sv(124) @ 195000: uvm_test_top.env.master_agent.mon [axi4_master_monitor] AW observed: ID=0x9 ADDR=0x86db29a4 LEN=0
# UVM_INFO ../src/slv/axi4_slave_monitor.sv(167) @ 195000: uvm_test_top.env.slave_agent.mon [axi4_slave_monitor] W data assembled: ID=0x9 ADDR=0x86db29a4 1 beats
# UVM_INFO ../src/mst/axi4_master_monitor.sv(184) @ 195000: uvm_test_top.env.master_agent.mon [axi4_master_monitor] W data assembled: ID=0x9 ADDR=0x86db29a4 1 beats
# UVM_INFO ../src/mst/axi4_master_driver.sv(197) @ 215000: uvm_test_top.env.master_agent.drv [axi4_master_driver] Write response: AXI4_RESP_EXOKAY
# UVM_INFO ../src/slv/axi4_slave_driver.sv(261) @ 215000: uvm_test_top.env.slave_agent.drv [axi4_slave_driver] Write complete: ID=0x9 ADDR=0x86db29a4 RESP=AXI4_RESP_EXOKAY  1 beats processed
# UVM_INFO ../src/slv/axi4_slave_monitor.sv(189) @ 215000: uvm_test_top.env.slave_agent.mon [axi4_slave_monitor] Write response sent: ID=0x9 ADDR=0x86db29a4 RESP=AXI4_RESP_EXOKAY
# UVM_INFO ../src/env/axi4_scoreboard.sv(103) @ 215000: uvm_test_top.env.scb [axi4_scoreboard] Slave AXI4_WRITE received: ID=0x9 ADDR=0x86db29a4 LEN=0
# UVM_INFO ../src/mst/axi4_master_monitor.sv(210) @ 215000: uvm_test_top.env.master_agent.mon [axi4_master_monitor] Write complete: ID=0x9 ADDR=0x86db29a4 RESP=AXI4_RESP_EXOKAY
# UVM_INFO ../src/env/axi4_scoreboard.sv(82) @ 215000: uvm_test_top.env.scb [axi4_scoreboard] Master AXI4_WRITE received: ID=0x9 ADDR=0x86db29a4 LEN=0
# UVM_INFO ../src/env/axi4_scoreboard.sv(154) @ 215000: uvm_test_top.env.scb [axi4_scoreboard] [WRITE] MATCH #2: ID=0x9 ADDR=0x86db29a4 LEN=0
# UVM_INFO ../src/seq/axi4_exclusive_seq.sv(76) @ 215000: uvm_test_top.env.master_agent.sqr@@excl_seq [axi4_exclusive_seq] Exclusive Write complete: RESP=AXI4_RESP_EXOKAY
# UVM_INFO ../src/mst/axi4_master_driver.sv(55) @ 215000: uvm_test_top.env.master_agent.drv [axi4_master_driver] Driving AXI4_WRITE  ID=0x9  ADDR=0x86db29a4  LEN=0
# UVM_INFO ../src/mst/axi4_master_driver.sv(101) @ 215000: uvm_test_top.env.master_agent.drv [axi4_master_driver] Write order: AW -> W (sequential)
# UVM_INFO ../src/slv/axi4_slave_driver.sv(165) @ 245000: uvm_test_top.env.slave_agent.drv [axi4_slave_driver] AW received: ID=0x9 ADDR=0x86db29a4 LEN=0 LOCK=AXI4_LOCK_EXCLUSIVE
# UVM_INFO ../src/mst/axi4_master_monitor.sv(124) @ 245000: uvm_test_top.env.master_agent.mon [axi4_master_monitor] AW observed: ID=0x9 ADDR=0x86db29a4 LEN=0
# UVM_INFO ../src/slv/axi4_slave_monitor.sv(116) @ 245000: uvm_test_top.env.slave_agent.mon [axi4_slave_monitor] AW received: ID=0x9 ADDR=0x86db29a4 LEN=0
# UVM_INFO ../src/mst/axi4_master_monitor.sv(184) @ 265000: uvm_test_top.env.master_agent.mon [axi4_master_monitor] W data assembled: ID=0x9 ADDR=0x86db29a4 1 beats
# UVM_INFO ../src/slv/axi4_slave_monitor.sv(167) @ 265000: uvm_test_top.env.slave_agent.mon [axi4_slave_monitor] W data assembled: ID=0x9 ADDR=0x86db29a4 1 beats
# UVM_INFO ../src/mst/axi4_master_driver.sv(197) @ 295000: uvm_test_top.env.master_agent.drv [axi4_master_driver] Write response: AXI4_RESP_OKAY
# UVM_INFO ../src/slv/axi4_slave_driver.sv(261) @ 295000: uvm_test_top.env.slave_agent.drv [axi4_slave_driver] Write complete: ID=0x9 ADDR=0x86db29a4 RESP=AXI4_RESP_OKAY  1 beats processed
# UVM_INFO ../src/slv/axi4_slave_monitor.sv(189) @ 295000: uvm_test_top.env.slave_agent.mon [axi4_slave_monitor] Write response sent: ID=0x9 ADDR=0x86db29a4 RESP=AXI4_RESP_OKAY
# UVM_INFO ../src/env/axi4_scoreboard.sv(103) @ 295000: uvm_test_top.env.scb [axi4_scoreboard] Slave AXI4_WRITE received: ID=0x9 ADDR=0x86db29a4 LEN=0
# UVM_INFO ../src/mst/axi4_master_monitor.sv(210) @ 295000: uvm_test_top.env.master_agent.mon [axi4_master_monitor] Write complete: ID=0x9 ADDR=0x86db29a4 RESP=AXI4_RESP_OKAY
# UVM_INFO ../src/env/axi4_scoreboard.sv(82) @ 295000: uvm_test_top.env.scb [axi4_scoreboard] Master AXI4_WRITE received: ID=0x9 ADDR=0x86db29a4 LEN=0
# UVM_INFO ../src/env/axi4_scoreboard.sv(154) @ 295000: uvm_test_top.env.scb [axi4_scoreboard] [WRITE] MATCH #3: ID=0x9 ADDR=0x86db29a4 LEN=0
# UVM_INFO ../src/seq/axi4_exclusive_seq.sv(93) @ 295000: uvm_test_top.env.master_agent.sqr@@excl_seq [axi4_exclusive_seq] Failing Exclusive Write complete: RESP=AXI4_RESP_OKAY (Expected OKAY, no EXOKAY)
# UVM_INFO ../src/seq/axi4_exclusive_seq.sv(44) @ 295000: uvm_test_top.env.master_agent.sqr@@excl_seq [axi4_exclusive_seq] [2/10] Running Exclusive Read-Write pair to ADDR=0xb0189ea8 ID=0x7
# UVM_INFO ../src/mst/axi4_master_driver.sv(55) @ 295000: uvm_test_top.env.master_agent.drv [axi4_master_driver] Driving AXI4_READ  ID=0x7  ADDR=0xb0189ea8  LEN=0
# UVM_INFO ../src/slv/axi4_slave_driver.sv(300) @ 325000: uvm_test_top.env.slave_agent.drv [axi4_slave_driver] AR received: ID=0x7 ADDR=0xb0189ea8 LEN=0 LOCK=AXI4_LOCK_EXCLUSIVE
# UVM_INFO ../src/mst/axi4_master_monitor.sv(246) @ 325000: uvm_test_top.env.master_agent.mon [axi4_master_monitor] AR observed: ID=0x7 ADDR=0xb0189ea8 LEN=0
# UVM_INFO ../src/slv/axi4_slave_monitor.sv(224) @ 325000: uvm_test_top.env.slave_agent.mon [axi4_slave_monitor] AR received: ID=0x7 ADDR=0xb0189ea8 LEN=0
# UVM_INFO ../src/mst/axi4_master_driver.sv(254) @ 345000: uvm_test_top.env.master_agent.drv [axi4_master_driver] Read complete: 1 beats received
# UVM_INFO ../src/slv/axi4_slave_driver.sv(349) @ 345000: uvm_test_top.env.slave_agent.drv [axi4_slave_driver] Read complete: ID=0x7 ADDR=0xb0189ea8 RESP=AXI4_RESP_EXOKAY  1 beats sent
# UVM_INFO ../src/mst/axi4_master_monitor.sv(314) @ 345000: uvm_test_top.env.master_agent.mon [axi4_master_monitor] Read complete: ID=0x7 ADDR=0xb0189ea8 1 beats
# UVM_INFO ../src/env/axi4_scoreboard.sv(82) @ 345000: uvm_test_top.env.scb [axi4_scoreboard] Master AXI4_READ received: ID=0x7 ADDR=0xb0189ea8 LEN=0
# UVM_INFO ../src/slv/axi4_slave_monitor.sv(287) @ 345000: uvm_test_top.env.slave_agent.mon [axi4_slave_monitor] Read data sent: ID=0x7 ADDR=0xb0189ea8 1 beats
# UVM_INFO ../src/env/axi4_scoreboard.sv(103) @ 345000: uvm_test_top.env.scb [axi4_scoreboard] Slave AXI4_READ received: ID=0x7 ADDR=0xb0189ea8 LEN=0
# UVM_INFO ../src/env/axi4_scoreboard.sv(154) @ 345000: uvm_test_top.env.scb [axi4_scoreboard] [READ] MATCH #4: ID=0x7 ADDR=0xb0189ea8 LEN=0
# UVM_INFO ../src/seq/axi4_exclusive_seq.sv(60) @ 345000: uvm_test_top.env.master_agent.sqr@@excl_seq [axi4_exclusive_seq] Exclusive Read complete: RESP=AXI4_RESP_EXOKAY
# UVM_INFO ../src/mst/axi4_master_driver.sv(55) @ 345000: uvm_test_top.env.master_agent.drv [axi4_master_driver] Driving AXI4_WRITE  ID=0x7  ADDR=0xb0189ea8  LEN=0
# UVM_INFO ../src/mst/axi4_master_driver.sv(101) @ 345000: uvm_test_top.env.master_agent.drv [axi4_master_driver] Write order: AW -> W (sequential)
# UVM_INFO ../src/slv/axi4_slave_driver.sv(165) @ 375000: uvm_test_top.env.slave_agent.drv [axi4_slave_driver] AW received: ID=0x7 ADDR=0xb0189ea8 LEN=0 LOCK=AXI4_LOCK_EXCLUSIVE
# UVM_INFO ../src/slv/axi4_slave_monitor.sv(116) @ 375000: uvm_test_top.env.slave_agent.mon [axi4_slave_monitor] AW received: ID=0x7 ADDR=0xb0189ea8 LEN=0
# UVM_INFO ../src/mst/axi4_master_monitor.sv(124) @ 375000: uvm_test_top.env.master_agent.mon [axi4_master_monitor] AW observed: ID=0x7 ADDR=0xb0189ea8 LEN=0
# UVM_INFO ../src/slv/axi4_slave_monitor.sv(167) @ 395000: uvm_test_top.env.slave_agent.mon [axi4_slave_monitor] W data assembled: ID=0x7 ADDR=0xb0189ea8 1 beats
# UVM_INFO ../src/mst/axi4_master_monitor.sv(184) @ 395000: uvm_test_top.env.master_agent.mon [axi4_master_monitor] W data assembled: ID=0x7 ADDR=0xb0189ea8 1 beats
# UVM_INFO ../src/mst/axi4_master_driver.sv(197) @ 425000: uvm_test_top.env.master_agent.drv [axi4_master_driver] Write response: AXI4_RESP_EXOKAY
# UVM_INFO ../src/slv/axi4_slave_driver.sv(261) @ 425000: uvm_test_top.env.slave_agent.drv [axi4_slave_driver] Write complete: ID=0x7 ADDR=0xb0189ea8 RESP=AXI4_RESP_EXOKAY  1 beats processed
# UVM_INFO ../src/mst/axi4_master_monitor.sv(210) @ 425000: uvm_test_top.env.master_agent.mon [axi4_master_monitor] Write complete: ID=0x7 ADDR=0xb0189ea8 RESP=AXI4_RESP_EXOKAY
# UVM_INFO ../src/env/axi4_scoreboard.sv(82) @ 425000: uvm_test_top.env.scb [axi4_scoreboard] Master AXI4_WRITE received: ID=0x7 ADDR=0xb0189ea8 LEN=0
# UVM_INFO ../src/slv/axi4_slave_monitor.sv(189) @ 425000: uvm_test_top.env.slave_agent.mon [axi4_slave_monitor] Write response sent: ID=0x7 ADDR=0xb0189ea8 RESP=AXI4_RESP_EXOKAY
# UVM_INFO ../src/env/axi4_scoreboard.sv(103) @ 425000: uvm_test_top.env.scb [axi4_scoreboard] Slave AXI4_WRITE received: ID=0x7 ADDR=0xb0189ea8 LEN=0
# UVM_INFO ../src/env/axi4_scoreboard.sv(154) @ 425000: uvm_test_top.env.scb [axi4_scoreboard] [WRITE] MATCH #5: ID=0x7 ADDR=0xb0189ea8 LEN=0
# UVM_INFO ../src/seq/axi4_exclusive_seq.sv(76) @ 425000: uvm_test_top.env.master_agent.sqr@@excl_seq [axi4_exclusive_seq] Exclusive Write complete: RESP=AXI4_RESP_EXOKAY
# UVM_INFO ../src/mst/axi4_master_driver.sv(55) @ 425000: uvm_test_top.env.master_agent.drv [axi4_master_driver] Driving AXI4_WRITE  ID=0x7  ADDR=0xb0189ea8  LEN=0
# UVM_INFO ../src/mst/axi4_master_driver.sv(94) @ 425000: uvm_test_top.env.master_agent.drv [axi4_master_driver] Write order: AW || W (parallel)
# UVM_INFO ../src/slv/axi4_slave_driver.sv(165) @ 455000: uvm_test_top.env.slave_agent.drv [axi4_slave_driver] AW received: ID=0x7 ADDR=0xb0189ea8 LEN=0 LOCK=AXI4_LOCK_EXCLUSIVE
# UVM_INFO ../src/slv/axi4_slave_monitor.sv(116) @ 455000: uvm_test_top.env.slave_agent.mon [axi4_slave_monitor] AW received: ID=0x7 ADDR=0xb0189ea8 LEN=0
# UVM_INFO ../src/mst/axi4_master_monitor.sv(124) @ 455000: uvm_test_top.env.master_agent.mon [axi4_master_monitor] AW observed: ID=0x7 ADDR=0xb0189ea8 LEN=0
# UVM_INFO ../src/slv/axi4_slave_monitor.sv(167) @ 455000: uvm_test_top.env.slave_agent.mon [axi4_slave_monitor] W data assembled: ID=0x7 ADDR=0xb0189ea8 1 beats
# UVM_INFO ../src/mst/axi4_master_monitor.sv(184) @ 455000: uvm_test_top.env.master_agent.mon [axi4_master_monitor] W data assembled: ID=0x7 ADDR=0xb0189ea8 1 beats
# UVM_INFO ../src/mst/axi4_master_driver.sv(197) @ 475000: uvm_test_top.env.master_agent.drv [axi4_master_driver] Write response: AXI4_RESP_OKAY
# UVM_INFO ../src/slv/axi4_slave_driver.sv(261) @ 475000: uvm_test_top.env.slave_agent.drv [axi4_slave_driver] Write complete: ID=0x7 ADDR=0xb0189ea8 RESP=AXI4_RESP_OKAY  1 beats processed
# UVM_INFO ../src/slv/axi4_slave_monitor.sv(189) @ 475000: uvm_test_top.env.slave_agent.mon [axi4_slave_monitor] Write response sent: ID=0x7 ADDR=0xb0189ea8 RESP=AXI4_RESP_OKAY
# UVM_INFO ../src/env/axi4_scoreboard.sv(103) @ 475000: uvm_test_top.env.scb [axi4_scoreboard] Slave AXI4_WRITE received: ID=0x7 ADDR=0xb0189ea8 LEN=0
# UVM_INFO ../src/mst/axi4_master_monitor.sv(210) @ 475000: uvm_test_top.env.master_agent.mon [axi4_master_monitor] Write complete: ID=0x7 ADDR=0xb0189ea8 RESP=AXI4_RESP_OKAY
# UVM_INFO ../src/env/axi4_scoreboard.sv(82) @ 475000: uvm_test_top.env.scb [axi4_scoreboard] Master AXI4_WRITE received: ID=0x7 ADDR=0xb0189ea8 LEN=0
# UVM_INFO ../src/env/axi4_scoreboard.sv(154) @ 475000: uvm_test_top.env.scb [axi4_scoreboard] [WRITE] MATCH #6: ID=0x7 ADDR=0xb0189ea8 LEN=0
# UVM_INFO ../src/seq/axi4_exclusive_seq.sv(93) @ 475000: uvm_test_top.env.master_agent.sqr@@excl_seq [axi4_exclusive_seq] Failing Exclusive Write complete: RESP=AXI4_RESP_OKAY (Expected OKAY, no EXOKAY)
# UVM_INFO ../src/seq/axi4_exclusive_seq.sv(44) @ 475000: uvm_test_top.env.master_agent.sqr@@excl_seq [axi4_exclusive_seq] [3/10] Running Exclusive Read-Write pair to ADDR=0x3adfa4e0 ID=0x6
# UVM_INFO ../src/mst/axi4_master_driver.sv(55) @ 475000: uvm_test_top.env.master_agent.drv [axi4_master_driver] Driving AXI4_READ  ID=0x6  ADDR=0x3adfa4e0  LEN=0
# UVM_INFO ../src/slv/axi4_slave_driver.sv(300) @ 505000: uvm_test_top.env.slave_agent.drv [axi4_slave_driver] AR received: ID=0x6 ADDR=0x3adfa4e0 LEN=0 LOCK=AXI4_LOCK_EXCLUSIVE
# UVM_INFO ../src/mst/axi4_master_monitor.sv(246) @ 505000: uvm_test_top.env.master_agent.mon [axi4_master_monitor] AR observed: ID=0x6 ADDR=0x3adfa4e0 LEN=0
# UVM_INFO ../src/slv/axi4_slave_monitor.sv(224) @ 505000: uvm_test_top.env.slave_agent.mon [axi4_slave_monitor] AR received: ID=0x6 ADDR=0x3adfa4e0 LEN=0
# UVM_INFO ../src/mst/axi4_master_driver.sv(254) @ 525000: uvm_test_top.env.master_agent.drv [axi4_master_driver] Read complete: 1 beats received
# UVM_INFO ../src/slv/axi4_slave_driver.sv(349) @ 525000: uvm_test_top.env.slave_agent.drv [axi4_slave_driver] Read complete: ID=0x6 ADDR=0x3adfa4e0 RESP=AXI4_RESP_EXOKAY  1 beats sent
# UVM_INFO ../src/mst/axi4_master_monitor.sv(314) @ 525000: uvm_test_top.env.master_agent.mon [axi4_master_monitor] Read complete: ID=0x6 ADDR=0x3adfa4e0 1 beats
# UVM_INFO ../src/env/axi4_scoreboard.sv(82) @ 525000: uvm_test_top.env.scb [axi4_scoreboard] Master AXI4_READ received: ID=0x6 ADDR=0x3adfa4e0 LEN=0
# UVM_INFO ../src/slv/axi4_slave_monitor.sv(287) @ 525000: uvm_test_top.env.slave_agent.mon [axi4_slave_monitor] Read data sent: ID=0x6 ADDR=0x3adfa4e0 1 beats
# UVM_INFO ../src/env/axi4_scoreboard.sv(103) @ 525000: uvm_test_top.env.scb [axi4_scoreboard] Slave AXI4_READ received: ID=0x6 ADDR=0x3adfa4e0 LEN=0
# UVM_INFO ../src/env/axi4_scoreboard.sv(154) @ 525000: uvm_test_top.env.scb [axi4_scoreboard] [READ] MATCH #7: ID=0x6 ADDR=0x3adfa4e0 LEN=0
# UVM_INFO ../src/seq/axi4_exclusive_seq.sv(60) @ 525000: uvm_test_top.env.master_agent.sqr@@excl_seq [axi4_exclusive_seq] Exclusive Read complete: RESP=AXI4_RESP_EXOKAY
# UVM_INFO ../src/mst/axi4_master_driver.sv(55) @ 525000: uvm_test_top.env.master_agent.drv [axi4_master_driver] Driving AXI4_WRITE  ID=0x6  ADDR=0x3adfa4e0  LEN=0
# UVM_INFO ../src/mst/axi4_master_driver.sv(106) @ 525000: uvm_test_top.env.master_agent.drv [axi4_master_driver] Write order: W -> AW (W first)
# UVM_INFO ../src/slv/axi4_slave_driver.sv(165) @ 575000: uvm_test_top.env.slave_agent.drv [axi4_slave_driver] AW received: ID=0x6 ADDR=0x3adfa4e0 LEN=0 LOCK=AXI4_LOCK_EXCLUSIVE
# UVM_INFO ../src/slv/axi4_slave_monitor.sv(116) @ 575000: uvm_test_top.env.slave_agent.mon [axi4_slave_monitor] AW received: ID=0x6 ADDR=0x3adfa4e0 LEN=0
# UVM_INFO ../src/mst/axi4_master_monitor.sv(124) @ 575000: uvm_test_top.env.master_agent.mon [axi4_master_monitor] AW observed: ID=0x6 ADDR=0x3adfa4e0 LEN=0
# UVM_INFO ../src/slv/axi4_slave_monitor.sv(167) @ 575000: uvm_test_top.env.slave_agent.mon [axi4_slave_monitor] W data assembled: ID=0x6 ADDR=0x3adfa4e0 1 beats
# UVM_INFO ../src/mst/axi4_master_monitor.sv(184) @ 575000: uvm_test_top.env.master_agent.mon [axi4_master_monitor] W data assembled: ID=0x6 ADDR=0x3adfa4e0 1 beats
# UVM_INFO ../src/mst/axi4_master_driver.sv(197) @ 595000: uvm_test_top.env.master_agent.drv [axi4_master_driver] Write response: AXI4_RESP_EXOKAY
# UVM_INFO ../src/slv/axi4_slave_driver.sv(261) @ 595000: uvm_test_top.env.slave_agent.drv [axi4_slave_driver] Write complete: ID=0x6 ADDR=0x3adfa4e0 RESP=AXI4_RESP_EXOKAY  1 beats processed
# UVM_INFO ../src/slv/axi4_slave_monitor.sv(189) @ 595000: uvm_test_top.env.slave_agent.mon [axi4_slave_monitor] Write response sent: ID=0x6 ADDR=0x3adfa4e0 RESP=AXI4_RESP_EXOKAY
# UVM_INFO ../src/env/axi4_scoreboard.sv(103) @ 595000: uvm_test_top.env.scb [axi4_scoreboard] Slave AXI4_WRITE received: ID=0x6 ADDR=0x3adfa4e0 LEN=0
# UVM_INFO ../src/mst/axi4_master_monitor.sv(210) @ 595000: uvm_test_top.env.master_agent.mon [axi4_master_monitor] Write complete: ID=0x6 ADDR=0x3adfa4e0 RESP=AXI4_RESP_EXOKAY
# UVM_INFO ../src/env/axi4_scoreboard.sv(82) @ 595000: uvm_test_top.env.scb [axi4_scoreboard] Master AXI4_WRITE received: ID=0x6 ADDR=0x3adfa4e0 LEN=0
# UVM_INFO ../src/env/axi4_scoreboard.sv(154) @ 595000: uvm_test_top.env.scb [axi4_scoreboard] [WRITE] MATCH #8: ID=0x6 ADDR=0x3adfa4e0 LEN=0
# UVM_INFO ../src/seq/axi4_exclusive_seq.sv(76) @ 595000: uvm_test_top.env.master_agent.sqr@@excl_seq [axi4_exclusive_seq] Exclusive Write complete: RESP=AXI4_RESP_EXOKAY
