sim/report/logs/axi4_random_test_run_9_seed_99783464.log
# vsim -c -coverage -sv_seed 99783464 "+UVM_TESTNAME=axi4_random_test" "+UVM_VERBOSITY=UVM_HIGH" "+DUMP_VCD" -l ./report/logs/axi4_random_test_run_9_seed_99783464.log -do "coverage save -onexit ./report/coverage/axi4_random_test_run_9_seed_99783464.ucdb; run -all; quit -f" opt_tb_top 
# Start time: 11:23:44 on Jun 05,2026
# //  Questa Sim-64
# //  Version 10.6b linux_x86_64 May 25 2017
# //
# //  Copyright 1991-2017 Mentor Graphics Corporation
# //  All Rights Reserved.
# //
# //  QuestaSim and its associated documentation contain trade
# //  secrets and commercial or financial information that are the property of
# //  Mentor Graphics Corporation and are privileged, confidential,
# //  and exempt from disclosure under the Freedom of Information Act,
# //  5 U.S.C. Section 552. Furthermore, this information
# //  is prohibited from disclosure under the Trade Secrets Act,
# //  18 U.S.C. Section 1905.
# //
# Loading sv_std.std
# Loading work.axi4_if(fast)
# Loading mtiUvm.uvm_pkg
# Loading work.axi4_pkg(fast)
# Loading work.axi4_test_pkg(fast)
# Loading work.tb_top(fast)
# Loading work.axi4_if(fast)
# Loading work.axi4_sva(fast)
# Loading mtiUvm.questa_uvm_pkg(fast)
# Loading /cadtools/mentor/Questa_10.6b/questasim/uvm-1.1d/linux_x86_64/uvm_dpi.so
# coverage save -onexit ./report/coverage/axi4_random_test_run_9_seed_99783464.ucdb
#  run -all
# ----------------------------------------------------------------
# UVM-1.1d
# (C) 2007-2013 Mentor Graphics Corporation
# (C) 2007-2013 Cadence Design Systems, Inc.
# (C) 2006-2013 Synopsys, Inc.
# (C) 2011-2013 Cypress Semiconductor Corp.
# ----------------------------------------------------------------
# 
#   ***********       IMPORTANT RELEASE NOTES         ************
# 
#   You are using a version of the UVM library that has been compiled
#   with `UVM_NO_DEPRECATED undefined.
#   See http://www.eda.org/svdb/view.php?id=3313 for more details.
# 
#   You are using a version of the UVM library that has been compiled
#   with `UVM_OBJECT_MUST_HAVE_CONSTRUCTOR undefined.
#   See http://www.eda.org/svdb/view.php?id=3770 for more details.
# 
#       (Specify +UVM_NO_RELNOTES to turn off this notice)
# 
# UVM_INFO verilog_src/questa_uvm_pkg-1.2/src/questa_uvm_pkg.sv(215) @ 0: reporter [Questa UVM] QUESTA_UVM-1.2.3
# UVM_INFO verilog_src/questa_uvm_pkg-1.2/src/questa_uvm_pkg.sv(217) @ 0: reporter [Questa UVM]  questa_uvm::init(+struct)
# UVM_INFO ../src/tb_top.sv(128) @ 0: reporter [TB_TOP] Virtual interface set in config_db
# UVM_INFO @ 0: reporter [RNTST] Running test axi4_random_test...
# UVM_INFO ../src/tb_top.sv(142) @ 0: reporter [TB_TOP] Waveform VCD dumping enabled (axi4_vip.vcd)
# UVM_INFO ../src/env/axi4_vip_env.sv(83) @ 0: uvm_test_top.env [axi4_vip_env] slave_vif not set - reusing master_vif (passthrough mode)
# UVM_INFO ../src/env/axi4_vip_env.sv(93) @ 0: uvm_test_top.env [axi4_vip_env] Scoreboard created
# UVM_INFO ../src/env/axi4_vip_env.sv(100) @ 0: uvm_test_top.env [axi4_vip_env] Coverage collectors created
# UVM_INFO ../src/mst/axi4_master_agent.sv(69) @ 0: uvm_test_top.env.master_agent [axi4_master_agent] ACTIVE mode - driver + sequencer created
# UVM_INFO ../src/slv/axi4_slave_agent.sv(82) @ 0: uvm_test_top.env.slave_agent [axi4_slave_agent] ACTIVE mode — ready_delay=[0:0] resp_delay=[0:0]
# UVM_INFO ../src/env/axi4_vip_env.sv(116) @ 0: uvm_test_top.env [axi4_vip_env] Scoreboard connected: master_mon.ap -> scb, slave_mon.ap -> scb
# UVM_INFO ../src/env/axi4_vip_env.sv(124) @ 0: uvm_test_top.env [axi4_vip_env] Coverage connected: master_mon.ap -> master_cov, slave_mon.ap -> slave_cov
# UVM_INFO @ 0: reporter [UVMTOP] UVM testbench topology:
# ---------------------------------------------------------------
# Name                       Type                     Size  Value
# ---------------------------------------------------------------
# uvm_test_top               axi4_random_test         -     @473 
#   env                      axi4_vip_env             -     @488 
#     master_agent           axi4_master_agent        -     @503 
#       drv                  axi4_master_driver       -     @567 
#         rsp_port           uvm_analysis_port        -     @582 
#         seq_item_port      uvm_seq_item_pull_port   -     @574 
#       mon                  axi4_master_monitor      -     @559 
#         ap                 uvm_analysis_port        -     @700 
#       sqr                  axi4_master_sequencer    -     @590 
#         rsp_export         uvm_analysis_export      -     @597 
#         seq_item_export    uvm_seq_item_pull_imp    -     @691 
#         arbitration_queue  array                    0     -    
#         lock_queue         array                    0     -    
#         num_last_reqs      integral                 32    'd1  
#         num_last_rsps      integral                 32    'd1  
#     master_cov             axi4_coverage            -     @524 
#       analysis_imp         uvm_analysis_imp         -     @531 
#     scb                    axi4_scoreboard          -     @517 
#       master_export        uvm_analysis_imp_master  -     @714 
#       slave_export         uvm_analysis_imp_slave   -     @722 
#     slave_agent            axi4_slave_agent         -     @510 
#       drv                  axi4_slave_driver        -     @753 
#         rsp_port           uvm_analysis_port        -     @768 
#         seq_item_port      uvm_seq_item_pull_port   -     @760 
#       mon                  axi4_slave_monitor       -     @735 
#         ap                 uvm_analysis_port        -     @890 
#       sqr                  axi4_slave_sequencer     -     @776 
#         rsp_export         uvm_analysis_export      -     @783 
#         seq_item_export    uvm_seq_item_pull_imp    -     @877 
#         arbitration_queue  array                    0     -    
#         lock_queue         array                    0     -    
#         num_last_reqs      integral                 32    'd1  
#         num_last_rsps      integral                 32    'd1  
#     slave_cov              axi4_coverage            -     @539 
#       analysis_imp         uvm_analysis_imp         -     @546 
# ---------------------------------------------------------------
# 
# UVM_INFO verilog_src/questa_uvm_pkg-1.2/src/questa_uvm_pkg.sv(277) @ 0: reporter [Questa UVM] End Of Elaboration
# UVM_INFO ../src/test/axi4_random_test.sv(43) @ 0: uvm_test_top [axi4_random_test] Starting random test with 50 transactions
# UVM_INFO ../src/seq/axi4_random_seq.sv(34) @ 0: uvm_test_top.env.master_agent.sqr@@rand_seq [axi4_random_seq] Starting random sequence: 50 transactions
# UVM_INFO ../src/tb_top.sv(49) @ 95000: reporter [TOP_TB] Reset de-asserted
# UVM_INFO ../src/slv/axi4_slave_driver.sv(70) @ 95000: uvm_test_top.env.slave_agent.drv [axi4_slave_driver] Reset deasserted - slave driver active
# UVM_INFO ../src/mst/axi4_master_driver.sv(46) @ 95000: uvm_test_top.env.master_agent.drv [axi4_master_driver] Reset deasserted - master driver active
# UVM_INFO ../src/mst/axi4_master_monitor.sv(77) @ 95000: uvm_test_top.env.master_agent.mon [axi4_master_monitor] Reset deasserted — monitor active
# UVM_INFO ../src/slv/axi4_slave_monitor.sv(71) @ 95000: uvm_test_top.env.slave_agent.mon [axi4_slave_monitor] Reset deasserted — monitor active
# UVM_INFO ../src/mst/axi4_master_driver.sv(55) @ 95000: uvm_test_top.env.master_agent.drv [axi4_master_driver] Driving AXI4_READ  ID=0x3  ADDR=0xd04d2b0c  LEN=140
# UVM_INFO ../src/slv/axi4_slave_driver.sv(300) @ 115000: uvm_test_top.env.slave_agent.drv [axi4_slave_driver] AR received: ID=0x3 ADDR=0xd04d2b0c LEN=140 LOCK=AXI4_LOCK_NORMAL
# UVM_INFO ../src/slv/axi4_slave_monitor.sv(224) @ 115000: uvm_test_top.env.slave_agent.mon [axi4_slave_monitor] AR received: ID=0x3 ADDR=0xd04d2b0c LEN=140
# UVM_INFO ../src/mst/axi4_master_monitor.sv(246) @ 115000: uvm_test_top.env.master_agent.mon [axi4_master_monitor] AR observed: ID=0x3 ADDR=0xd04d2b0c LEN=140
# UVM_INFO ../src/mst/axi4_master_driver.sv(254) @ 2935000: uvm_test_top.env.master_agent.drv [axi4_master_driver] Read complete: 141 beats received
# UVM_INFO ../src/slv/axi4_slave_driver.sv(349) @ 2935000: uvm_test_top.env.slave_agent.drv [axi4_slave_driver] Read complete: ID=0x3 ADDR=0xd04d2b0c RESP=AXI4_RESP_OKAY  141 beats sent
# UVM_INFO ../src/slv/axi4_slave_monitor.sv(287) @ 2935000: uvm_test_top.env.slave_agent.mon [axi4_slave_monitor] Read data sent: ID=0x3 ADDR=0xd04d2b0c 141 beats
# UVM_INFO ../src/env/axi4_scoreboard.sv(103) @ 2935000: uvm_test_top.env.scb [axi4_scoreboard] Slave AXI4_READ received: ID=0x3 ADDR=0xd04d2b0c LEN=140
# UVM_INFO ../src/mst/axi4_master_monitor.sv(314) @ 2935000: uvm_test_top.env.master_agent.mon [axi4_master_monitor] Read complete: ID=0x3 ADDR=0xd04d2b0c 141 beats
# UVM_INFO ../src/env/axi4_scoreboard.sv(82) @ 2935000: uvm_test_top.env.scb [axi4_scoreboard] Master AXI4_READ received: ID=0x3 ADDR=0xd04d2b0c LEN=140
# UVM_INFO ../src/env/axi4_scoreboard.sv(154) @ 2935000: uvm_test_top.env.scb [axi4_scoreboard] [READ] MATCH #1: ID=0x3 ADDR=0xd04d2b0c LEN=140
# UVM_INFO ../src/seq/axi4_random_seq.sv(55) @ 2935000: uvm_test_top.env.master_agent.sqr@@rand_seq [axi4_random_seq] [1/50] AXI4_READ: ID=0x3 ADDR=0xd04d2b0c LEN=140 BURST=AXI4_BURST_INCR
# UVM_INFO ../src/mst/axi4_master_driver.sv(55) @ 2935000: uvm_test_top.env.master_agent.drv [axi4_master_driver] Driving AXI4_WRITE  ID=0x5  ADDR=0x858fdce6  LEN=4
# UVM_INFO ../src/mst/axi4_master_driver.sv(94) @ 2935000: uvm_test_top.env.master_agent.drv [axi4_master_driver] Write order: AW || W (parallel)
# UVM_INFO ../src/slv/axi4_slave_driver.sv(165) @ 2965000: uvm_test_top.env.slave_agent.drv [axi4_slave_driver] AW received: ID=0x5 ADDR=0x858fdce6 LEN=4 LOCK=AXI4_LOCK_NORMAL
# UVM_INFO ../src/mst/axi4_master_monitor.sv(124) @ 2965000: uvm_test_top.env.master_agent.mon [axi4_master_monitor] AW observed: ID=0x5 ADDR=0x858fdce6 LEN=4
# UVM_INFO ../src/slv/axi4_slave_monitor.sv(116) @ 2965000: uvm_test_top.env.slave_agent.mon [axi4_slave_monitor] AW received: ID=0x5 ADDR=0x858fdce6 LEN=4
# UVM_INFO ../src/slv/axi4_slave_monitor.sv(167) @ 3035000: uvm_test_top.env.slave_agent.mon [axi4_slave_monitor] W data assembled: ID=0x5 ADDR=0x858fdce6 5 beats
# UVM_INFO ../src/mst/axi4_master_monitor.sv(184) @ 3035000: uvm_test_top.env.master_agent.mon [axi4_master_monitor] W data assembled: ID=0x5 ADDR=0x858fdce6 5 beats
# UVM_INFO ../src/mst/axi4_master_driver.sv(197) @ 3065000: uvm_test_top.env.master_agent.drv [axi4_master_driver] Write response: AXI4_RESP_OKAY
# UVM_INFO ../src/slv/axi4_slave_driver.sv(261) @ 3065000: uvm_test_top.env.slave_agent.drv [axi4_slave_driver] Write complete: ID=0x5 ADDR=0x858fdce6 RESP=AXI4_RESP_OKAY  5 beats processed
# UVM_INFO ../src/mst/axi4_master_monitor.sv(210) @ 3065000: uvm_test_top.env.master_agent.mon [axi4_master_monitor] Write complete: ID=0x5 ADDR=0x858fdce6 RESP=AXI4_RESP_OKAY
# UVM_INFO ../src/env/axi4_scoreboard.sv(82) @ 3065000: uvm_test_top.env.scb [axi4_scoreboard] Master AXI4_WRITE received: ID=0x5 ADDR=0x858fdce6 LEN=4
# UVM_INFO ../src/slv/axi4_slave_monitor.sv(189) @ 3065000: uvm_test_top.env.slave_agent.mon [axi4_slave_monitor] Write response sent: ID=0x5 ADDR=0x858fdce6 RESP=AXI4_RESP_OKAY
# UVM_INFO ../src/env/axi4_scoreboard.sv(103) @ 3065000: uvm_test_top.env.scb [axi4_scoreboard] Slave AXI4_WRITE received: ID=0x5 ADDR=0x858fdce6 LEN=4
# UVM_INFO ../src/env/axi4_scoreboard.sv(154) @ 3065000: uvm_test_top.env.scb [axi4_scoreboard] [WRITE] MATCH #2: ID=0x5 ADDR=0x858fdce6 LEN=4
# UVM_INFO ../src/seq/axi4_random_seq.sv(55) @ 3065000: uvm_test_top.env.master_agent.sqr@@rand_seq [axi4_random_seq] [2/50] AXI4_WRITE: ID=0x5 ADDR=0x858fdce6 LEN=4 BURST=AXI4_BURST_FIXED
# UVM_INFO ../src/mst/axi4_master_driver.sv(55) @ 3065000: uvm_test_top.env.master_agent.drv [axi4_master_driver] Driving AXI4_WRITE  ID=0xf  ADDR=0x3e6076b9  LEN=226
# UVM_INFO ../src/mst/axi4_master_driver.sv(101) @ 3065000: uvm_test_top.env.master_agent.drv [axi4_master_driver] Write order: AW -> W (sequential)
# UVM_INFO ../src/slv/axi4_slave_driver.sv(165) @ 3095000: uvm_test_top.env.slave_agent.drv [axi4_slave_driver] AW received: ID=0xf ADDR=0x3e6076b9 LEN=226 LOCK=AXI4_LOCK_EXCLUSIVE
# UVM_INFO ../src/slv/axi4_slave_monitor.sv(116) @ 3095000: uvm_test_top.env.slave_agent.mon [axi4_slave_monitor] AW received: ID=0xf ADDR=0x3e6076b9 LEN=226
# UVM_INFO ../src/mst/axi4_master_monitor.sv(124) @ 3095000: uvm_test_top.env.master_agent.mon [axi4_master_monitor] AW observed: ID=0xf ADDR=0x3e6076b9 LEN=226
# UVM_INFO ../src/slv/axi4_slave_monitor.sv(167) @ 7635000: uvm_test_top.env.slave_agent.mon [axi4_slave_monitor] W data assembled: ID=0xf ADDR=0x3e6076b9 227 beats
# UVM_INFO ../src/mst/axi4_master_monitor.sv(184) @ 7635000: uvm_test_top.env.master_agent.mon [axi4_master_monitor] W data assembled: ID=0xf ADDR=0x3e6076b9 227 beats
# UVM_INFO ../src/mst/axi4_master_driver.sv(197) @ 7665000: uvm_test_top.env.master_agent.drv [axi4_master_driver] Write response: AXI4_RESP_OKAY
# UVM_INFO ../src/slv/axi4_slave_driver.sv(261) @ 7665000: uvm_test_top.env.slave_agent.drv [axi4_slave_driver] Write complete: ID=0xf ADDR=0x3e6076b9 RESP=AXI4_RESP_OKAY  227 beats processed
# UVM_INFO ../src/mst/axi4_master_monitor.sv(210) @ 7665000: uvm_test_top.env.master_agent.mon [axi4_master_monitor] Write complete: ID=0xf ADDR=0x3e6076b9 RESP=AXI4_RESP_OKAY
# UVM_INFO ../src/env/axi4_scoreboard.sv(82) @ 7665000: uvm_test_top.env.scb [axi4_scoreboard] Master AXI4_WRITE received: ID=0xf ADDR=0x3e6076b9 LEN=226
# UVM_INFO ../src/slv/axi4_slave_monitor.sv(189) @ 7665000: uvm_test_top.env.slave_agent.mon [axi4_slave_monitor] Write response sent: ID=0xf ADDR=0x3e6076b9 RESP=AXI4_RESP_OKAY
# UVM_INFO ../src/env/axi4_scoreboard.sv(103) @ 7665000: uvm_test_top.env.scb [axi4_scoreboard] Slave AXI4_WRITE received: ID=0xf ADDR=0x3e6076b9 LEN=226
# UVM_INFO ../src/env/axi4_scoreboard.sv(154) @ 7665000: uvm_test_top.env.scb [axi4_scoreboard] [WRITE] MATCH #3: ID=0xf ADDR=0x3e6076b9 LEN=226
# UVM_INFO ../src/seq/axi4_random_seq.sv(55) @ 7665000: uvm_test_top.env.master_agent.sqr@@rand_seq [axi4_random_seq] [3/50] AXI4_WRITE: ID=0xf ADDR=0x3e6076b9 LEN=226 BURST=AXI4_BURST_INCR
# UVM_INFO ../src/mst/axi4_master_driver.sv(55) @ 7665000: uvm_test_top.env.master_agent.drv [axi4_master_driver] Driving AXI4_WRITE  ID=0x0  ADDR=0x63181a54  LEN=13
# UVM_INFO ../src/mst/axi4_master_driver.sv(94) @ 7665000: uvm_test_top.env.master_agent.drv [axi4_master_driver] Write order: AW || W (parallel)
# UVM_INFO ../src/slv/axi4_slave_driver.sv(165) @ 7695000: uvm_test_top.env.slave_agent.drv [axi4_slave_driver] AW received: ID=0x0 ADDR=0x63181a54 LEN=13 LOCK=AXI4_LOCK_EXCLUSIVE
# UVM_INFO ../src/slv/axi4_slave_monitor.sv(116) @ 7695000: uvm_test_top.env.slave_agent.mon [axi4_slave_monitor] AW received: ID=0x0 ADDR=0x63181a54 LEN=13
# UVM_INFO ../src/mst/axi4_master_monitor.sv(124) @ 7695000: uvm_test_top.env.master_agent.mon [axi4_master_monitor] AW observed: ID=0x0 ADDR=0x63181a54 LEN=13
# UVM_INFO ../src/mst/axi4_master_monitor.sv(184) @ 7945000: uvm_test_top.env.master_agent.mon [axi4_master_monitor] W data assembled: ID=0x0 ADDR=0x63181a54 14 beats
# UVM_INFO ../src/slv/axi4_slave_monitor.sv(167) @ 7945000: uvm_test_top.env.slave_agent.mon [axi4_slave_monitor] W data assembled: ID=0x0 ADDR=0x63181a54 14 beats
# UVM_INFO ../src/mst/axi4_master_driver.sv(197) @ 7975000: uvm_test_top.env.master_agent.drv [axi4_master_driver] Write response: AXI4_RESP_OKAY
# UVM_INFO ../src/slv/axi4_slave_driver.sv(261) @ 7975000: uvm_test_top.env.slave_agent.drv [axi4_slave_driver] Write complete: ID=0x0 ADDR=0x63181a54 RESP=AXI4_RESP_OKAY  14 beats processed
# UVM_INFO ../src/slv/axi4_slave_monitor.sv(189) @ 7975000: uvm_test_top.env.slave_agent.mon [axi4_slave_monitor] Write response sent: ID=0x0 ADDR=0x63181a54 RESP=AXI4_RESP_OKAY
# UVM_INFO ../src/env/axi4_scoreboard.sv(103) @ 7975000: uvm_test_top.env.scb [axi4_scoreboard] Slave AXI4_WRITE received: ID=0x0 ADDR=0x63181a54 LEN=13
# UVM_INFO ../src/mst/axi4_master_monitor.sv(210) @ 7975000: uvm_test_top.env.master_agent.mon [axi4_master_monitor] Write complete: ID=0x0 ADDR=0x63181a54 RESP=AXI4_RESP_OKAY
# UVM_INFO ../src/env/axi4_scoreboard.sv(82) @ 7975000: uvm_test_top.env.scb [axi4_scoreboard] Master AXI4_WRITE received: ID=0x0 ADDR=0x63181a54 LEN=13
# UVM_INFO ../src/env/axi4_scoreboard.sv(154) @ 7975000: uvm_test_top.env.scb [axi4_scoreboard] [WRITE] MATCH #4: ID=0x0 ADDR=0x63181a54 LEN=13
# UVM_INFO ../src/seq/axi4_random_seq.sv(55) @ 7975000: uvm_test_top.env.master_agent.sqr@@rand_seq [axi4_random_seq] [4/50] AXI4_WRITE: ID=0x0 ADDR=0x63181a54 LEN=13 BURST=AXI4_BURST_FIXED
# UVM_INFO ../src/mst/axi4_master_driver.sv(55) @ 7975000: uvm_test_top.env.master_agent.drv [axi4_master_driver] Driving AXI4_WRITE  ID=0x9  ADDR=0xf70539f2  LEN=140
# UVM_INFO ../src/mst/axi4_master_driver.sv(94) @ 7975000: uvm_test_top.env.master_agent.drv [axi4_master_driver] Write order: AW || W (parallel)
# UVM_INFO ../src/slv/axi4_slave_driver.sv(165) @ 8005000: uvm_test_top.env.slave_agent.drv [axi4_slave_driver] AW received: ID=0x9 ADDR=0xf70539f2 LEN=140 LOCK=AXI4_LOCK_EXCLUSIVE
# UVM_INFO ../src/mst/axi4_master_monitor.sv(124) @ 8005000: uvm_test_top.env.master_agent.mon [axi4_master_monitor] AW observed: ID=0x9 ADDR=0xf70539f2 LEN=140
# UVM_INFO ../src/slv/axi4_slave_monitor.sv(116) @ 8005000: uvm_test_top.env.slave_agent.mon [axi4_slave_monitor] AW received: ID=0x9 ADDR=0xf70539f2 LEN=140
# UVM_INFO ../src/slv/axi4_slave_monitor.sv(167) @ 10795000: uvm_test_top.env.slave_agent.mon [axi4_slave_monitor] W data assembled: ID=0x9 ADDR=0xf70539f2 141 beats
# UVM_INFO ../src/mst/axi4_master_monitor.sv(184) @ 10795000: uvm_test_top.env.master_agent.mon [axi4_master_monitor] W data assembled: ID=0x9 ADDR=0xf70539f2 141 beats
# UVM_INFO ../src/mst/axi4_master_driver.sv(197) @ 10825000: uvm_test_top.env.master_agent.drv [axi4_master_driver] Write response: AXI4_RESP_DECERR
# UVM_INFO ../src/slv/axi4_slave_driver.sv(261) @ 10825000: uvm_test_top.env.slave_agent.drv [axi4_slave_driver] Write complete: ID=0x9 ADDR=0xf70539f2 RESP=AXI4_RESP_DECERR  141 beats processed
# UVM_INFO ../src/mst/axi4_master_monitor.sv(210) @ 10825000: uvm_test_top.env.master_agent.mon [axi4_master_monitor] Write complete: ID=0x9 ADDR=0xf70539f2 RESP=AXI4_RESP_DECERR
# UVM_INFO ../src/env/axi4_scoreboard.sv(82) @ 10825000: uvm_test_top.env.scb [axi4_scoreboard] Master AXI4_WRITE received: ID=0x9 ADDR=0xf70539f2 LEN=140
# UVM_INFO ../src/slv/axi4_slave_monitor.sv(189) @ 10825000: uvm_test_top.env.slave_agent.mon [axi4_slave_monitor] Write response sent: ID=0x9 ADDR=0xf70539f2 RESP=AXI4_RESP_DECERR
# UVM_INFO ../src/env/axi4_scoreboard.sv(103) @ 10825000: uvm_test_top.env.scb [axi4_scoreboard] Slave AXI4_WRITE received: ID=0x9 ADDR=0xf70539f2 LEN=140
# UVM_INFO ../src/env/axi4_scoreboard.sv(154) @ 10825000: uvm_test_top.env.scb [axi4_scoreboard] [WRITE] MATCH #5: ID=0x9 ADDR=0xf70539f2 LEN=140
# UVM_INFO ../src/seq/axi4_random_seq.sv(55) @ 10825000: uvm_test_top.env.master_agent.sqr@@rand_seq [axi4_random_seq] [5/50] AXI4_WRITE: ID=0x9 ADDR=0xf70539f2 LEN=140 BURST=AXI4_BURST_INCR
# UVM_INFO ../src/mst/axi4_master_driver.sv(55) @ 10825000: uvm_test_top.env.master_agent.drv [axi4_master_driver] Driving AXI4_WRITE  ID=0x0  ADDR=0x693c3e5b  LEN=200
# UVM_INFO ../src/mst/axi4_master_driver.sv(94) @ 10825000: uvm_test_top.env.master_agent.drv [axi4_master_driver] Write order: AW || W (parallel)
# UVM_INFO ../src/slv/axi4_slave_driver.sv(165) @ 10855000: uvm_test_top.env.slave_agent.drv [axi4_slave_driver] AW received: ID=0x0 ADDR=0x693c3e5b LEN=200 LOCK=AXI4_LOCK_NORMAL
# UVM_INFO ../src/slv/axi4_slave_monitor.sv(116) @ 10855000: uvm_test_top.env.slave_agent.mon [axi4_slave_monitor] AW received: ID=0x0 ADDR=0x693c3e5b LEN=200
# UVM_INFO ../src/mst/axi4_master_monitor.sv(124) @ 10855000: uvm_test_top.env.master_agent.mon [axi4_master_monitor] AW observed: ID=0x0 ADDR=0x693c3e5b LEN=200
# UVM_INFO ../src/mst/axi4_master_monitor.sv(184) @ 14845000: uvm_test_top.env.master_agent.mon [axi4_master_monitor] W data assembled: ID=0x0 ADDR=0x693c3e5b 201 beats
# UVM_INFO ../src/slv/axi4_slave_monitor.sv(167) @ 14845000: uvm_test_top.env.slave_agent.mon [axi4_slave_monitor] W data assembled: ID=0x0 ADDR=0x693c3e5b 201 beats
# UVM_INFO ../src/mst/axi4_master_driver.sv(197) @ 14875000: uvm_test_top.env.master_agent.drv [axi4_master_driver] Write response: AXI4_RESP_OKAY
# UVM_INFO ../src/slv/axi4_slave_driver.sv(261) @ 14875000: uvm_test_top.env.slave_agent.drv [axi4_slave_driver] Write complete: ID=0x0 ADDR=0x693c3e5b RESP=AXI4_RESP_OKAY  201 beats processed
# UVM_INFO ../src/slv/axi4_slave_monitor.sv(189) @ 14875000: uvm_test_top.env.slave_agent.mon [axi4_slave_monitor] Write response sent: ID=0x0 ADDR=0x693c3e5b RESP=AXI4_RESP_OKAY
# UVM_INFO ../src/env/axi4_scoreboard.sv(103) @ 14875000: uvm_test_top.env.scb [axi4_scoreboard] Slave AXI4_WRITE received: ID=0x0 ADDR=0x693c3e5b LEN=200
# UVM_INFO ../src/mst/axi4_master_monitor.sv(210) @ 14875000: uvm_test_top.env.master_agent.mon [axi4_master_monitor] Write complete: ID=0x0 ADDR=0x693c3e5b RESP=AXI4_RESP_OKAY
# UVM_INFO ../src/env/axi4_scoreboard.sv(82) @ 14875000: uvm_test_top.env.scb [axi4_scoreboard] Master AXI4_WRITE received: ID=0x0 ADDR=0x693c3e5b LEN=200
# UVM_INFO ../src/env/axi4_scoreboard.sv(154) @ 14875000: uvm_test_top.env.scb [axi4_scoreboard] [WRITE] MATCH #6: ID=0x0 ADDR=0x693c3e5b LEN=200
# UVM_INFO ../src/seq/axi4_random_seq.sv(55) @ 14875000: uvm_test_top.env.master_agent.sqr@@rand_seq [axi4_random_seq] [6/50] AXI4_WRITE: ID=0x0 ADDR=0x693c3e5b LEN=200 BURST=AXI4_BURST_INCR
# UVM_INFO ../src/mst/axi4_master_driver.sv(55) @ 14875000: uvm_test_top.env.master_agent.drv [axi4_master_driver] Driving AXI4_WRITE  ID=0x8  ADDR=0x1fd1abf0  LEN=7
# UVM_INFO ../src/mst/axi4_master_driver.sv(94) @ 14875000: uvm_test_top.env.master_agent.drv [axi4_master_driver] Write order: AW || W (parallel)
# UVM_INFO ../src/slv/axi4_slave_driver.sv(165) @ 14905000: uvm_test_top.env.slave_agent.drv [axi4_slave_driver] AW received: ID=0x8 ADDR=0x1fd1abf0 LEN=7 LOCK=AXI4_LOCK_NORMAL
# UVM_INFO ../src/mst/axi4_master_monitor.sv(124) @ 14905000: uvm_test_top.env.master_agent.mon [axi4_master_monitor] AW observed: ID=0x8 ADDR=0x1fd1abf0 LEN=7
# UVM_INFO ../src/slv/axi4_slave_monitor.sv(116) @ 14905000: uvm_test_top.env.slave_agent.mon [axi4_slave_monitor] AW received: ID=0x8 ADDR=0x1fd1abf0 LEN=7
# UVM_INFO ../src/slv/axi4_slave_monitor.sv(167) @ 15035000: uvm_test_top.env.slave_agent.mon [axi4_slave_monitor] W data assembled: ID=0x8 ADDR=0x1fd1abf0 8 beats
# UVM_INFO ../src/mst/axi4_master_monitor.sv(184) @ 15035000: uvm_test_top.env.master_agent.mon [axi4_master_monitor] W data assembled: ID=0x8 ADDR=0x1fd1abf0 8 beats
# UVM_INFO ../src/mst/axi4_master_driver.sv(197) @ 15065000: uvm_test_top.env.master_agent.drv [axi4_master_driver] Write response: AXI4_RESP_OKAY
# UVM_INFO ../src/slv/axi4_slave_driver.sv(261) @ 15065000: uvm_test_top.env.slave_agent.drv [axi4_slave_driver] Write complete: ID=0x8 ADDR=0x1fd1abf0 RESP=AXI4_RESP_OKAY  8 beats processed
# UVM_INFO ../src/mst/axi4_master_monitor.sv(210) @ 15065000: uvm_test_top.env.master_agent.mon [axi4_master_monitor] Write complete: ID=0x8 ADDR=0x1fd1abf0 RESP=AXI4_RESP_OKAY
# UVM_INFO ../src/env/axi4_scoreboard.sv(82) @ 15065000: uvm_test_top.env.scb [axi4_scoreboard] Master AXI4_WRITE received: ID=0x8 ADDR=0x1fd1abf0 LEN=7
# UVM_INFO ../src/slv/axi4_slave_monitor.sv(189) @ 15065000: uvm_test_top.env.slave_agent.mon [axi4_slave_monitor] Write response sent: ID=0x8 ADDR=0x1fd1abf0 RESP=AXI4_RESP_OKAY
# UVM_INFO ../src/env/axi4_scoreboard.sv(103) @ 15065000: uvm_test_top.env.scb [axi4_scoreboard] Slave AXI4_WRITE received: ID=0x8 ADDR=0x1fd1abf0 LEN=7
# UVM_INFO ../src/env/axi4_scoreboard.sv(154) @ 15065000: uvm_test_top.env.scb [axi4_scoreboard] [WRITE] MATCH #7: ID=0x8 ADDR=0x1fd1abf0 LEN=7
# UVM_INFO ../src/seq/axi4_random_seq.sv(55) @ 15065000: uvm_test_top.env.master_agent.sqr@@rand_seq [axi4_random_seq] [7/50] AXI4_WRITE: ID=0x8 ADDR=0x1fd1abf0 LEN=7 BURST=AXI4_BURST_FIXED
# UVM_INFO ../src/mst/axi4_master_driver.sv(55) @ 15065000: uvm_test_top.env.master_agent.drv [axi4_master_driver] Driving AXI4_READ  ID=0xd  ADDR=0x8577a91b  LEN=246
# UVM_INFO ../src/slv/axi4_slave_driver.sv(300) @ 15095000: uvm_test_top.env.slave_agent.drv [axi4_slave_driver] AR received: ID=0xd ADDR=0x8577a91b LEN=246 LOCK=AXI4_LOCK_NORMAL
# UVM_INFO ../src/slv/axi4_slave_monitor.sv(224) @ 15095000: uvm_test_top.env.slave_agent.mon [axi4_slave_monitor] AR received: ID=0xd ADDR=0x8577a91b LEN=246
# UVM_INFO ../src/mst/axi4_master_monitor.sv(246) @ 15095000: uvm_test_top.env.master_agent.mon [axi4_master_monitor] AR observed: ID=0xd ADDR=0x8577a91b LEN=246
# UVM_INFO ../src/mst/axi4_master_driver.sv(254) @ 20035000: uvm_test_top.env.master_agent.drv [axi4_master_driver] Read complete: 247 beats received
# UVM_INFO ../src/slv/axi4_slave_driver.sv(349) @ 20035000: uvm_test_top.env.slave_agent.drv [axi4_slave_driver] Read complete: ID=0xd ADDR=0x8577a91b RESP=AXI4_RESP_OKAY  247 beats sent
# UVM_INFO ../src/slv/axi4_slave_monitor.sv(287) @ 20035000: uvm_test_top.env.slave_agent.mon [axi4_slave_monitor] Read data sent: ID=0xd ADDR=0x8577a91b 247 beats
# UVM_INFO ../src/env/axi4_scoreboard.sv(103) @ 20035000: uvm_test_top.env.scb [axi4_scoreboard] Slave AXI4_READ received: ID=0xd ADDR=0x8577a91b LEN=246
# UVM_INFO ../src/mst/axi4_master_monitor.sv(314) @ 20035000: uvm_test_top.env.master_agent.mon [axi4_master_monitor] Read complete: ID=0xd ADDR=0x8577a91b 247 beats
# UVM_INFO ../src/env/axi4_scoreboard.sv(82) @ 20035000: uvm_test_top.env.scb [axi4_scoreboard] Master AXI4_READ received: ID=0xd ADDR=0x8577a91b LEN=246
# UVM_INFO ../src/env/axi4_scoreboard.sv(154) @ 20035000: uvm_test_top.env.scb [axi4_scoreboard] [READ] MATCH #8: ID=0xd ADDR=0x8577a91b LEN=246
