sim/report/logs/axi4_wr_rd_test_run_5_seed_28057708.log
# vsim -c -coverage -sv_seed 28057708 "+UVM_TESTNAME=axi4_wr_rd_test" "+UVM_VERBOSITY=UVM_HIGH" "+DUMP_VCD" -l ./report/logs/axi4_wr_rd_test_run_5_seed_28057708.log -do "coverage save -onexit ./report/coverage/axi4_wr_rd_test_run_5_seed_28057708.ucdb; run -all; quit -f" opt_tb_top 
# Start time: 11:21:56 on Jun 05,2026
# //  Questa Sim-64
# //  Version 10.6b linux_x86_64 May 25 2017
# //
# //  Copyright 1991-2017 Mentor Graphics Corporation
# //  All Rights Reserved.
# //
# //  QuestaSim and its associated documentation contain trade
# //  secrets and commercial or financial information that are the property of
# //  Mentor Graphics Corporation and are privileged, confidential,
# //  and exempt from disclosure under the Freedom of Information Act,
# //  5 U.S.C. Section 552. Furthermore, this information
# //  is prohibited from disclosure under the Trade Secrets Act,
# //  18 U.S.C. Section 1905.
# //
# Loading sv_std.std
# Loading work.axi4_if(fast)
# Loading mtiUvm.uvm_pkg
# Loading work.axi4_pkg(fast)
# Loading work.axi4_test_pkg(fast)
# Loading work.tb_top(fast)
# Loading work.axi4_if(fast)
# Loading work.axi4_sva(fast)
# Loading mtiUvm.questa_uvm_pkg(fast)
# Loading /cadtools/mentor/Questa_10.6b/questasim/uvm-1.1d/linux_x86_64/uvm_dpi.so
# coverage save -onexit ./report/coverage/axi4_wr_rd_test_run_5_seed_28057708.ucdb
#  run -all
# ----------------------------------------------------------------
# UVM-1.1d
# (C) 2007-2013 Mentor Graphics Corporation
# (C) 2007-2013 Cadence Design Systems, Inc.
# (C) 2006-2013 Synopsys, Inc.
# (C) 2011-2013 Cypress Semiconductor Corp.
# ----------------------------------------------------------------
# 
#   ***********       IMPORTANT RELEASE NOTES         ************
# 
#   You are using a version of the UVM library that has been compiled
#   with `UVM_NO_DEPRECATED undefined.
#   See http://www.eda.org/svdb/view.php?id=3313 for more details.
# 
#   You are using a version of the UVM library that has been compiled
#   with `UVM_OBJECT_MUST_HAVE_CONSTRUCTOR undefined.
#   See http://www.eda.org/svdb/view.php?id=3770 for more details.
# 
#       (Specify +UVM_NO_RELNOTES to turn off this notice)
# 
# UVM_INFO verilog_src/questa_uvm_pkg-1.2/src/questa_uvm_pkg.sv(215) @ 0: reporter [Questa UVM] QUESTA_UVM-1.2.3
# UVM_INFO verilog_src/questa_uvm_pkg-1.2/src/questa_uvm_pkg.sv(217) @ 0: reporter [Questa UVM]  questa_uvm::init(+struct)
# UVM_INFO ../src/tb_top.sv(128) @ 0: reporter [TB_TOP] Virtual interface set in config_db
# UVM_INFO @ 0: reporter [RNTST] Running test axi4_wr_rd_test...
# UVM_INFO ../src/tb_top.sv(142) @ 0: reporter [TB_TOP] Waveform VCD dumping enabled (axi4_vip.vcd)
# UVM_INFO ../src/env/axi4_vip_env.sv(83) @ 0: uvm_test_top.env [axi4_vip_env] slave_vif not set - reusing master_vif (passthrough mode)
# UVM_INFO ../src/env/axi4_vip_env.sv(93) @ 0: uvm_test_top.env [axi4_vip_env] Scoreboard created
# UVM_INFO ../src/env/axi4_vip_env.sv(100) @ 0: uvm_test_top.env [axi4_vip_env] Coverage collectors created
# UVM_INFO ../src/mst/axi4_master_agent.sv(69) @ 0: uvm_test_top.env.master_agent [axi4_master_agent] ACTIVE mode - driver + sequencer created
# UVM_INFO ../src/slv/axi4_slave_agent.sv(82) @ 0: uvm_test_top.env.slave_agent [axi4_slave_agent] ACTIVE mode — ready_delay=[0:0] resp_delay=[0:0]
# UVM_INFO ../src/env/axi4_vip_env.sv(116) @ 0: uvm_test_top.env [axi4_vip_env] Scoreboard connected: master_mon.ap -> scb, slave_mon.ap -> scb
# UVM_INFO ../src/env/axi4_vip_env.sv(124) @ 0: uvm_test_top.env [axi4_vip_env] Coverage connected: master_mon.ap -> master_cov, slave_mon.ap -> slave_cov
# UVM_INFO @ 0: reporter [UVMTOP] UVM testbench topology:
# ---------------------------------------------------------------
# Name                       Type                     Size  Value
# ---------------------------------------------------------------
# uvm_test_top               axi4_wr_rd_test          -     @473 
#   env                      axi4_vip_env             -     @488 
#     master_agent           axi4_master_agent        -     @503 
#       drv                  axi4_master_driver       -     @567 
#         rsp_port           uvm_analysis_port        -     @582 
#         seq_item_port      uvm_seq_item_pull_port   -     @574 
#       mon                  axi4_master_monitor      -     @559 
#         ap                 uvm_analysis_port        -     @700 
#       sqr                  axi4_master_sequencer    -     @590 
#         rsp_export         uvm_analysis_export      -     @597 
#         seq_item_export    uvm_seq_item_pull_imp    -     @691 
#         arbitration_queue  array                    0     -    
#         lock_queue         array                    0     -    
#         num_last_reqs      integral                 32    'd1  
#         num_last_rsps      integral                 32    'd1  
#     master_cov             axi4_coverage            -     @524 
#       analysis_imp         uvm_analysis_imp         -     @531 
#     scb                    axi4_scoreboard          -     @517 
#       master_export        uvm_analysis_imp_master  -     @714 
#       slave_export         uvm_analysis_imp_slave   -     @722 
#     slave_agent            axi4_slave_agent         -     @510 
#       drv                  axi4_slave_driver        -     @753 
#         rsp_port           uvm_analysis_port        -     @768 
#         seq_item_port      uvm_seq_item_pull_port   -     @760 
#       mon                  axi4_slave_monitor       -     @735 
#         ap                 uvm_analysis_port        -     @890 
#       sqr                  axi4_slave_sequencer     -     @776 
#         rsp_export         uvm_analysis_export      -     @783 
#         seq_item_export    uvm_seq_item_pull_imp    -     @877 
#         arbitration_queue  array                    0     -    
#         lock_queue         array                    0     -    
#         num_last_reqs      integral                 32    'd1  
#         num_last_rsps      integral                 32    'd1  
#     slave_cov              axi4_coverage            -     @539 
#       analysis_imp         uvm_analysis_imp         -     @546 
# ---------------------------------------------------------------
# 
# UVM_INFO verilog_src/questa_uvm_pkg-1.2/src/questa_uvm_pkg.sv(277) @ 0: reporter [Questa UVM] End Of Elaboration
# UVM_INFO ../src/test/axi4_wr_rd_test.sv(37) @ 0: uvm_test_top [axi4_wr_rd_test] Starting 10 write-read-back iterations
# UVM_INFO ../src/test/axi4_wr_rd_test.sv(52) @ 0: uvm_test_top [axi4_wr_rd_test] [1/10] ADDR=0x8e261bab LEN=1 BURST=AXI4_BURST_INCR
# UVM_INFO ../src/tb_top.sv(49) @ 95000: reporter [TOP_TB] Reset de-asserted
# UVM_INFO ../src/slv/axi4_slave_driver.sv(70) @ 95000: uvm_test_top.env.slave_agent.drv [axi4_slave_driver] Reset deasserted - slave driver active
# UVM_INFO ../src/mst/axi4_master_driver.sv(46) @ 95000: uvm_test_top.env.master_agent.drv [axi4_master_driver] Reset deasserted - master driver active
# UVM_INFO ../src/mst/axi4_master_monitor.sv(77) @ 95000: uvm_test_top.env.master_agent.mon [axi4_master_monitor] Reset deasserted — monitor active
# UVM_INFO ../src/slv/axi4_slave_monitor.sv(71) @ 95000: uvm_test_top.env.slave_agent.mon [axi4_slave_monitor] Reset deasserted — monitor active
# UVM_INFO ../src/mst/axi4_master_driver.sv(55) @ 95000: uvm_test_top.env.master_agent.drv [axi4_master_driver] Driving AXI4_WRITE  ID=0x1  ADDR=0x8e261bab  LEN=1
# UVM_INFO ../src/mst/axi4_master_driver.sv(94) @ 95000: uvm_test_top.env.master_agent.drv [axi4_master_driver] Write order: AW || W (parallel)
# UVM_INFO ../src/slv/axi4_slave_driver.sv(165) @ 115000: uvm_test_top.env.slave_agent.drv [axi4_slave_driver] AW received: ID=0x1 ADDR=0x8e261bab LEN=1 LOCK=AXI4_LOCK_NORMAL
# UVM_INFO ../src/slv/axi4_slave_monitor.sv(116) @ 115000: uvm_test_top.env.slave_agent.mon [axi4_slave_monitor] AW received: ID=0x1 ADDR=0x8e261bab LEN=1
# UVM_INFO ../src/mst/axi4_master_monitor.sv(124) @ 115000: uvm_test_top.env.master_agent.mon [axi4_master_monitor] AW observed: ID=0x1 ADDR=0x8e261bab LEN=1
# UVM_INFO ../src/mst/axi4_master_monitor.sv(184) @ 125000: uvm_test_top.env.master_agent.mon [axi4_master_monitor] W data assembled: ID=0x1 ADDR=0x8e261bab 2 beats
# UVM_INFO ../src/slv/axi4_slave_monitor.sv(167) @ 125000: uvm_test_top.env.slave_agent.mon [axi4_slave_monitor] W data assembled: ID=0x1 ADDR=0x8e261bab 2 beats
# UVM_INFO ../src/mst/axi4_master_driver.sv(197) @ 155000: uvm_test_top.env.master_agent.drv [axi4_master_driver] Write response: AXI4_RESP_OKAY
# UVM_INFO ../src/slv/axi4_slave_driver.sv(261) @ 155000: uvm_test_top.env.slave_agent.drv [axi4_slave_driver] Write complete: ID=0x1 ADDR=0x8e261bab RESP=AXI4_RESP_OKAY  2 beats processed
# UVM_INFO ../src/slv/axi4_slave_monitor.sv(189) @ 155000: uvm_test_top.env.slave_agent.mon [axi4_slave_monitor] Write response sent: ID=0x1 ADDR=0x8e261bab RESP=AXI4_RESP_OKAY
# UVM_INFO ../src/env/axi4_scoreboard.sv(103) @ 155000: uvm_test_top.env.scb [axi4_scoreboard] Slave AXI4_WRITE received: ID=0x1 ADDR=0x8e261bab LEN=1
# UVM_INFO ../src/mst/axi4_master_monitor.sv(210) @ 155000: uvm_test_top.env.master_agent.mon [axi4_master_monitor] Write complete: ID=0x1 ADDR=0x8e261bab RESP=AXI4_RESP_OKAY
# UVM_INFO ../src/env/axi4_scoreboard.sv(82) @ 155000: uvm_test_top.env.scb [axi4_scoreboard] Master AXI4_WRITE received: ID=0x1 ADDR=0x8e261bab LEN=1
# UVM_INFO ../src/env/axi4_scoreboard.sv(154) @ 155000: uvm_test_top.env.scb [axi4_scoreboard] [WRITE] MATCH #1: ID=0x1 ADDR=0x8e261bab LEN=1
# UVM_INFO ../src/seq/axi4_write_read_back_seq.sv(60) @ 155000: uvm_test_top.env.master_agent.sqr@@wr_rd_seq_0 [axi4_write_read_back_seq] Write phase: ADDR=0x8e261bab LEN=1 SIZE=AXI4_SIZE_4B BURST=AXI4_BURST_INCR
# UVM_INFO ../src/mst/axi4_master_driver.sv(55) @ 155000: uvm_test_top.env.master_agent.drv [axi4_master_driver] Driving AXI4_READ  ID=0xf  ADDR=0x8e261bab  LEN=1
# UVM_INFO ../src/slv/axi4_slave_driver.sv(300) @ 185000: uvm_test_top.env.slave_agent.drv [axi4_slave_driver] AR received: ID=0xf ADDR=0x8e261bab LEN=1 LOCK=AXI4_LOCK_NORMAL
# UVM_INFO ../src/mst/axi4_master_monitor.sv(246) @ 185000: uvm_test_top.env.master_agent.mon [axi4_master_monitor] AR observed: ID=0xf ADDR=0x8e261bab LEN=1
# UVM_INFO ../src/slv/axi4_slave_monitor.sv(224) @ 185000: uvm_test_top.env.slave_agent.mon [axi4_slave_monitor] AR received: ID=0xf ADDR=0x8e261bab LEN=1
# UVM_INFO ../src/mst/axi4_master_driver.sv(254) @ 225000: uvm_test_top.env.master_agent.drv [axi4_master_driver] Read complete: 2 beats received
# UVM_INFO ../src/slv/axi4_slave_driver.sv(349) @ 225000: uvm_test_top.env.slave_agent.drv [axi4_slave_driver] Read complete: ID=0xf ADDR=0x8e261bab RESP=AXI4_RESP_OKAY  2 beats sent
# UVM_INFO ../src/mst/axi4_master_monitor.sv(314) @ 225000: uvm_test_top.env.master_agent.mon [axi4_master_monitor] Read complete: ID=0xf ADDR=0x8e261bab 2 beats
# UVM_INFO ../src/env/axi4_scoreboard.sv(82) @ 225000: uvm_test_top.env.scb [axi4_scoreboard] Master AXI4_READ received: ID=0xf ADDR=0x8e261bab LEN=1
# UVM_INFO ../src/slv/axi4_slave_monitor.sv(287) @ 225000: uvm_test_top.env.slave_agent.mon [axi4_slave_monitor] Read data sent: ID=0xf ADDR=0x8e261bab 2 beats
# UVM_INFO ../src/env/axi4_scoreboard.sv(103) @ 225000: uvm_test_top.env.scb [axi4_scoreboard] Slave AXI4_READ received: ID=0xf ADDR=0x8e261bab LEN=1
# UVM_INFO ../src/env/axi4_scoreboard.sv(154) @ 225000: uvm_test_top.env.scb [axi4_scoreboard] [READ] MATCH #2: ID=0xf ADDR=0x8e261bab LEN=1
# UVM_INFO ../src/seq/axi4_write_read_back_seq.sv(80) @ 225000: uvm_test_top.env.master_agent.sqr@@wr_rd_seq_0 [axi4_write_read_back_seq] Read-back phase: ADDR=0x8e261bab LEN=1 - data integrity check via scoreboard
# UVM_INFO ../src/test/axi4_wr_rd_test.sv(52) @ 225000: uvm_test_top [axi4_wr_rd_test] [2/10] ADDR=0x3336752c LEN=4 BURST=AXI4_BURST_INCR
# UVM_INFO ../src/mst/axi4_master_driver.sv(55) @ 225000: uvm_test_top.env.master_agent.drv [axi4_master_driver] Driving AXI4_WRITE  ID=0x3  ADDR=0x3336752c  LEN=4
# UVM_INFO ../src/mst/axi4_master_driver.sv(94) @ 225000: uvm_test_top.env.master_agent.drv [axi4_master_driver] Write order: AW || W (parallel)
# UVM_INFO ../src/slv/axi4_slave_driver.sv(165) @ 255000: uvm_test_top.env.slave_agent.drv [axi4_slave_driver] AW received: ID=0x3 ADDR=0x3336752c LEN=4 LOCK=AXI4_LOCK_NORMAL
# UVM_INFO ../src/slv/axi4_slave_monitor.sv(116) @ 255000: uvm_test_top.env.slave_agent.mon [axi4_slave_monitor] AW received: ID=0x3 ADDR=0x3336752c LEN=4
# UVM_INFO ../src/mst/axi4_master_monitor.sv(124) @ 255000: uvm_test_top.env.master_agent.mon [axi4_master_monitor] AW observed: ID=0x3 ADDR=0x3336752c LEN=4
# UVM_INFO ../src/mst/axi4_master_monitor.sv(184) @ 325000: uvm_test_top.env.master_agent.mon [axi4_master_monitor] W data assembled: ID=0x3 ADDR=0x3336752c 5 beats
# UVM_INFO ../src/slv/axi4_slave_monitor.sv(167) @ 325000: uvm_test_top.env.slave_agent.mon [axi4_slave_monitor] W data assembled: ID=0x3 ADDR=0x3336752c 5 beats
# UVM_INFO ../src/mst/axi4_master_driver.sv(197) @ 355000: uvm_test_top.env.master_agent.drv [axi4_master_driver] Write response: AXI4_RESP_OKAY
# UVM_INFO ../src/slv/axi4_slave_driver.sv(261) @ 355000: uvm_test_top.env.slave_agent.drv [axi4_slave_driver] Write complete: ID=0x3 ADDR=0x3336752c RESP=AXI4_RESP_OKAY  5 beats processed
# UVM_INFO ../src/slv/axi4_slave_monitor.sv(189) @ 355000: uvm_test_top.env.slave_agent.mon [axi4_slave_monitor] Write response sent: ID=0x3 ADDR=0x3336752c RESP=AXI4_RESP_OKAY
# UVM_INFO ../src/env/axi4_scoreboard.sv(103) @ 355000: uvm_test_top.env.scb [axi4_scoreboard] Slave AXI4_WRITE received: ID=0x3 ADDR=0x3336752c LEN=4
# UVM_INFO ../src/mst/axi4_master_monitor.sv(210) @ 355000: uvm_test_top.env.master_agent.mon [axi4_master_monitor] Write complete: ID=0x3 ADDR=0x3336752c RESP=AXI4_RESP_OKAY
# UVM_INFO ../src/env/axi4_scoreboard.sv(82) @ 355000: uvm_test_top.env.scb [axi4_scoreboard] Master AXI4_WRITE received: ID=0x3 ADDR=0x3336752c LEN=4
# UVM_INFO ../src/env/axi4_scoreboard.sv(154) @ 355000: uvm_test_top.env.scb [axi4_scoreboard] [WRITE] MATCH #3: ID=0x3 ADDR=0x3336752c LEN=4
# UVM_INFO ../src/seq/axi4_write_read_back_seq.sv(60) @ 355000: uvm_test_top.env.master_agent.sqr@@wr_rd_seq_1 [axi4_write_read_back_seq] Write phase: ADDR=0x3336752c LEN=4 SIZE=AXI4_SIZE_4B BURST=AXI4_BURST_INCR
# UVM_INFO ../src/mst/axi4_master_driver.sv(55) @ 355000: uvm_test_top.env.master_agent.drv [axi4_master_driver] Driving AXI4_READ  ID=0x6  ADDR=0x3336752c  LEN=4
# UVM_INFO ../src/slv/axi4_slave_driver.sv(300) @ 385000: uvm_test_top.env.slave_agent.drv [axi4_slave_driver] AR received: ID=0x6 ADDR=0x3336752c LEN=4 LOCK=AXI4_LOCK_EXCLUSIVE
# UVM_INFO ../src/mst/axi4_master_monitor.sv(246) @ 385000: uvm_test_top.env.master_agent.mon [axi4_master_monitor] AR observed: ID=0x6 ADDR=0x3336752c LEN=4
# UVM_INFO ../src/slv/axi4_slave_monitor.sv(224) @ 385000: uvm_test_top.env.slave_agent.mon [axi4_slave_monitor] AR received: ID=0x6 ADDR=0x3336752c LEN=4
# UVM_INFO ../src/mst/axi4_master_driver.sv(254) @ 485000: uvm_test_top.env.master_agent.drv [axi4_master_driver] Read complete: 5 beats received
# UVM_INFO ../src/slv/axi4_slave_driver.sv(349) @ 485000: uvm_test_top.env.slave_agent.drv [axi4_slave_driver] Read complete: ID=0x6 ADDR=0x3336752c RESP=AXI4_RESP_EXOKAY  5 beats sent
# UVM_INFO ../src/mst/axi4_master_monitor.sv(314) @ 485000: uvm_test_top.env.master_agent.mon [axi4_master_monitor] Read complete: ID=0x6 ADDR=0x3336752c 5 beats
# UVM_INFO ../src/env/axi4_scoreboard.sv(82) @ 485000: uvm_test_top.env.scb [axi4_scoreboard] Master AXI4_READ received: ID=0x6 ADDR=0x3336752c LEN=4
# UVM_INFO ../src/slv/axi4_slave_monitor.sv(287) @ 485000: uvm_test_top.env.slave_agent.mon [axi4_slave_monitor] Read data sent: ID=0x6 ADDR=0x3336752c 5 beats
# UVM_INFO ../src/env/axi4_scoreboard.sv(103) @ 485000: uvm_test_top.env.scb [axi4_scoreboard] Slave AXI4_READ received: ID=0x6 ADDR=0x3336752c LEN=4
# UVM_INFO ../src/env/axi4_scoreboard.sv(154) @ 485000: uvm_test_top.env.scb [axi4_scoreboard] [READ] MATCH #4: ID=0x6 ADDR=0x3336752c LEN=4
# UVM_INFO ../src/seq/axi4_write_read_back_seq.sv(80) @ 485000: uvm_test_top.env.master_agent.sqr@@wr_rd_seq_1 [axi4_write_read_back_seq] Read-back phase: ADDR=0x3336752c LEN=4 - data integrity check via scoreboard
# UVM_INFO ../src/test/axi4_wr_rd_test.sv(52) @ 485000: uvm_test_top [axi4_wr_rd_test] [3/10] ADDR=0x7012ae57 LEN=8 BURST=AXI4_BURST_INCR
# UVM_INFO ../src/mst/axi4_master_driver.sv(55) @ 485000: uvm_test_top.env.master_agent.drv [axi4_master_driver] Driving AXI4_WRITE  ID=0x6  ADDR=0x7012ae57  LEN=8
# UVM_INFO ../src/mst/axi4_master_driver.sv(101) @ 485000: uvm_test_top.env.master_agent.drv [axi4_master_driver] Write order: AW -> W (sequential)
# UVM_INFO ../src/slv/axi4_slave_driver.sv(165) @ 515000: uvm_test_top.env.slave_agent.drv [axi4_slave_driver] AW received: ID=0x6 ADDR=0x7012ae57 LEN=8 LOCK=AXI4_LOCK_NORMAL
# UVM_INFO ../src/slv/axi4_slave_monitor.sv(116) @ 515000: uvm_test_top.env.slave_agent.mon [axi4_slave_monitor] AW received: ID=0x6 ADDR=0x7012ae57 LEN=8
# UVM_INFO ../src/mst/axi4_master_monitor.sv(124) @ 515000: uvm_test_top.env.master_agent.mon [axi4_master_monitor] AW observed: ID=0x6 ADDR=0x7012ae57 LEN=8
# UVM_INFO ../src/slv/axi4_slave_monitor.sv(167) @ 695000: uvm_test_top.env.slave_agent.mon [axi4_slave_monitor] W data assembled: ID=0x6 ADDR=0x7012ae57 9 beats
# UVM_INFO ../src/mst/axi4_master_monitor.sv(184) @ 695000: uvm_test_top.env.master_agent.mon [axi4_master_monitor] W data assembled: ID=0x6 ADDR=0x7012ae57 9 beats
# UVM_INFO ../src/mst/axi4_master_driver.sv(197) @ 725000: uvm_test_top.env.master_agent.drv [axi4_master_driver] Write response: AXI4_RESP_OKAY
# UVM_INFO ../src/slv/axi4_slave_driver.sv(261) @ 725000: uvm_test_top.env.slave_agent.drv [axi4_slave_driver] Write complete: ID=0x6 ADDR=0x7012ae57 RESP=AXI4_RESP_OKAY  9 beats processed
# UVM_INFO ../src/mst/axi4_master_monitor.sv(210) @ 725000: uvm_test_top.env.master_agent.mon [axi4_master_monitor] Write complete: ID=0x6 ADDR=0x7012ae57 RESP=AXI4_RESP_OKAY
# UVM_INFO ../src/env/axi4_scoreboard.sv(82) @ 725000: uvm_test_top.env.scb [axi4_scoreboard] Master AXI4_WRITE received: ID=0x6 ADDR=0x7012ae57 LEN=8
# UVM_INFO ../src/slv/axi4_slave_monitor.sv(189) @ 725000: uvm_test_top.env.slave_agent.mon [axi4_slave_monitor] Write response sent: ID=0x6 ADDR=0x7012ae57 RESP=AXI4_RESP_OKAY
# UVM_INFO ../src/env/axi4_scoreboard.sv(103) @ 725000: uvm_test_top.env.scb [axi4_scoreboard] Slave AXI4_WRITE received: ID=0x6 ADDR=0x7012ae57 LEN=8
# UVM_INFO ../src/env/axi4_scoreboard.sv(154) @ 725000: uvm_test_top.env.scb [axi4_scoreboard] [WRITE] MATCH #5: ID=0x6 ADDR=0x7012ae57 LEN=8
# UVM_INFO ../src/seq/axi4_write_read_back_seq.sv(60) @ 725000: uvm_test_top.env.master_agent.sqr@@wr_rd_seq_2 [axi4_write_read_back_seq] Write phase: ADDR=0x7012ae57 LEN=8 SIZE=AXI4_SIZE_4B BURST=AXI4_BURST_INCR
# UVM_INFO ../src/mst/axi4_master_driver.sv(55) @ 725000: uvm_test_top.env.master_agent.drv [axi4_master_driver] Driving AXI4_READ  ID=0xe  ADDR=0x7012ae57  LEN=8
# UVM_INFO ../src/slv/axi4_slave_driver.sv(300) @ 755000: uvm_test_top.env.slave_agent.drv [axi4_slave_driver] AR received: ID=0xe ADDR=0x7012ae57 LEN=8 LOCK=AXI4_LOCK_NORMAL
# UVM_INFO ../src/slv/axi4_slave_monitor.sv(224) @ 755000: uvm_test_top.env.slave_agent.mon [axi4_slave_monitor] AR received: ID=0xe ADDR=0x7012ae57 LEN=8
# UVM_INFO ../src/mst/axi4_master_monitor.sv(246) @ 755000: uvm_test_top.env.master_agent.mon [axi4_master_monitor] AR observed: ID=0xe ADDR=0x7012ae57 LEN=8
# UVM_INFO ../src/mst/axi4_master_driver.sv(254) @ 935000: uvm_test_top.env.master_agent.drv [axi4_master_driver] Read complete: 9 beats received
# UVM_INFO ../src/slv/axi4_slave_driver.sv(349) @ 935000: uvm_test_top.env.slave_agent.drv [axi4_slave_driver] Read complete: ID=0xe ADDR=0x7012ae57 RESP=AXI4_RESP_OKAY  9 beats sent
# UVM_INFO ../src/slv/axi4_slave_monitor.sv(287) @ 935000: uvm_test_top.env.slave_agent.mon [axi4_slave_monitor] Read data sent: ID=0xe ADDR=0x7012ae57 9 beats
# UVM_INFO ../src/env/axi4_scoreboard.sv(103) @ 935000: uvm_test_top.env.scb [axi4_scoreboard] Slave AXI4_READ received: ID=0xe ADDR=0x7012ae57 LEN=8
# UVM_INFO ../src/mst/axi4_master_monitor.sv(314) @ 935000: uvm_test_top.env.master_agent.mon [axi4_master_monitor] Read complete: ID=0xe ADDR=0x7012ae57 9 beats
# UVM_INFO ../src/env/axi4_scoreboard.sv(82) @ 935000: uvm_test_top.env.scb [axi4_scoreboard] Master AXI4_READ received: ID=0xe ADDR=0x7012ae57 LEN=8
# UVM_INFO ../src/env/axi4_scoreboard.sv(154) @ 935000: uvm_test_top.env.scb [axi4_scoreboard] [READ] MATCH #6: ID=0xe ADDR=0x7012ae57 LEN=8
# UVM_INFO ../src/seq/axi4_write_read_back_seq.sv(80) @ 935000: uvm_test_top.env.master_agent.sqr@@wr_rd_seq_2 [axi4_write_read_back_seq] Read-back phase: ADDR=0x7012ae57 LEN=8 - data integrity check via scoreboard
# UVM_INFO ../src/test/axi4_wr_rd_test.sv(52) @ 935000: uvm_test_top [axi4_wr_rd_test] [4/10] ADDR=0x17f23004 LEN=7 BURST=AXI4_BURST_INCR
# UVM_INFO ../src/mst/axi4_master_driver.sv(55) @ 935000: uvm_test_top.env.master_agent.drv [axi4_master_driver] Driving AXI4_WRITE  ID=0x4  ADDR=0x17f23004  LEN=7
# UVM_INFO ../src/mst/axi4_master_driver.sv(101) @ 935000: uvm_test_top.env.master_agent.drv [axi4_master_driver] Write order: AW -> W (sequential)
# UVM_INFO ../src/slv/axi4_slave_driver.sv(165) @ 965000: uvm_test_top.env.slave_agent.drv [axi4_slave_driver] AW received: ID=0x4 ADDR=0x17f23004 LEN=7 LOCK=AXI4_LOCK_NORMAL
# UVM_INFO ../src/mst/axi4_master_monitor.sv(124) @ 965000: uvm_test_top.env.master_agent.mon [axi4_master_monitor] AW observed: ID=0x4 ADDR=0x17f23004 LEN=7
# UVM_INFO ../src/slv/axi4_slave_monitor.sv(116) @ 965000: uvm_test_top.env.slave_agent.mon [axi4_slave_monitor] AW received: ID=0x4 ADDR=0x17f23004 LEN=7
# UVM_INFO ../src/mst/axi4_master_monitor.sv(184) @ 1125000: uvm_test_top.env.master_agent.mon [axi4_master_monitor] W data assembled: ID=0x4 ADDR=0x17f23004 8 beats
# UVM_INFO ../src/slv/axi4_slave_monitor.sv(167) @ 1125000: uvm_test_top.env.slave_agent.mon [axi4_slave_monitor] W data assembled: ID=0x4 ADDR=0x17f23004 8 beats
# UVM_INFO ../src/mst/axi4_master_driver.sv(197) @ 1155000: uvm_test_top.env.master_agent.drv [axi4_master_driver] Write response: AXI4_RESP_OKAY
# UVM_INFO ../src/slv/axi4_slave_driver.sv(261) @ 1155000: uvm_test_top.env.slave_agent.drv [axi4_slave_driver] Write complete: ID=0x4 ADDR=0x17f23004 RESP=AXI4_RESP_OKAY  8 beats processed
# UVM_INFO ../src/slv/axi4_slave_monitor.sv(189) @ 1155000: uvm_test_top.env.slave_agent.mon [axi4_slave_monitor] Write response sent: ID=0x4 ADDR=0x17f23004 RESP=AXI4_RESP_OKAY
# UVM_INFO ../src/env/axi4_scoreboard.sv(103) @ 1155000: uvm_test_top.env.scb [axi4_scoreboard] Slave AXI4_WRITE received: ID=0x4 ADDR=0x17f23004 LEN=7
# UVM_INFO ../src/mst/axi4_master_monitor.sv(210) @ 1155000: uvm_test_top.env.master_agent.mon [axi4_master_monitor] Write complete: ID=0x4 ADDR=0x17f23004 RESP=AXI4_RESP_OKAY
# UVM_INFO ../src/env/axi4_scoreboard.sv(82) @ 1155000: uvm_test_top.env.scb [axi4_scoreboard] Master AXI4_WRITE received: ID=0x4 ADDR=0x17f23004 LEN=7
# UVM_INFO ../src/env/axi4_scoreboard.sv(154) @ 1155000: uvm_test_top.env.scb [axi4_scoreboard] [WRITE] MATCH #7: ID=0x4 ADDR=0x17f23004 LEN=7
# UVM_INFO ../src/seq/axi4_write_read_back_seq.sv(60) @ 1155000: uvm_test_top.env.master_agent.sqr@@wr_rd_seq_3 [axi4_write_read_back_seq] Write phase: ADDR=0x17f23004 LEN=7 SIZE=AXI4_SIZE_4B BURST=AXI4_BURST_INCR
# UVM_INFO ../src/mst/axi4_master_driver.sv(55) @ 1155000: uvm_test_top.env.master_agent.drv [axi4_master_driver] Driving AXI4_READ  ID=0xd  ADDR=0x17f23004  LEN=7
# UVM_INFO ../src/slv/axi4_slave_driver.sv(300) @ 1185000: uvm_test_top.env.slave_agent.drv [axi4_slave_driver] AR received: ID=0xd ADDR=0x17f23004 LEN=7 LOCK=AXI4_LOCK_NORMAL
# UVM_INFO ../src/mst/axi4_master_monitor.sv(246) @ 1185000: uvm_test_top.env.master_agent.mon [axi4_master_monitor] AR observed: ID=0xd ADDR=0x17f23004 LEN=7
# UVM_INFO ../src/slv/axi4_slave_monitor.sv(224) @ 1185000: uvm_test_top.env.slave_agent.mon [axi4_slave_monitor] AR received: ID=0xd ADDR=0x17f23004 LEN=7
# UVM_INFO ../src/mst/axi4_master_driver.sv(254) @ 1345000: uvm_test_top.env.master_agent.drv [axi4_master_driver] Read complete: 8 beats received
# UVM_INFO ../src/slv/axi4_slave_driver.sv(349) @ 1345000: uvm_test_top.env.slave_agent.drv [axi4_slave_driver] Read complete: ID=0xd ADDR=0x17f23004 RESP=AXI4_RESP_OKAY  8 beats sent
# UVM_INFO ../src/mst/axi4_master_monitor.sv(314) @ 1345000: uvm_test_top.env.master_agent.mon [axi4_master_monitor] Read complete: ID=0xd ADDR=0x17f23004 8 beats
# UVM_INFO ../src/env/axi4_scoreboard.sv(82) @ 1345000: uvm_test_top.env.scb [axi4_scoreboard] Master AXI4_READ received: ID=0xd ADDR=0x17f23004 LEN=7
# UVM_INFO ../src/slv/axi4_slave_monitor.sv(287) @ 1345000: uvm_test_top.env.slave_agent.mon [axi4_slave_monitor] Read data sent: ID=0xd ADDR=0x17f23004 8 beats
# UVM_INFO ../src/env/axi4_scoreboard.sv(103) @ 1345000: uvm_test_top.env.scb [axi4_scoreboard] Slave AXI4_READ received: ID=0xd ADDR=0x17f23004 LEN=7
# UVM_INFO ../src/env/axi4_scoreboard.sv(154) @ 1345000: uvm_test_top.env.scb [axi4_scoreboard] [READ] MATCH #8: ID=0xd ADDR=0x17f23004 LEN=7
# UVM_INFO ../src/seq/axi4_write_read_back_seq.sv(80) @ 1345000: uvm_test_top.env.master_agent.sqr@@wr_rd_seq_3 [axi4_write_read_back_seq] Read-back phase: ADDR=0x17f23004 LEN=7 - data integrity check via scoreboard
# UVM_INFO ../src/test/axi4_wr_rd_test.sv(52) @ 1345000: uvm_test_top [axi4_wr_rd_test] [5/10] ADDR=0xbb2b830b LEN=14 BURST=AXI4_BURST_INCR
# UVM_INFO ../src/mst/axi4_master_driver.sv(55) @ 1345000: uvm_test_top.env.master_agent.drv [axi4_master_driver] Driving AXI4_WRITE  ID=0x7  ADDR=0xbb2b830b  LEN=14
# UVM_INFO ../src/mst/axi4_master_driver.sv(106) @ 1345000: uvm_test_top.env.master_agent.drv [axi4_master_driver] Write order: W -> AW (W first)
# UVM_INFO ../src/slv/axi4_slave_driver.sv(165) @ 1405000: uvm_test_top.env.slave_agent.drv [axi4_slave_driver] AW received: ID=0x7 ADDR=0xbb2b830b LEN=14 LOCK=AXI4_LOCK_EXCLUSIVE
