sim/report/logs/axi4_burst_sweep_test_run_5_seed_47597712.log
# vsim -c -coverage -sv_seed 47597712 "+UVM_TESTNAME=axi4_burst_sweep_test" "+UVM_VERBOSITY=UVM_HIGH" "+DUMP_VCD" -l ./report/logs/axi4_burst_sweep_test_run_5_seed_47597712.log -do "coverage save -onexit ./report/coverage/axi4_burst_sweep_test_run_5_seed_47597712.ucdb; run -all; quit -f" opt_tb_top 
# Start time: 11:29:55 on Jun 05,2026
# //  Questa Sim-64
# //  Version 10.6b linux_x86_64 May 25 2017
# //
# //  Copyright 1991-2017 Mentor Graphics Corporation
# //  All Rights Reserved.
# //
# //  QuestaSim and its associated documentation contain trade
# //  secrets and commercial or financial information that are the property of
# //  Mentor Graphics Corporation and are privileged, confidential,
# //  and exempt from disclosure under the Freedom of Information Act,
# //  5 U.S.C. Section 552. Furthermore, this information
# //  is prohibited from disclosure under the Trade Secrets Act,
# //  18 U.S.C. Section 1905.
# //
# Loading sv_std.std
# Loading work.axi4_if(fast)
# Loading mtiUvm.uvm_pkg
# Loading work.axi4_pkg(fast)
# Loading work.axi4_test_pkg(fast)
# Loading work.tb_top(fast)
# Loading work.axi4_if(fast)
# Loading work.axi4_sva(fast)
# Loading mtiUvm.questa_uvm_pkg(fast)
# Loading /cadtools/mentor/Questa_10.6b/questasim/uvm-1.1d/linux_x86_64/uvm_dpi.so
# coverage save -onexit ./report/coverage/axi4_burst_sweep_test_run_5_seed_47597712.ucdb
#  run -all
# ----------------------------------------------------------------
# UVM-1.1d
# (C) 2007-2013 Mentor Graphics Corporation
# (C) 2007-2013 Cadence Design Systems, Inc.
# (C) 2006-2013 Synopsys, Inc.
# (C) 2011-2013 Cypress Semiconductor Corp.
# ----------------------------------------------------------------
# 
#   ***********       IMPORTANT RELEASE NOTES         ************
# 
#   You are using a version of the UVM library that has been compiled
#   with `UVM_NO_DEPRECATED undefined.
#   See http://www.eda.org/svdb/view.php?id=3313 for more details.
# 
#   You are using a version of the UVM library that has been compiled
#   with `UVM_OBJECT_MUST_HAVE_CONSTRUCTOR undefined.
#   See http://www.eda.org/svdb/view.php?id=3770 for more details.
# 
#       (Specify +UVM_NO_RELNOTES to turn off this notice)
# 
# UVM_INFO verilog_src/questa_uvm_pkg-1.2/src/questa_uvm_pkg.sv(215) @ 0: reporter [Questa UVM] QUESTA_UVM-1.2.3
# UVM_INFO verilog_src/questa_uvm_pkg-1.2/src/questa_uvm_pkg.sv(217) @ 0: reporter [Questa UVM]  questa_uvm::init(+struct)
# UVM_INFO ../src/tb_top.sv(128) @ 0: reporter [TB_TOP] Virtual interface set in config_db
# UVM_INFO @ 0: reporter [RNTST] Running test axi4_burst_sweep_test...
# UVM_INFO ../src/tb_top.sv(142) @ 0: reporter [TB_TOP] Waveform VCD dumping enabled (axi4_vip.vcd)
# UVM_INFO ../src/env/axi4_vip_env.sv(83) @ 0: uvm_test_top.env [axi4_vip_env] slave_vif not set - reusing master_vif (passthrough mode)
# UVM_INFO ../src/env/axi4_vip_env.sv(93) @ 0: uvm_test_top.env [axi4_vip_env] Scoreboard created
# UVM_INFO ../src/env/axi4_vip_env.sv(100) @ 0: uvm_test_top.env [axi4_vip_env] Coverage collectors created
# UVM_INFO ../src/mst/axi4_master_agent.sv(69) @ 0: uvm_test_top.env.master_agent [axi4_master_agent] ACTIVE mode - driver + sequencer created
# UVM_INFO ../src/slv/axi4_slave_agent.sv(82) @ 0: uvm_test_top.env.slave_agent [axi4_slave_agent] ACTIVE mode — ready_delay=[0:0] resp_delay=[0:0]
# UVM_INFO ../src/env/axi4_vip_env.sv(116) @ 0: uvm_test_top.env [axi4_vip_env] Scoreboard connected: master_mon.ap -> scb, slave_mon.ap -> scb
# UVM_INFO ../src/env/axi4_vip_env.sv(124) @ 0: uvm_test_top.env [axi4_vip_env] Coverage connected: master_mon.ap -> master_cov, slave_mon.ap -> slave_cov
# UVM_INFO @ 0: reporter [UVMTOP] UVM testbench topology:
# ---------------------------------------------------------------
# Name                       Type                     Size  Value
# ---------------------------------------------------------------
# uvm_test_top               axi4_burst_sweep_test    -     @473 
#   env                      axi4_vip_env             -     @488 
#     master_agent           axi4_master_agent        -     @503 
#       drv                  axi4_master_driver       -     @567 
#         rsp_port           uvm_analysis_port        -     @582 
#         seq_item_port      uvm_seq_item_pull_port   -     @574 
#       mon                  axi4_master_monitor      -     @559 
#         ap                 uvm_analysis_port        -     @700 
#       sqr                  axi4_master_sequencer    -     @590 
#         rsp_export         uvm_analysis_export      -     @597 
#         seq_item_export    uvm_seq_item_pull_imp    -     @691 
#         arbitration_queue  array                    0     -    
#         lock_queue         array                    0     -    
#         num_last_reqs      integral                 32    'd1  
#         num_last_rsps      integral                 32    'd1  
#     master_cov             axi4_coverage            -     @524 
#       analysis_imp         uvm_analysis_imp         -     @531 
#     scb                    axi4_scoreboard          -     @517 
#       master_export        uvm_analysis_imp_master  -     @714 
#       slave_export         uvm_analysis_imp_slave   -     @722 
#     slave_agent            axi4_slave_agent         -     @510 
#       drv                  axi4_slave_driver        -     @753 
#         rsp_port           uvm_analysis_port        -     @768 
#         seq_item_port      uvm_seq_item_pull_port   -     @760 
#       mon                  axi4_slave_monitor       -     @735 
#         ap                 uvm_analysis_port        -     @890 
#       sqr                  axi4_slave_sequencer     -     @776 
#         rsp_export         uvm_analysis_export      -     @783 
#         seq_item_export    uvm_seq_item_pull_imp    -     @877 
#         arbitration_queue  array                    0     -    
#         lock_queue         array                    0     -    
#         num_last_reqs      integral                 32    'd1  
#         num_last_rsps      integral                 32    'd1  
#     slave_cov              axi4_coverage            -     @539 
#       analysis_imp         uvm_analysis_imp         -     @546 
# ---------------------------------------------------------------
# 
# UVM_INFO verilog_src/questa_uvm_pkg-1.2/src/questa_uvm_pkg.sv(277) @ 0: reporter [Questa UVM] End Of Elaboration
# UVM_INFO ../src/test/axi4_burst_sweep_test.sv(24) @ 0: uvm_test_top [axi4_burst_sweep_test] Starting burst parameters sweep test (including error injection)
# UVM_INFO ../src/seq/axi4_burst_sweep_seq.sv(30) @ 0: uvm_test_top.env.master_agent.sqr@@sweep_seq [axi4_burst_sweep_seq] Starting burst type, size, and length sweep sequence
# UVM_INFO ../src/tb_top.sv(49) @ 95000: reporter [TOP_TB] Reset de-asserted
# UVM_INFO ../src/slv/axi4_slave_driver.sv(70) @ 95000: uvm_test_top.env.slave_agent.drv [axi4_slave_driver] Reset deasserted - slave driver active
# UVM_INFO ../src/mst/axi4_master_driver.sv(46) @ 95000: uvm_test_top.env.master_agent.drv [axi4_master_driver] Reset deasserted - master driver active
# UVM_INFO ../src/mst/axi4_master_monitor.sv(77) @ 95000: uvm_test_top.env.master_agent.mon [axi4_master_monitor] Reset deasserted — monitor active
# UVM_INFO ../src/slv/axi4_slave_monitor.sv(71) @ 95000: uvm_test_top.env.slave_agent.mon [axi4_slave_monitor] Reset deasserted — monitor active
# UVM_INFO ../src/mst/axi4_master_driver.sv(55) @ 95000: uvm_test_top.env.master_agent.drv [axi4_master_driver] Driving AXI4_WRITE  ID=0x8  ADDR=0xab590bd3  LEN=0
# UVM_INFO ../src/mst/axi4_master_driver.sv(94) @ 95000: uvm_test_top.env.master_agent.drv [axi4_master_driver] Write order: AW || W (parallel)
# UVM_INFO ../src/slv/axi4_slave_driver.sv(165) @ 115000: uvm_test_top.env.slave_agent.drv [axi4_slave_driver] AW received: ID=0x8 ADDR=0xab590bd3 LEN=0 LOCK=AXI4_LOCK_EXCLUSIVE
# UVM_INFO ../src/slv/axi4_slave_monitor.sv(116) @ 115000: uvm_test_top.env.slave_agent.mon [axi4_slave_monitor] AW received: ID=0x8 ADDR=0xab590bd3 LEN=0
# UVM_INFO ../src/mst/axi4_master_monitor.sv(124) @ 115000: uvm_test_top.env.master_agent.mon [axi4_master_monitor] AW observed: ID=0x8 ADDR=0xab590bd3 LEN=0
# UVM_INFO ../src/slv/axi4_slave_monitor.sv(167) @ 115000: uvm_test_top.env.slave_agent.mon [axi4_slave_monitor] W data assembled: ID=0x8 ADDR=0xab590bd3 1 beats
# UVM_INFO ../src/mst/axi4_master_monitor.sv(184) @ 115000: uvm_test_top.env.master_agent.mon [axi4_master_monitor] W data assembled: ID=0x8 ADDR=0xab590bd3 1 beats
# UVM_INFO ../src/mst/axi4_master_driver.sv(197) @ 135000: uvm_test_top.env.master_agent.drv [axi4_master_driver] Write response: AXI4_RESP_OKAY
# UVM_INFO ../src/slv/axi4_slave_driver.sv(261) @ 135000: uvm_test_top.env.slave_agent.drv [axi4_slave_driver] Write complete: ID=0x8 ADDR=0xab590bd3 RESP=AXI4_RESP_OKAY  1 beats processed
# UVM_INFO ../src/slv/axi4_slave_monitor.sv(189) @ 135000: uvm_test_top.env.slave_agent.mon [axi4_slave_monitor] Write response sent: ID=0x8 ADDR=0xab590bd3 RESP=AXI4_RESP_OKAY
# UVM_INFO ../src/env/axi4_scoreboard.sv(103) @ 135000: uvm_test_top.env.scb [axi4_scoreboard] Slave AXI4_WRITE received: ID=0x8 ADDR=0xab590bd3 LEN=0
# UVM_INFO ../src/mst/axi4_master_monitor.sv(210) @ 135000: uvm_test_top.env.master_agent.mon [axi4_master_monitor] Write complete: ID=0x8 ADDR=0xab590bd3 RESP=AXI4_RESP_OKAY
# UVM_INFO ../src/env/axi4_scoreboard.sv(82) @ 135000: uvm_test_top.env.scb [axi4_scoreboard] Master AXI4_WRITE received: ID=0x8 ADDR=0xab590bd3 LEN=0
# UVM_INFO ../src/env/axi4_scoreboard.sv(154) @ 135000: uvm_test_top.env.scb [axi4_scoreboard] [WRITE] MATCH #1: ID=0x8 ADDR=0xab590bd3 LEN=0
# UVM_INFO ../src/mst/axi4_master_driver.sv(55) @ 135000: uvm_test_top.env.master_agent.drv [axi4_master_driver] Driving AXI4_READ  ID=0xd  ADDR=0x652fcfa4  LEN=0
# UVM_INFO ../src/slv/axi4_slave_driver.sv(300) @ 165000: uvm_test_top.env.slave_agent.drv [axi4_slave_driver] AR received: ID=0xd ADDR=0x652fcfa4 LEN=0 LOCK=AXI4_LOCK_NORMAL
# UVM_INFO ../src/mst/axi4_master_monitor.sv(246) @ 165000: uvm_test_top.env.master_agent.mon [axi4_master_monitor] AR observed: ID=0xd ADDR=0x652fcfa4 LEN=0
# UVM_INFO ../src/slv/axi4_slave_monitor.sv(224) @ 165000: uvm_test_top.env.slave_agent.mon [axi4_slave_monitor] AR received: ID=0xd ADDR=0x652fcfa4 LEN=0
# UVM_INFO ../src/mst/axi4_master_driver.sv(254) @ 185000: uvm_test_top.env.master_agent.drv [axi4_master_driver] Read complete: 1 beats received
# UVM_INFO ../src/slv/axi4_slave_driver.sv(349) @ 185000: uvm_test_top.env.slave_agent.drv [axi4_slave_driver] Read complete: ID=0xd ADDR=0x652fcfa4 RESP=AXI4_RESP_OKAY  1 beats sent
# UVM_INFO ../src/mst/axi4_master_monitor.sv(314) @ 185000: uvm_test_top.env.master_agent.mon [axi4_master_monitor] Read complete: ID=0xd ADDR=0x652fcfa4 1 beats
# UVM_INFO ../src/env/axi4_scoreboard.sv(82) @ 185000: uvm_test_top.env.scb [axi4_scoreboard] Master AXI4_READ received: ID=0xd ADDR=0x652fcfa4 LEN=0
# UVM_INFO ../src/slv/axi4_slave_monitor.sv(287) @ 185000: uvm_test_top.env.slave_agent.mon [axi4_slave_monitor] Read data sent: ID=0xd ADDR=0x652fcfa4 1 beats
# UVM_INFO ../src/env/axi4_scoreboard.sv(103) @ 185000: uvm_test_top.env.scb [axi4_scoreboard] Slave AXI4_READ received: ID=0xd ADDR=0x652fcfa4 LEN=0
# UVM_INFO ../src/env/axi4_scoreboard.sv(154) @ 185000: uvm_test_top.env.scb [axi4_scoreboard] [READ] MATCH #2: ID=0xd ADDR=0x652fcfa4 LEN=0
# UVM_INFO ../src/mst/axi4_master_driver.sv(55) @ 185000: uvm_test_top.env.master_agent.drv [axi4_master_driver] Driving AXI4_WRITE  ID=0x5  ADDR=0x2f56512b  LEN=0
# UVM_INFO ../src/mst/axi4_master_driver.sv(94) @ 185000: uvm_test_top.env.master_agent.drv [axi4_master_driver] Write order: AW || W (parallel)
# UVM_INFO ../src/slv/axi4_slave_driver.sv(165) @ 215000: uvm_test_top.env.slave_agent.drv [axi4_slave_driver] AW received: ID=0x5 ADDR=0x2f56512b LEN=0 LOCK=AXI4_LOCK_NORMAL
# UVM_INFO ../src/slv/axi4_slave_monitor.sv(116) @ 215000: uvm_test_top.env.slave_agent.mon [axi4_slave_monitor] AW received: ID=0x5 ADDR=0x2f56512b LEN=0
# UVM_INFO ../src/mst/axi4_master_monitor.sv(124) @ 215000: uvm_test_top.env.master_agent.mon [axi4_master_monitor] AW observed: ID=0x5 ADDR=0x2f56512b LEN=0
# UVM_INFO ../src/slv/axi4_slave_monitor.sv(167) @ 215000: uvm_test_top.env.slave_agent.mon [axi4_slave_monitor] W data assembled: ID=0x5 ADDR=0x2f56512b 1 beats
# UVM_INFO ../src/mst/axi4_master_monitor.sv(184) @ 215000: uvm_test_top.env.master_agent.mon [axi4_master_monitor] W data assembled: ID=0x5 ADDR=0x2f56512b 1 beats
# UVM_INFO ../src/mst/axi4_master_driver.sv(197) @ 235000: uvm_test_top.env.master_agent.drv [axi4_master_driver] Write response: AXI4_RESP_OKAY
# UVM_INFO ../src/slv/axi4_slave_driver.sv(261) @ 235000: uvm_test_top.env.slave_agent.drv [axi4_slave_driver] Write complete: ID=0x5 ADDR=0x2f56512b RESP=AXI4_RESP_OKAY  1 beats processed
# UVM_INFO ../src/slv/axi4_slave_monitor.sv(189) @ 235000: uvm_test_top.env.slave_agent.mon [axi4_slave_monitor] Write response sent: ID=0x5 ADDR=0x2f56512b RESP=AXI4_RESP_OKAY
# UVM_INFO ../src/env/axi4_scoreboard.sv(103) @ 235000: uvm_test_top.env.scb [axi4_scoreboard] Slave AXI4_WRITE received: ID=0x5 ADDR=0x2f56512b LEN=0
# UVM_INFO ../src/mst/axi4_master_monitor.sv(210) @ 235000: uvm_test_top.env.master_agent.mon [axi4_master_monitor] Write complete: ID=0x5 ADDR=0x2f56512b RESP=AXI4_RESP_OKAY
# UVM_INFO ../src/env/axi4_scoreboard.sv(82) @ 235000: uvm_test_top.env.scb [axi4_scoreboard] Master AXI4_WRITE received: ID=0x5 ADDR=0x2f56512b LEN=0
# UVM_INFO ../src/env/axi4_scoreboard.sv(154) @ 235000: uvm_test_top.env.scb [axi4_scoreboard] [WRITE] MATCH #3: ID=0x5 ADDR=0x2f56512b LEN=0
# UVM_INFO ../src/mst/axi4_master_driver.sv(55) @ 235000: uvm_test_top.env.master_agent.drv [axi4_master_driver] Driving AXI4_READ  ID=0x1  ADDR=0x66017f9f  LEN=0
# UVM_INFO ../src/slv/axi4_slave_driver.sv(300) @ 265000: uvm_test_top.env.slave_agent.drv [axi4_slave_driver] AR received: ID=0x1 ADDR=0x66017f9f LEN=0 LOCK=AXI4_LOCK_NORMAL
# UVM_INFO ../src/mst/axi4_master_monitor.sv(246) @ 265000: uvm_test_top.env.master_agent.mon [axi4_master_monitor] AR observed: ID=0x1 ADDR=0x66017f9f LEN=0
# UVM_INFO ../src/slv/axi4_slave_monitor.sv(224) @ 265000: uvm_test_top.env.slave_agent.mon [axi4_slave_monitor] AR received: ID=0x1 ADDR=0x66017f9f LEN=0
# UVM_INFO ../src/mst/axi4_master_driver.sv(254) @ 285000: uvm_test_top.env.master_agent.drv [axi4_master_driver] Read complete: 1 beats received
# UVM_INFO ../src/slv/axi4_slave_driver.sv(349) @ 285000: uvm_test_top.env.slave_agent.drv [axi4_slave_driver] Read complete: ID=0x1 ADDR=0x66017f9f RESP=AXI4_RESP_OKAY  1 beats sent
# UVM_INFO ../src/mst/axi4_master_monitor.sv(314) @ 285000: uvm_test_top.env.master_agent.mon [axi4_master_monitor] Read complete: ID=0x1 ADDR=0x66017f9f 1 beats
# UVM_INFO ../src/env/axi4_scoreboard.sv(82) @ 285000: uvm_test_top.env.scb [axi4_scoreboard] Master AXI4_READ received: ID=0x1 ADDR=0x66017f9f LEN=0
# UVM_INFO ../src/slv/axi4_slave_monitor.sv(287) @ 285000: uvm_test_top.env.slave_agent.mon [axi4_slave_monitor] Read data sent: ID=0x1 ADDR=0x66017f9f 1 beats
# UVM_INFO ../src/env/axi4_scoreboard.sv(103) @ 285000: uvm_test_top.env.scb [axi4_scoreboard] Slave AXI4_READ received: ID=0x1 ADDR=0x66017f9f LEN=0
# UVM_INFO ../src/env/axi4_scoreboard.sv(154) @ 285000: uvm_test_top.env.scb [axi4_scoreboard] [READ] MATCH #4: ID=0x1 ADDR=0x66017f9f LEN=0
# UVM_INFO ../src/mst/axi4_master_driver.sv(55) @ 285000: uvm_test_top.env.master_agent.drv [axi4_master_driver] Driving AXI4_WRITE  ID=0xc  ADDR=0x82c0af80  LEN=0
# UVM_INFO ../src/mst/axi4_master_driver.sv(94) @ 285000: uvm_test_top.env.master_agent.drv [axi4_master_driver] Write order: AW || W (parallel)
# UVM_INFO ../src/slv/axi4_slave_driver.sv(165) @ 315000: uvm_test_top.env.slave_agent.drv [axi4_slave_driver] AW received: ID=0xc ADDR=0x82c0af80 LEN=0 LOCK=AXI4_LOCK_NORMAL
# UVM_INFO ../src/slv/axi4_slave_monitor.sv(116) @ 315000: uvm_test_top.env.slave_agent.mon [axi4_slave_monitor] AW received: ID=0xc ADDR=0x82c0af80 LEN=0
# UVM_INFO ../src/mst/axi4_master_monitor.sv(124) @ 315000: uvm_test_top.env.master_agent.mon [axi4_master_monitor] AW observed: ID=0xc ADDR=0x82c0af80 LEN=0
# UVM_INFO ../src/slv/axi4_slave_monitor.sv(167) @ 315000: uvm_test_top.env.slave_agent.mon [axi4_slave_monitor] W data assembled: ID=0xc ADDR=0x82c0af80 1 beats
# UVM_INFO ../src/mst/axi4_master_monitor.sv(184) @ 315000: uvm_test_top.env.master_agent.mon [axi4_master_monitor] W data assembled: ID=0xc ADDR=0x82c0af80 1 beats
# UVM_INFO ../src/mst/axi4_master_driver.sv(197) @ 335000: uvm_test_top.env.master_agent.drv [axi4_master_driver] Write response: AXI4_RESP_OKAY
# UVM_INFO ../src/slv/axi4_slave_driver.sv(261) @ 335000: uvm_test_top.env.slave_agent.drv [axi4_slave_driver] Write complete: ID=0xc ADDR=0x82c0af80 RESP=AXI4_RESP_OKAY  1 beats processed
# UVM_INFO ../src/slv/axi4_slave_monitor.sv(189) @ 335000: uvm_test_top.env.slave_agent.mon [axi4_slave_monitor] Write response sent: ID=0xc ADDR=0x82c0af80 RESP=AXI4_RESP_OKAY
# UVM_INFO ../src/env/axi4_scoreboard.sv(103) @ 335000: uvm_test_top.env.scb [axi4_scoreboard] Slave AXI4_WRITE received: ID=0xc ADDR=0x82c0af80 LEN=0
# UVM_INFO ../src/mst/axi4_master_monitor.sv(210) @ 335000: uvm_test_top.env.master_agent.mon [axi4_master_monitor] Write complete: ID=0xc ADDR=0x82c0af80 RESP=AXI4_RESP_OKAY
# UVM_INFO ../src/env/axi4_scoreboard.sv(82) @ 335000: uvm_test_top.env.scb [axi4_scoreboard] Master AXI4_WRITE received: ID=0xc ADDR=0x82c0af80 LEN=0
# UVM_INFO ../src/env/axi4_scoreboard.sv(154) @ 335000: uvm_test_top.env.scb [axi4_scoreboard] [WRITE] MATCH #5: ID=0xc ADDR=0x82c0af80 LEN=0
# UVM_INFO ../src/mst/axi4_master_driver.sv(55) @ 335000: uvm_test_top.env.master_agent.drv [axi4_master_driver] Driving AXI4_READ  ID=0x7  ADDR=0x51b20abd  LEN=0
# UVM_INFO ../src/slv/axi4_slave_driver.sv(300) @ 365000: uvm_test_top.env.slave_agent.drv [axi4_slave_driver] AR received: ID=0x7 ADDR=0x51b20abd LEN=0 LOCK=AXI4_LOCK_NORMAL
# UVM_INFO ../src/mst/axi4_master_monitor.sv(246) @ 365000: uvm_test_top.env.master_agent.mon [axi4_master_monitor] AR observed: ID=0x7 ADDR=0x51b20abd LEN=0
# UVM_INFO ../src/slv/axi4_slave_monitor.sv(224) @ 365000: uvm_test_top.env.slave_agent.mon [axi4_slave_monitor] AR received: ID=0x7 ADDR=0x51b20abd LEN=0
# UVM_INFO ../src/mst/axi4_master_driver.sv(254) @ 385000: uvm_test_top.env.master_agent.drv [axi4_master_driver] Read complete: 1 beats received
# UVM_INFO ../src/slv/axi4_slave_driver.sv(349) @ 385000: uvm_test_top.env.slave_agent.drv [axi4_slave_driver] Read complete: ID=0x7 ADDR=0x51b20abd RESP=AXI4_RESP_OKAY  1 beats sent
# UVM_INFO ../src/mst/axi4_master_monitor.sv(314) @ 385000: uvm_test_top.env.master_agent.mon [axi4_master_monitor] Read complete: ID=0x7 ADDR=0x51b20abd 1 beats
# UVM_INFO ../src/env/axi4_scoreboard.sv(82) @ 385000: uvm_test_top.env.scb [axi4_scoreboard] Master AXI4_READ received: ID=0x7 ADDR=0x51b20abd LEN=0
# UVM_INFO ../src/slv/axi4_slave_monitor.sv(287) @ 385000: uvm_test_top.env.slave_agent.mon [axi4_slave_monitor] Read data sent: ID=0x7 ADDR=0x51b20abd 1 beats
# UVM_INFO ../src/env/axi4_scoreboard.sv(103) @ 385000: uvm_test_top.env.scb [axi4_scoreboard] Slave AXI4_READ received: ID=0x7 ADDR=0x51b20abd LEN=0
# UVM_INFO ../src/env/axi4_scoreboard.sv(154) @ 385000: uvm_test_top.env.scb [axi4_scoreboard] [READ] MATCH #6: ID=0x7 ADDR=0x51b20abd LEN=0
# UVM_INFO ../src/mst/axi4_master_driver.sv(55) @ 385000: uvm_test_top.env.master_agent.drv [axi4_master_driver] Driving AXI4_WRITE  ID=0xa  ADDR=0x2a910973  LEN=1
# UVM_INFO ../src/mst/axi4_master_driver.sv(101) @ 385000: uvm_test_top.env.master_agent.drv [axi4_master_driver] Write order: AW -> W (sequential)
# UVM_INFO ../src/slv/axi4_slave_driver.sv(165) @ 415000: uvm_test_top.env.slave_agent.drv [axi4_slave_driver] AW received: ID=0xa ADDR=0x2a910973 LEN=1 LOCK=AXI4_LOCK_NORMAL
# UVM_INFO ../src/slv/axi4_slave_monitor.sv(116) @ 415000: uvm_test_top.env.slave_agent.mon [axi4_slave_monitor] AW received: ID=0xa ADDR=0x2a910973 LEN=1
# UVM_INFO ../src/mst/axi4_master_monitor.sv(124) @ 415000: uvm_test_top.env.master_agent.mon [axi4_master_monitor] AW observed: ID=0xa ADDR=0x2a910973 LEN=1
# UVM_INFO ../src/slv/axi4_slave_monitor.sv(167) @ 455000: uvm_test_top.env.slave_agent.mon [axi4_slave_monitor] W data assembled: ID=0xa ADDR=0x2a910973 2 beats
# UVM_INFO ../src/mst/axi4_master_monitor.sv(184) @ 455000: uvm_test_top.env.master_agent.mon [axi4_master_monitor] W data assembled: ID=0xa ADDR=0x2a910973 2 beats
# UVM_INFO ../src/mst/axi4_master_driver.sv(197) @ 485000: uvm_test_top.env.master_agent.drv [axi4_master_driver] Write response: AXI4_RESP_OKAY
# UVM_INFO ../src/slv/axi4_slave_driver.sv(261) @ 485000: uvm_test_top.env.slave_agent.drv [axi4_slave_driver] Write complete: ID=0xa ADDR=0x2a910973 RESP=AXI4_RESP_OKAY  2 beats processed
# UVM_INFO ../src/mst/axi4_master_monitor.sv(210) @ 485000: uvm_test_top.env.master_agent.mon [axi4_master_monitor] Write complete: ID=0xa ADDR=0x2a910973 RESP=AXI4_RESP_OKAY
# UVM_INFO ../src/env/axi4_scoreboard.sv(82) @ 485000: uvm_test_top.env.scb [axi4_scoreboard] Master AXI4_WRITE received: ID=0xa ADDR=0x2a910973 LEN=1
# UVM_INFO ../src/slv/axi4_slave_monitor.sv(189) @ 485000: uvm_test_top.env.slave_agent.mon [axi4_slave_monitor] Write response sent: ID=0xa ADDR=0x2a910973 RESP=AXI4_RESP_OKAY
# UVM_INFO ../src/env/axi4_scoreboard.sv(103) @ 485000: uvm_test_top.env.scb [axi4_scoreboard] Slave AXI4_WRITE received: ID=0xa ADDR=0x2a910973 LEN=1
# UVM_INFO ../src/env/axi4_scoreboard.sv(154) @ 485000: uvm_test_top.env.scb [axi4_scoreboard] [WRITE] MATCH #7: ID=0xa ADDR=0x2a910973 LEN=1
# UVM_INFO ../src/mst/axi4_master_driver.sv(55) @ 485000: uvm_test_top.env.master_agent.drv [axi4_master_driver] Driving AXI4_READ  ID=0x3  ADDR=0x6da09bc6  LEN=1
# UVM_INFO ../src/slv/axi4_slave_driver.sv(300) @ 515000: uvm_test_top.env.slave_agent.drv [axi4_slave_driver] AR received: ID=0x3 ADDR=0x6da09bc6 LEN=1 LOCK=AXI4_LOCK_NORMAL
# UVM_INFO ../src/slv/axi4_slave_monitor.sv(224) @ 515000: uvm_test_top.env.slave_agent.mon [axi4_slave_monitor] AR received: ID=0x3 ADDR=0x6da09bc6 LEN=1
# UVM_INFO ../src/mst/axi4_master_monitor.sv(246) @ 515000: uvm_test_top.env.master_agent.mon [axi4_master_monitor] AR observed: ID=0x3 ADDR=0x6da09bc6 LEN=1
# UVM_INFO ../src/mst/axi4_master_driver.sv(254) @ 555000: uvm_test_top.env.master_agent.drv [axi4_master_driver] Read complete: 2 beats received
# UVM_INFO ../src/slv/axi4_slave_driver.sv(349) @ 555000: uvm_test_top.env.slave_agent.drv [axi4_slave_driver] Read complete: ID=0x3 ADDR=0x6da09bc6 RESP=AXI4_RESP_OKAY  2 beats sent
# UVM_INFO ../src/slv/axi4_slave_monitor.sv(287) @ 555000: uvm_test_top.env.slave_agent.mon [axi4_slave_monitor] Read data sent: ID=0x3 ADDR=0x6da09bc6 2 beats
# UVM_INFO ../src/env/axi4_scoreboard.sv(103) @ 555000: uvm_test_top.env.scb [axi4_scoreboard] Slave AXI4_READ received: ID=0x3 ADDR=0x6da09bc6 LEN=1
# UVM_INFO ../src/mst/axi4_master_monitor.sv(314) @ 555000: uvm_test_top.env.master_agent.mon [axi4_master_monitor] Read complete: ID=0x3 ADDR=0x6da09bc6 2 beats
# UVM_INFO ../src/env/axi4_scoreboard.sv(82) @ 555000: uvm_test_top.env.scb [axi4_scoreboard] Master AXI4_READ received: ID=0x3 ADDR=0x6da09bc6 LEN=1
# UVM_INFO ../src/env/axi4_scoreboard.sv(154) @ 555000: uvm_test_top.env.scb [axi4_scoreboard] [READ] MATCH #8: ID=0x3 ADDR=0x6da09bc6 LEN=1
# UVM_INFO ../src/mst/axi4_master_driver.sv(55) @ 555000: uvm_test_top.env.master_agent.drv [axi4_master_driver] Driving AXI4_WRITE  ID=0x3  ADDR=0x5da1811e  LEN=1
# UVM_INFO ../src/mst/axi4_master_driver.sv(94) @ 555000: uvm_test_top.env.master_agent.drv [axi4_master_driver] Write order: AW || W (parallel)
# UVM_INFO ../src/slv/axi4_slave_driver.sv(165) @ 585000: uvm_test_top.env.slave_agent.drv [axi4_slave_driver] AW received: ID=0x3 ADDR=0x5da1811e LEN=1 LOCK=AXI4_LOCK_NORMAL
# UVM_INFO ../src/mst/axi4_master_monitor.sv(124) @ 585000: uvm_test_top.env.master_agent.mon [axi4_master_monitor] AW observed: ID=0x3 ADDR=0x5da1811e LEN=1
# UVM_INFO ../src/slv/axi4_slave_monitor.sv(116) @ 585000: uvm_test_top.env.slave_agent.mon [axi4_slave_monitor] AW received: ID=0x3 ADDR=0x5da1811e LEN=1
# UVM_INFO ../src/slv/axi4_slave_monitor.sv(167) @ 595000: uvm_test_top.env.slave_agent.mon [axi4_slave_monitor] W data assembled: ID=0x3 ADDR=0x5da1811e 2 beats
# UVM_INFO ../src/mst/axi4_master_monitor.sv(184) @ 595000: uvm_test_top.env.master_agent.mon [axi4_master_monitor] W data assembled: ID=0x3 ADDR=0x5da1811e 2 beats
# UVM_INFO ../src/mst/axi4_master_driver.sv(197) @ 625000: uvm_test_top.env.master_agent.drv [axi4_master_driver] Write response: AXI4_RESP_OKAY
# UVM_INFO ../src/slv/axi4_slave_driver.sv(261) @ 625000: uvm_test_top.env.slave_agent.drv [axi4_slave_driver] Write complete: ID=0x3 ADDR=0x5da1811e RESP=AXI4_RESP_OKAY  2 beats processed
# UVM_INFO ../src/mst/axi4_master_monitor.sv(210) @ 625000: uvm_test_top.env.master_agent.mon [axi4_master_monitor] Write complete: ID=0x3 ADDR=0x5da1811e RESP=AXI4_RESP_OKAY
# UVM_INFO ../src/env/axi4_scoreboard.sv(82) @ 625000: uvm_test_top.env.scb [axi4_scoreboard] Master AXI4_WRITE received: ID=0x3 ADDR=0x5da1811e LEN=1
# UVM_INFO ../src/slv/axi4_slave_monitor.sv(189) @ 625000: uvm_test_top.env.slave_agent.mon [axi4_slave_monitor] Write response sent: ID=0x3 ADDR=0x5da1811e RESP=AXI4_RESP_OKAY
# UVM_INFO ../src/env/axi4_scoreboard.sv(103) @ 625000: uvm_test_top.env.scb [axi4_scoreboard] Slave AXI4_WRITE received: ID=0x3 ADDR=0x5da1811e LEN=1
# UVM_INFO ../src/env/axi4_scoreboard.sv(154) @ 625000: uvm_test_top.env.scb [axi4_scoreboard] [WRITE] MATCH #9: ID=0x3 ADDR=0x5da1811e LEN=1
# UVM_INFO ../src/mst/axi4_master_driver.sv(55) @ 625000: uvm_test_top.env.master_agent.drv [axi4_master_driver] Driving AXI4_READ  ID=0x0  ADDR=0x51e73c08  LEN=1
# UVM_INFO ../src/slv/axi4_slave_driver.sv(300) @ 655000: uvm_test_top.env.slave_agent.drv [axi4_slave_driver] AR received: ID=0x0 ADDR=0x51e73c08 LEN=1 LOCK=AXI4_LOCK_NORMAL
# UVM_INFO ../src/slv/axi4_slave_monitor.sv(224) @ 655000: uvm_test_top.env.slave_agent.mon [axi4_slave_monitor] AR received: ID=0x0 ADDR=0x51e73c08 LEN=1
